EESchema Schematic File Version 4
LIBS:jts-100-step-down-cache
EELAYER 29 0
EELAYER END
$Descr A4 11693 8268
encoding utf-8
Sheet 1 1
Title ""
Date ""
Rev ""
Comp ""
Comment1 ""
Comment2 ""
Comment3 ""
Comment4 ""
$EndDescr
$Comp
L t14_passive:C 0.1
U 1 1 5C8D5408
P 5600 2000
F 0 "0.1" H 5715 2038 40  0000 L CNN
F 1 "BOOT" H 5715 1962 40  0000 L CNN
F 2 "" V 5750 2000 30  0001 C CNN
F 3 "" H 5600 2100 60  0001 C CNN
	1    5600 2000
	1    0    0    -1  
$EndComp
$Comp
L t14_passive:R 3.3
U 1 1 5C8D5AD1
P 5200 1850
F 0 "3.3" H 5271 1888 40  0000 L CNN
F 1 "R_BOOT" H 5271 1812 40  0000 L CNN
F 2 "t14_standardSMD:R3216m" V 5300 1800 30  0001 C CNN
F 3 "" V 5120 1800 30  0001 C CNN
	1    5200 1850
	-1   0    0    1   
$EndComp
$Comp
L v5_Device:L L1
U 1 1 5C8D5E97
P 6400 2800
F 0 "L1" H 6453 2846 50  0000 L CNN
F 1 "L" H 6453 2755 50  0000 L CNN
F 2 "" H 6400 2800 50  0001 C CNN
F 3 "~" H 6400 2800 50  0001 C CNN
	1    6400 2800
	1    0    0    -1  
$EndComp
$Comp
L t14_power:GND #PWR0101
U 1 1 5C8D62E0
P 5800 3800
F 0 "#PWR0101" H 5800 3550 50  0001 C CNN
F 1 "GND" H 5805 3677 50  0000 C CNN
F 2 "" H 5800 3800 50  0001 C CNN
F 3 "" H 5800 3800 50  0001 C CNN
	1    5800 3800
	1    0    0    -1  
$EndComp
Wire Wire Line
	5400 2150 5200 2150
Wire Wire Line
	5200 2150 5200 2000
Connection ~ 5200 2150
Wire Wire Line
	5200 1700 5200 1600
Wire Wire Line
	5200 1600 5600 1600
Wire Wire Line
	5600 1600 5600 1850
$Comp
L t14_passive:R ZEROOHMULTRASONICSELECT1
U 1 1 5C8DF100
P 6350 1600
F 0 "ZEROOHMULTRASONICSELECT1" V 6450 1638 40  0000 C BNN
F 1 "R_U_SONIC" V 6275 1562 40  0000 C BNN
F 2 "t14_standardSMD:R3216m" V 6450 1550 30  0001 C CNN
F 3 "" V 6270 1550 30  0001 C CNN
	1    6350 1600
	0    -1   -1   0   
$EndComp
$Comp
L t14_passive:R R_PDG1
U 1 1 5C8DFE9F
P 6800 2000
F 0 "R_PDG1" V 6900 2000 40  0000 C BNN
F 1 "102K" V 6725 1962 40  0000 C BNN
F 2 "t14_standardSMD:R3216m" V 6900 1950 30  0001 C CNN
F 3 "" V 6720 1950 30  0001 C CNN
	1    6800 2000
	0    -1   -1   0   
$EndComp
Wire Wire Line
	6200 1600 5900 1600
Wire Wire Line
	6500 1600 7400 1600
Wire Wire Line
	7400 1600 7400 2000
Wire Wire Line
	6100 2000 6650 2000
Wire Wire Line
	6950 2000 7400 2000
Connection ~ 7400 2000
Wire Wire Line
	7400 2000 7400 3050
$Comp
L t14_passive:R R_EN_H1
U 1 1 5C8E4918
P 4250 1200
F 0 "R_EN_H1" V 4350 1200 40  0000 C BNN
F 1 "560K" V 4150 1200 40  0000 C BNN
F 2 "t14_standardSMD:R3216m" V 4350 1150 30  0001 C CNN
F 3 "" V 4170 1150 30  0001 C CNN
	1    4250 1200
	0    -1   -1   0   
$EndComp
Wire Wire Line
	4400 1200 4650 1200
$Comp
L t14_passive:R R_EN_L1
U 1 1 5C8E5C34
P 7650 1200
F 0 "R_EN_L1" V 7750 1200 40  0000 C BNN
F 1 "DNP" V 7550 1200 40  0000 C BNN
F 2 "t14_standardSMD:R3216m" V 7750 1150 30  0001 C CNN
F 3 "" V 7570 1150 30  0001 C CNN
	1    7650 1200
	0    -1   -1   0   
$EndComp
Wire Wire Line
	7500 1200 4650 1200
Connection ~ 4650 1200
Wire Wire Line
	3500 2800 3500 1200
Wire Wire Line
	3500 1200 4100 1200
Wire Wire Line
	3500 2900 3500 2800
Connection ~ 3500 2800
Wire Wire Line
	3500 3000 3500 2900
Connection ~ 3500 2900
Wire Wire Line
	3500 3100 3500 3000
Connection ~ 3500 3000
Wire Wire Line
	3500 3100 3250 3100
Wire Wire Line
	3250 3100 3250 3800
Connection ~ 3500 3100
$Comp
L t14_passive:C 0.1
U 1 1 5C8E94A5
P 3500 3250
F 0 "0.1" H 3350 3150 40  0000 L CNN
F 1 "CIN_D" H 3615 3212 40  0000 L CNN
F 2 "" V 3650 3250 30  0001 C CNN
F 3 "" H 3500 3350 60  0001 C CNN
	1    3500 3250
	1    0    0    -1  
$EndComp
$Comp
L t14_passive:C CIN1
U 1 1 5C8EE5AD
P 3250 3950
F 0 "CIN1" H 3050 3950 40  0000 L CNN
F 1 "47" H 3300 3850 40  0000 L CNN
F 2 "" V 3400 3950 30  0001 C CNN
F 3 "" H 3250 4050 60  0001 C CNN
	1    3250 3950
	1    0    0    -1  
$EndComp
Wire Wire Line
	4000 3550 4000 3650
Connection ~ 4000 3650
Wire Wire Line
	4000 3650 4000 3750
Connection ~ 4000 3750
Wire Wire Line
	4000 3750 4000 3850
Connection ~ 4000 3850
Wire Wire Line
	4000 3850 4000 3950
Wire Wire Line
	3500 3400 3500 4350
Connection ~ 3500 3400
$Comp
L t14_power:GND #PWR0102
U 1 1 5C8F346F
P 3500 4350
F 0 "#PWR0102" H 3500 4100 50  0001 C CNN
F 1 "GND" H 3505 4227 50  0000 C CNN
F 2 "" H 3500 4350 50  0001 C CNN
F 3 "" H 3500 4350 50  0001 C CNN
	1    3500 4350
	1    0    0    -1  
$EndComp
Wire Wire Line
	4200 3650 4000 3650
Wire Wire Line
	3500 3100 4200 3100
Wire Wire Line
	4200 3000 3500 3000
Wire Wire Line
	5200 2300 5200 2150
Wire Wire Line
	5400 2300 5400 2150
Wire Wire Line
	5600 2150 5600 2300
Wire Wire Line
	4200 3550 4000 3550
Wire Wire Line
	4650 1200 4650 2300
Wire Wire Line
	4200 2900 3500 2900
Wire Wire Line
	3500 3400 4200 3400
Wire Wire Line
	7400 3050 7200 3050
Wire Wire Line
	6100 2300 6100 2000
Wire Wire Line
	6300 2300 6300 2250
Wire Wire Line
	5900 1600 5900 2300
Wire Wire Line
	4200 3950 4000 3950
Wire Wire Line
	5200 4300 5200 4500
Wire Wire Line
	4200 3850 4000 3850
Wire Wire Line
	4200 3750 4000 3750
Wire Wire Line
	4200 2800 3500 2800
$Comp
L t14_ic:SIC461 U1
U 1 1 5C8D503E
P 4200 2800
F 0 "U1" H 4818 2661 50  0000 L CNN
F 1 "SIC461" H 4818 2570 50  0000 L CNN
F 2 "" H 4200 2800 50  0001 C CNN
F 3 "" H 4200 2800 50  0001 C CNN
	1    4200 2800
	1    0    0    -1  
$EndComp
$Comp
L t14_passive:C CDRV1
U 1 1 5C8FA2F6
P 5350 5200
F 0 "CDRV1" H 5100 5100 40  0000 L CNN
F 1 "4.7" H 5500 5200 40  0000 L CNN
F 2 "" V 5500 5200 30  0001 C CNN
F 3 "" H 5350 5300 60  0001 C CNN
	1    5350 5200
	1    0    0    -1  
$EndComp
Wire Wire Line
	3250 4100 3250 5500
Wire Wire Line
	3250 5500 4000 5500
Wire Wire Line
	4000 3950 4000 5500
Connection ~ 4000 3950
Connection ~ 4000 5500
Wire Wire Line
	5500 4300 5500 4500
Wire Wire Line
	5500 4900 6000 4900
Wire Wire Line
	5650 4300 5650 4500
Wire Wire Line
	5650 4500 5500 4500
Connection ~ 5500 4500
Wire Wire Line
	5500 4500 5500 4700
Wire Wire Line
	5800 4300 5800 4500
Wire Wire Line
	5800 4500 5650 4500
Connection ~ 5650 4500
Wire Wire Line
	7000 4700 7000 4900
Connection ~ 5500 4700
Wire Wire Line
	5500 4700 5500 4900
Connection ~ 7000 4900
Wire Wire Line
	7000 4900 7500 4900
$Comp
L t14_passive:C CX1
U 1 1 5C90749D
P 6700 4700
F 0 "CX1" V 6550 4650 40  0000 L CNN
F 1 "1.8" V 6850 4650 40  0000 L CNN
F 2 "" V 6850 4700 30  0001 C CNN
F 3 "" H 6700 4800 60  0001 C CNN
	1    6700 4700
	0    1    1    0   
$EndComp
Wire Wire Line
	6850 4700 7000 4700
Wire Wire Line
	6200 4300 6200 4350
Wire Wire Line
	5500 4700 5700 4700
Wire Wire Line
	6200 4700 6550 4700
Connection ~ 6200 4700
$Comp
L t14_passive:C CY1
U 1 1 5C90B26D
P 6200 4500
F 0 "CY1" H 6000 4500 40  0000 L CNN
F 1 "2.2" V 6350 4450 40  0000 L CNN
F 2 "" V 6350 4500 30  0001 C CNN
F 3 "" H 6200 4600 60  0001 C CNN
	1    6200 4500
	-1   0    0    1   
$EndComp
Wire Wire Line
	6200 4650 6200 4700
$Comp
L t14_passive:R 8.66K1
U 1 1 5C90BA2A
P 5850 4700
F 0 "8.66K1" V 5750 4700 40  0000 C CNN
F 1 "RX" V 5950 4700 40  0000 C CNN
F 2 "" V 5950 4650 30  0001 C CNN
F 3 "" V 5770 4650 30  0001 C CNN
	1    5850 4700
	0    1    1    0   
$EndComp
Wire Wire Line
	6000 4700 6200 4700
$Comp
L v5_Device:L 4.7
U 1 1 5C90C529
P 6150 4900
F 0 "4.7" V 6250 4900 50  0000 C CNN
F 1 "L" V 6050 4900 50  0000 C CNN
F 2 "" H 6150 4900 50  0001 C CNN
F 3 "~" H 6150 4900 50  0001 C CNN
	1    6150 4900
	0    -1   -1   0   
$EndComp
Wire Wire Line
	6300 4900 7000 4900
Wire Wire Line
	7000 4900 7000 5050
Connection ~ 7000 5500
Wire Wire Line
	7000 5500 7500 5500
$Comp
L t14_passive:C COUT_D1
U 1 1 5C90E3FD
P 7000 5200
F 0 "COUT_D1" H 6700 5300 40  0000 L CNN
F 1 "0.1" H 6800 5150 40  0000 L CNN
F 2 "" V 7150 5200 30  0001 C CNN
F 3 "" H 7000 5300 60  0001 C CNN
	1    7000 5200
	-1   0    0    1   
$EndComp
Wire Wire Line
	7000 5350 7000 5500
Wire Wire Line
	4000 5500 5350 5500
Wire Wire Line
	5350 4300 5350 5050
Wire Wire Line
	5350 5350 5350 5500
Connection ~ 5350 5500
Wire Wire Line
	5350 5500 7000 5500
Wire Wire Line
	7200 3650 7500 3650
Wire Wire Line
	7500 3650 7500 4200
Wire Wire Line
	7500 4900 7500 5050
Connection ~ 7500 4900
Connection ~ 7500 5500
Wire Wire Line
	7500 5500 8000 5500
$Comp
L t14_passive:R 52.3K1
U 1 1 5C917829
P 7500 4350
F 0 "52.3K1" V 7400 4350 40  0000 C CNN
F 1 "R_FB_H" V 7600 4350 40  0000 C CNN
F 2 "" V 7600 4300 30  0001 C CNN
F 3 "" V 7420 4300 30  0001 C CNN
	1    7500 4350
	-1   0    0    1   
$EndComp
Wire Wire Line
	7500 4500 7500 4900
$Comp
L t14_passive:C COUT_C1
U 1 1 5C917C43
P 7500 5200
F 0 "COUT_C1" H 7200 5300 40  0000 L CNN
F 1 "64" H 7300 5150 40  0000 L CNN
F 2 "" V 7650 5200 30  0001 C CNN
F 3 "" H 7500 5300 60  0001 C CNN
	1    7500 5200
	-1   0    0    1   
$EndComp
Wire Wire Line
	7500 5350 7500 5500
Wire Wire Line
	7500 4900 8000 4900
Wire Wire Line
	8000 4900 8000 5050
$Comp
L t14_passive:C COUT_B1
U 1 1 5C919B77
P 8000 5200
F 0 "COUT_B1" H 7700 5300 40  0000 L CNN
F 1 "64" H 7800 5150 40  0000 L CNN
F 2 "" V 8150 5200 30  0001 C CNN
F 3 "" H 8000 5300 60  0001 C CNN
	1    8000 5200
	-1   0    0    1   
$EndComp
Wire Wire Line
	8000 5350 8000 5500
$Comp
L t14_power:VOut #PWR0103
U 1 1 5C91A24D
P 8500 4900
F 0 "#PWR0103" H 8500 4750 50  0001 C CNN
F 1 "VOut" V 8515 5028 50  0000 L CNN
F 2 "" H 8500 4900 50  0001 C CNN
F 3 "" H 8500 4900 50  0001 C CNN
	1    8500 4900
	0    1    1    0   
$EndComp
Wire Wire Line
	8500 4900 8000 4900
Connection ~ 8000 4900
Text Label 8800 4950 0    50   ~ 0
=5V
Wire Wire Line
	8000 5500 8000 5700
Connection ~ 8000 5500
$Comp
L t14_power:GND #PWR0104
U 1 1 5C923E3C
P 8000 5700
F 0 "#PWR0104" H 8000 5450 50  0001 C CNN
F 1 "GND" H 8005 5577 50  0000 C CNN
F 2 "" H 8000 5700 50  0001 C CNN
F 3 "" H 8000 5700 50  0001 C CNN
	1    8000 5700
	1    0    0    -1  
$EndComp
$Comp
L t14_passive:R 232K1
U 1 1 5C92656E
P 7800 3850
F 0 "232K1" V 7700 3850 40  0000 C CNN
F 1 "R_COMP" V 7900 3850 40  0000 C CNN
F 2 "" V 7900 3800 30  0001 C CNN
F 3 "" V 7720 3800 30  0001 C CNN
	1    7800 3850
	0    -1   -1   0   
$EndComp
$Comp
L t14_passive:C C_COMP1
U 1 1 5C926B9B
P 8250 3850
F 0 "C_COMP1" V 8100 3750 40  0000 L CNN
F 1 "470" V 8000 3800 40  0000 L CNN
F 2 "" V 8400 3850 30  0001 C CNN
F 3 "" H 8250 3950 60  0001 C CNN
	1    8250 3850
	0    -1   -1   0   
$EndComp
$Comp
L t14_power:AGND #PWR0105
U 1 1 5C9298AC
P 8600 4150
F 0 "#PWR0105" H 8600 3900 50  0001 C CNN
F 1 "AGND" H 8601 4020 50  0000 C CNN
F 2 "" H 8600 4150 50  0001 C CNN
F 3 "" H 8600 4150 50  0001 C CNN
	1    8600 4150
	1    0    0    -1  
$EndComp
Wire Wire Line
	7500 3650 7900 3650
Connection ~ 7500 3650
Wire Wire Line
	8600 3650 8600 3850
Wire Wire Line
	7200 3850 7650 3850
Wire Wire Line
	7950 3850 8100 3850
Wire Wire Line
	8400 3850 8600 3850
Connection ~ 8600 3850
Wire Wire Line
	8600 3850 8600 4150
$Comp
L t14_passive:R 10K1
U 1 1 5C93A5D9
P 8050 3650
F 0 "10K1" V 7950 3650 40  0000 C CNN
F 1 "R_FB_L" V 8150 3650 40  0000 C CNN
F 2 "" V 8150 3600 30  0001 C CNN
F 3 "" V 7970 3600 30  0001 C CNN
	1    8050 3650
	0    -1   -1   0   
$EndComp
Wire Wire Line
	8200 3650 8600 3650
Wire Wire Line
	8600 3650 8600 3450
Connection ~ 8600 3650
Wire Wire Line
	7200 3450 8600 3450
Connection ~ 8600 3450
Wire Wire Line
	8600 3450 8600 3250
Wire Wire Line
	7200 3250 7900 3250
Connection ~ 8600 3250
Wire Wire Line
	8600 3250 8600 3050
Connection ~ 7400 3050
Connection ~ 8600 3050
Wire Wire Line
	8600 3050 8600 2850
Wire Wire Line
	7200 2850 8000 2850
Connection ~ 8600 2850
Wire Wire Line
	8600 2850 8600 2650
Wire Wire Line
	7200 2650 7700 2650
Connection ~ 8600 2650
Wire Wire Line
	8600 2650 8600 2250
Wire Wire Line
	6300 2250 7950 2250
Connection ~ 8600 2250
$Comp
L t14_passive:R 52.3K2
U 1 1 5C94AC12
P 8050 3250
F 0 "52.3K2" V 7950 3250 40  0000 C CNN
F 1 "R_FSW" V 8150 3250 40  0000 C CNN
F 2 "" V 8150 3200 30  0001 C CNN
F 3 "" V 7970 3200 30  0001 C CNN
	1    8050 3250
	0    -1   -1   0   
$EndComp
Wire Wire Line
	8200 3250 8600 3250
$Comp
L t14_passive:R 60.4K1
U 1 1 5C94B8B9
P 7800 3050
F 0 "60.4K1" V 7700 3050 40  0000 C CNN
F 1 "R_LIM" V 7900 3050 40  0000 C CNN
F 2 "" V 7900 3000 30  0001 C CNN
F 3 "" V 7720 3000 30  0001 C CNN
	1    7800 3050
	0    -1   -1   0   
$EndComp
Wire Wire Line
	7400 3050 7650 3050
Wire Wire Line
	7950 3050 8600 3050
$Comp
L t14_passive:C CDD1
U 1 1 5C94ED54
P 8150 2850
F 0 "CDD1" V 8300 2800 40  0000 L CNN
F 1 "1" V 8000 2800 40  0000 L CNN
F 2 "" V 8300 2850 30  0001 C CNN
F 3 "" H 8150 2950 60  0001 C CNN
	1    8150 2850
	0    -1   -1   0   
$EndComp
Wire Wire Line
	8300 2850 8600 2850
$Comp
L t14_passive:R 2k1
U 1 1 5C94F804
P 7850 2650
F 0 "2k1" V 7750 2650 40  0000 C CNN
F 1 "R_MODE" V 7950 2650 40  0000 C CNN
F 2 "" V 7950 2600 30  0001 C CNN
F 3 "" V 7770 2600 30  0001 C CNN
	1    7850 2650
	0    -1   -1   0   
$EndComp
Wire Wire Line
	8000 2650 8600 2650
$Comp
L t14_passive:C C_SS1
U 1 1 5C94FC81
P 8100 2250
F 0 "C_SS1" V 8250 2200 40  0000 L CNN
F 1 "32" V 7950 2200 40  0000 L CNN
F 2 "" V 8250 2250 30  0001 C CNN
F 3 "" H 8100 2350 60  0001 C CNN
	1    8100 2250
	0    -1   -1   0   
$EndComp
Wire Wire Line
	8250 2250 8600 2250
Wire Wire Line
	7800 1200 8600 1200
Wire Wire Line
	8600 1200 8600 2250
Wire Wire Line
	6100 2000 6100 1800
Wire Wire Line
	6100 1800 9000 1800
Connection ~ 6100 2000
Text Label 9000 1800 0    50   ~ 0
P_GOOD
Wire Wire Line
	4650 1200 4650 900 
Wire Wire Line
	4650 900  9050 900 
Text Label 9050 900  0    50   ~ 0
EN
Wire Wire Line
	2800 3100 3250 3100
Connection ~ 3250 3100
Text Label 2800 3000 2    50   ~ 0
+V_IN
Text Label 2800 3100 2    50   ~ 0
6Vto60V
$EndSCHEMATC
