EESchema Schematic File Version 2
LIBS:power
LIBS:device
LIBS:switches
LIBS:relays
LIBS:motors
LIBS:transistors
LIBS:conn
LIBS:linear
LIBS:regul
LIBS:74xx
LIBS:cmos4000
LIBS:adc-dac
LIBS:memory
LIBS:xilinx
LIBS:microcontrollers
LIBS:dsp
LIBS:microchip
LIBS:analog_switches
LIBS:motorola
LIBS:texas
LIBS:intel
LIBS:audio
LIBS:interface
LIBS:digital-audio
LIBS:philips
LIBS:display
LIBS:cypress
LIBS:siliconi
LIBS:opto
LIBS:atmel
LIBS:contrib
LIBS:valves
LIBS:stm32
LIBS:connectors
LIBS:IC
LIBS:mech
LIBS:mkz
LIBS:passive
LIBS:semiconductor
LIBS:team14
LIBS:xell
LIBS:mpu-6050
LIBS:jts-100
LIBS:team14-jts-100-cache
EELAYER 25 0
EELAYER END
$Descr A4 11693 8268
encoding utf-8
Sheet 6 9
Title "JTS-100"
Date "2018-02-26"
Rev "work in progress"
Comp "Team14 GesbR"
Comment1 "Open Source Hardware"
Comment2 "Creative Commons 4.0 (CC-BY)"
Comment3 ""
Comment4 ""
$EndDescr
$Comp
L Conn_01x04 X901
U 1 1 5A90867A
P 1100 1600
F 0 "X901" H 1100 1850 50  0000 C CNN
F 1 "Conn_01x02" H 1100 1300 50  0000 C CNN
F 2 "standardTHT:Pin_Header_Straight_1x4" H 1100 1600 50  0001 C CNN
F 3 "" H 1100 1600 50  0001 C CNN
F 4 "Value" H 1100 1600 60  0001 C CNN "Fieldname"
	1    1100 1600
	-1   0    0    -1  
$EndComp
$Comp
L GND #PWR037
U 1 1 5A908681
P 1500 1900
F 0 "#PWR037" H 1500 1650 50  0001 C CNN
F 1 "GND" H 1500 1750 50  0000 C CNN
F 2 "" H 1500 1900 50  0001 C CNN
F 3 "" H 1500 1900 50  0001 C CNN
	1    1500 1900
	1    0    0    -1  
$EndComp
Wire Wire Line
	1500 1700 1500 1900
Wire Wire Line
	1300 1700 1500 1700
Wire Wire Line
	1300 1500 2550 1500
Text HLabel 2550 1500 2    60   Output ~ 0
VIN
Text HLabel 1400 2600 0    60   Input ~ 0
VUSB
Wire Wire Line
	1700 2000 1700 1500
Connection ~ 1700 1500
Wire Wire Line
	2250 2600 1400 2600
$Comp
L R R901
U 1 1 5A9087B4
P 1900 2000
F 0 "R901" V 1980 2000 50  0000 C CNN
F 1 "150R/250mW" V 1800 2000 50  0000 C CNN
F 2 "standardSMD:R3216m" V 1830 2000 50  0001 C CNN
F 3 "" H 1900 2000 50  0001 C CNN
	1    1900 2000
	0    -1   -1   0   
$EndComp
Wire Wire Line
	2450 2300 5950 2300
Wire Wire Line
	3150 2300 3150 2050
$Comp
L DiodeTVS D902
U 1 1 5A9088C0
P 3500 2600
F 0 "D902" H 3500 2500 50  0000 C CNN
F 1 "TVS/SMA/48V" H 3500 2700 40  0000 C CNN
F 2 "standardSMD:SMA" H 3500 2600 60  0001 C CNN
F 3 "" H 3500 2600 60  0000 C CNN
	1    3500 2600
	0    1    1    0   
$EndComp
Wire Wire Line
	3500 2300 3500 2400
Connection ~ 3150 2300
$Comp
L GND #PWR038
U 1 1 5A908984
P 3500 2900
F 0 "#PWR038" H 3500 2650 50  0001 C CNN
F 1 "GND" H 3500 2750 50  0000 C CNN
F 2 "" H 3500 2900 50  0001 C CNN
F 3 "" H 3500 2900 50  0001 C CNN
	1    3500 2900
	1    0    0    -1  
$EndComp
Wire Wire Line
	3500 2900 3500 2800
$Comp
L C C902
U 1 1 5A908A07
P 3850 2650
F 0 "C902" H 3875 2750 50  0000 L CNN
F 1 "22u/25V" H 3875 2550 50  0000 L CNN
F 2 "standardSMD:C3216m" H 3888 2500 50  0001 C CNN
F 3 "" H 3850 2650 50  0001 C CNN
	1    3850 2650
	1    0    0    -1  
$EndComp
Wire Wire Line
	3850 2300 3850 2500
Connection ~ 3500 2300
$Comp
L GND #PWR039
U 1 1 5A908A43
P 3850 2900
F 0 "#PWR039" H 3850 2650 50  0001 C CNN
F 1 "GND" H 3850 2750 50  0000 C CNN
F 2 "" H 3850 2900 50  0001 C CNN
F 3 "" H 3850 2900 50  0001 C CNN
	1    3850 2900
	1    0    0    -1  
$EndComp
Wire Wire Line
	3850 2900 3850 2800
Connection ~ 3850 2300
Connection ~ 5150 2300
Connection ~ 8350 2150
Connection ~ 5400 2300
Wire Wire Line
	8350 2700 8350 3650
Wire Wire Line
	8350 2150 8350 2400
Wire Wire Line
	7950 2500 7950 2750
Connection ~ 4950 2300
Wire Wire Line
	4950 2300 4950 2800
Wire Wire Line
	4950 3100 4950 3650
Wire Wire Line
	7950 3050 7950 3650
Wire Wire Line
	7250 2300 7400 2300
Wire Wire Line
	7400 2300 7400 2150
Wire Wire Line
	7400 2150 7500 2150
Connection ~ 8200 2150
Connection ~ 7950 2550
Wire Wire Line
	7800 2150 9200 2150
$Comp
L PWR_FLAG #FLG040
U 1 1 5A90A641
P 3150 2050
F 0 "#FLG040" H 3150 2145 30  0001 C CNN
F 1 "PWR_FLAG" H 3150 2230 30  0000 C CNN
F 2 "" H 3150 2050 60  0001 C CNN
F 3 "" H 3150 2050 60  0001 C CNN
	1    3150 2050
	1    0    0    -1  
$EndComp
$Comp
L PWR_FLAG #FLG041
U 1 1 5A90A647
P 8200 2000
F 0 "#FLG041" H 8200 2095 30  0001 C CNN
F 1 "PWR_FLAG" H 8200 2180 30  0000 C CNN
F 2 "" H 8200 2000 60  0001 C CNN
F 3 "" H 8200 2000 60  0001 C CNN
	1    8200 2000
	1    0    0    -1  
$EndComp
Text Notes 7450 2550 0    60   ~ 0
0.8V
$Comp
L C C904
U 1 1 5A90A676
P 4950 2950
F 0 "C904" V 4900 2650 50  0000 L CNN
F 1 "1u/100V" V 4900 3100 50  0000 L CNN
F 2 "standardSMD:C3216m" H 4950 2950 60  0001 C CNN
F 3 "" H 4950 2950 60  0001 C CNN
F 4 "1u/100V/X7R" H 4950 2950 60  0001 C CNN "Option1"
F 5 "" H 4950 2950 60  0001 C CNN "Option2"
F 6 "" H 4950 2950 60  0001 C CNN "Option3"
F 7 "" H 4950 2950 60  0001 C CNN "Comment"
F 8 "" H 4950 2950 60  0001 C CNN "Link"
F 9 "1uF-100" H 4950 2950 60  0001 C CNN "InternalName"
	1    4950 2950
	1    0    0    -1  
$EndComp
$Comp
L R R907
U 1 1 5A90A683
P 7950 2900
F 0 "R907" V 8030 2900 50  0000 C CNN
F 1 "R" V 7950 2900 50  0000 C CNN
F 2 "standardSMD:R1608m" H 7950 2900 60  0001 C CNN
F 3 "" H 7950 2900 60  0001 C CNN
F 4 "15k" H 7950 2900 60  0001 C CNN "Option1"
F 5 "" H 7950 2900 60  0001 C CNN "Option2"
F 6 "" H 7950 2900 60  0001 C CNN "Option3"
F 7 "" H 7950 2900 60  0001 C CNN "Comment"
F 8 "" H 7950 2900 60  0001 C CNN "Link"
F 9 "R1608-15k" H 7950 2900 60  0001 C CNN "InternalName"
	1    7950 2900
	-1   0    0    -1  
$EndComp
$Comp
L R R906
U 1 1 5A90A690
P 7950 2350
F 0 "R906" V 8050 2350 50  0000 C CNN
F 1 "R" V 7950 2350 50  0000 C CNN
F 2 "standardSMD:R1608m" H 7950 2350 60  0001 C CNN
F 3 "" H 7950 2350 60  0001 C CNN
F 4 "120k" H 7950 2350 60  0001 C CNN "Option1"
F 5 "" H 7950 2350 60  0001 C CNN "Option2"
F 6 "" H 7950 2350 60  0001 C CNN "Option3"
F 7 "" H 7950 2350 60  0001 C CNN "Comment"
F 8 "" H 7950 2350 60  0001 C CNN "Link"
F 9 "R1608-120k" H 7950 2350 60  0001 C CNN "InternalName"
	1    7950 2350
	-1   0    0    1   
$EndComp
$Comp
L C C907
U 1 1 5A90A69D
P 8350 2550
F 0 "C907" V 8300 2650 50  0000 L CNN
F 1 "10u/16V" V 8300 2100 50  0000 L CNN
F 2 "standardSMD:C3216m" H 8350 2550 60  0001 C CNN
F 3 "" H 8350 2550 60  0001 C CNN
F 4 "10u/16V/X7R" H 8350 2550 60  0001 C CNN "Option1"
F 5 "" H 8350 2550 60  0001 C CNN "Option2"
F 6 "" H 8350 2550 60  0001 C CNN "Option3"
F 7 "" H 8350 2550 60  0001 C CNN "Comment"
F 8 "" H 8350 2550 60  0001 C CNN "Link"
F 9 "10uF-16" H 8350 2550 60  0001 C CNN "InternalName"
	1    8350 2550
	1    0    0    -1  
$EndComp
$Comp
L L L902
U 1 1 5A90A6AA
P 7650 2150
F 0 "L902" V 7600 2150 40  0000 C CNN
F 1 "220uH/300mA" V 7750 2150 40  0000 C CNN
F 2 "Inductors:Inductor_Wurth_HCI-7050" H 7650 2150 60  0001 C CNN
F 3 "" H 7650 2150 60  0001 C CNN
F 4 "220uH/300mA" H 7650 2150 60  0001 C CNN "Option1"
F 5 "Choke1" H 7650 2150 60  0001 C CNN "InternalName"
	1    7650 2150
	0    -1   -1   0   
$EndComp
Wire Wire Line
	5800 2500 5950 2500
Wire Wire Line
	7950 2550 7250 2550
NoConn ~ 7250 2650
Wire Wire Line
	6600 3300 6600 3650
Wire Wire Line
	7300 3500 5850 3500
Wire Wire Line
	6500 3500 6500 3300
Connection ~ 6600 3500
Wire Wire Line
	6700 3500 6700 3300
Wire Wire Line
	7250 2750 7300 2750
Wire Wire Line
	7300 2750 7300 3500
Wire Wire Line
	7300 2850 7250 2850
Connection ~ 6700 3500
Connection ~ 7300 2850
Wire Wire Line
	5950 2600 5850 2600
Wire Wire Line
	5850 2600 5850 3500
Connection ~ 6500 3500
$Comp
L C C903
U 1 1 5A90A6D4
P 4750 3100
F 0 "C903" V 4700 3150 50  0000 L CNN
F 1 "1u/100V" V 4700 3400 50  0000 L CNN
F 2 "standardSMD:C3216m" H 4750 3100 60  0001 C CNN
F 3 "" H 4750 3100 60  0001 C CNN
F 4 "1u/100V/X7R" H 4750 3100 60  0001 C CNN "Option1"
F 5 "" H 4750 3100 60  0001 C CNN "Option2"
F 6 "" H 4750 3100 60  0001 C CNN "Option3"
F 7 "" H 4750 3100 60  0001 C CNN "Comment"
F 8 "" H 4750 3100 60  0001 C CNN "Link"
F 9 "1uF-100" H 4750 3100 60  0001 C CNN "InternalName"
	1    4750 3100
	1    0    0    -1  
$EndComp
$Comp
L C C905
U 1 1 5A90A6E1
P 5150 3100
F 0 "C905" V 5200 3200 50  0000 L CNN
F 1 "1u/100V" V 5100 3400 50  0000 L CNN
F 2 "standardSMD:C3216m" H 5150 3100 60  0001 C CNN
F 3 "" H 5150 3100 60  0001 C CNN
F 4 "1u/100V/X7R" H 5150 3100 60  0001 C CNN "Option1"
F 5 "" H 5150 3100 60  0001 C CNN "Option2"
F 6 "" H 5150 3100 60  0001 C CNN "Option3"
F 7 "" H 5150 3100 60  0001 C CNN "Comment"
F 8 "" H 5150 3100 60  0001 C CNN "Link"
F 9 "1uF-100" H 5150 3100 60  0001 C CNN "InternalName"
	1    5150 3100
	1    0    0    -1  
$EndComp
Wire Wire Line
	4750 2300 4750 2950
Connection ~ 4750 2300
Wire Wire Line
	4750 3350 5150 3350
Wire Wire Line
	4750 3350 4750 3250
Connection ~ 4950 3350
Wire Wire Line
	5150 3350 5150 3250
$Comp
L C C908
U 1 1 5A90A6F5
P 8550 2550
F 0 "C908" V 8500 2650 50  0000 L CNN
F 1 "10u/16V" V 8500 2100 50  0000 L CNN
F 2 "standardSMD:C3216m" H 8550 2550 60  0001 C CNN
F 3 "" H 8550 2550 60  0001 C CNN
F 4 "10u/16V/X7R" H 8550 2550 60  0001 C CNN "Option1"
F 5 "" H 8550 2550 60  0001 C CNN "Option2"
F 6 "" H 8550 2550 60  0001 C CNN "Option3"
F 7 "" H 8550 2550 60  0001 C CNN "Comment"
F 8 "" H 8550 2550 60  0001 C CNN "Link"
F 9 "10uF-16" H 8550 2550 60  0001 C CNN "InternalName"
	1    8550 2550
	1    0    0    -1  
$EndComp
Wire Wire Line
	8550 2150 8550 2400
Connection ~ 8550 2150
Wire Wire Line
	8550 2700 8550 3650
$Comp
L R R902
U 1 1 5A90A70B
P 5400 2500
F 0 "R902" V 5480 2500 50  0000 C CNN
F 1 "R" V 5400 2500 50  0000 C CNN
F 2 "standardSMD:R1608m" H 5400 2500 60  0001 C CNN
F 3 "" H 5400 2500 60  0001 C CNN
F 4 "150k" H 5400 2500 60  0001 C CNN "Option1"
F 5 "" H 5400 2500 60  0001 C CNN "Option2"
F 6 "" H 5400 2500 60  0001 C CNN "Option3"
F 7 "" H 5400 2500 60  0001 C CNN "Comment"
F 8 "" H 5400 2500 60  0001 C CNN "Link"
F 9 "R1608-150k" H 5400 2500 60  0001 C CNN "InternalName"
	1    5400 2500
	-1   0    0    -1  
$EndComp
Wire Wire Line
	5750 3650 5750 3400
Wire Wire Line
	5750 3100 5750 2900
Wire Wire Line
	5750 2900 5950 2900
NoConn ~ 5950 2800
$Comp
L GND #PWR042
U 1 1 5A90C274
P 8350 3650
F 0 "#PWR042" H 8350 3400 50  0001 C CNN
F 1 "GND" H 8350 3500 50  0000 C CNN
F 2 "" H 8350 3650 50  0001 C CNN
F 3 "" H 8350 3650 50  0001 C CNN
	1    8350 3650
	1    0    0    -1  
$EndComp
$Comp
L GND #PWR043
U 1 1 5A90C2BF
P 8550 3650
F 0 "#PWR043" H 8550 3400 50  0001 C CNN
F 1 "GND" H 8550 3500 50  0000 C CNN
F 2 "" H 8550 3650 50  0001 C CNN
F 3 "" H 8550 3650 50  0001 C CNN
	1    8550 3650
	1    0    0    -1  
$EndComp
$Comp
L GND #PWR044
U 1 1 5A90CAA4
P 7950 3650
F 0 "#PWR044" H 7950 3400 50  0001 C CNN
F 1 "GND" H 7950 3500 50  0000 C CNN
F 2 "" H 7950 3650 50  0001 C CNN
F 3 "" H 7950 3650 50  0001 C CNN
	1    7950 3650
	1    0    0    -1  
$EndComp
$Comp
L GND #PWR045
U 1 1 5A90CF26
P 6600 3650
F 0 "#PWR045" H 6600 3400 50  0001 C CNN
F 1 "GND" H 6600 3500 50  0000 C CNN
F 2 "" H 6600 3650 50  0001 C CNN
F 3 "" H 6600 3650 50  0001 C CNN
	1    6600 3650
	1    0    0    -1  
$EndComp
$Comp
L GND #PWR046
U 1 1 5A90CF6A
P 5750 3650
F 0 "#PWR046" H 5750 3400 50  0001 C CNN
F 1 "GND" H 5750 3500 50  0000 C CNN
F 2 "" H 5750 3650 50  0001 C CNN
F 3 "" H 5750 3650 50  0001 C CNN
	1    5750 3650
	1    0    0    -1  
$EndComp
$Comp
L GND #PWR047
U 1 1 5A90CFAE
P 4950 3650
F 0 "#PWR047" H 4950 3400 50  0001 C CNN
F 1 "GND" H 4950 3500 50  0000 C CNN
F 2 "" H 4950 3650 50  0001 C CNN
F 3 "" H 4950 3650 50  0001 C CNN
	1    4950 3650
	1    0    0    -1  
$EndComp
Wire Wire Line
	5400 2300 5400 2350
$Comp
L R R904
U 1 1 5A90E732
P 5750 3250
F 0 "R904" V 5830 3250 50  0000 C CNN
F 1 "150k" V 5750 3250 50  0000 C CNN
F 2 "standardSMD:R1608m" H 5750 3250 60  0001 C CNN
F 3 "" H 5750 3250 60  0001 C CNN
F 4 "150k" H 5750 3250 60  0001 C CNN "Option1"
F 5 "" H 5750 3250 60  0001 C CNN "Option2"
F 6 "" H 5750 3250 60  0001 C CNN "Option3"
F 7 "" H 5750 3250 60  0001 C CNN "Comment"
F 8 "" H 5750 3250 60  0001 C CNN "Link"
F 9 "R1608-150k" H 5750 3250 60  0001 C CNN "InternalName"
	1    5750 3250
	-1   0    0    -1  
$EndComp
Wire Wire Line
	5800 2500 5800 2750
Wire Wire Line
	5800 2750 5400 2750
Wire Wire Line
	5400 2650 5400 2800
$Comp
L R R903
U 1 1 5A90EB91
P 5400 2950
F 0 "R903" V 5480 2950 50  0000 C CNN
F 1 "R" V 5400 2950 50  0000 C CNN
F 2 "standardSMD:R1608m" H 5400 2950 60  0001 C CNN
F 3 "" H 5400 2950 60  0001 C CNN
F 4 "150k" H 5400 2950 60  0001 C CNN "Option1"
F 5 "" H 5400 2950 60  0001 C CNN "Option2"
F 6 "" H 5400 2950 60  0001 C CNN "Option3"
F 7 "" H 5400 2950 60  0001 C CNN "Comment"
F 8 "" H 5400 2950 60  0001 C CNN "Link"
F 9 "R1608-150k" H 5400 2950 60  0001 C CNN "InternalName"
	1    5400 2950
	-1   0    0    -1  
$EndComp
Connection ~ 5400 2750
$Comp
L GND #PWR048
U 1 1 5A90EC58
P 5400 3650
F 0 "#PWR048" H 5400 3400 50  0001 C CNN
F 1 "GND" H 5400 3500 50  0000 C CNN
F 2 "" H 5400 3650 50  0001 C CNN
F 3 "" H 5400 3650 50  0001 C CNN
	1    5400 3650
	1    0    0    -1  
$EndComp
Wire Wire Line
	5400 3650 5400 3100
Wire Wire Line
	5150 2300 5150 2950
Wire Wire Line
	7950 1700 7950 2200
Connection ~ 7950 2150
Wire Wire Line
	8200 2000 8200 2150
Text Notes 2500 4400 0    60   ~ 0
CX6206-3.3V
$Comp
L LM1117_LDO U901
U 1 1 5A92A267
P 4750 5200
F 0 "U901" H 4750 5450 60  0000 C CNN
F 1 "LM1117-3.3" H 4750 4900 60  0000 C CNN
F 2 "standardSMD:SOT223" H 4750 5200 60  0001 C CNN
F 3 "" H 4750 5200 60  0000 C CNN
	1    4750 5200
	1    0    0    -1  
$EndComp
Text HLabel 9200 2150 2    60   Output ~ 0
3.9V
Text Label 8850 2150 0    60   ~ 0
3.9V
Text Label 3100 5150 0    60   ~ 0
3.9V
Wire Wire Line
	3700 5150 4100 5150
Wire Wire Line
	4100 5350 4000 5350
Wire Wire Line
	4000 5350 4000 5800
Wire Wire Line
	5400 5250 5500 5250
Wire Wire Line
	5500 5250 5500 5150
Wire Wire Line
	5400 5150 6000 5150
Connection ~ 5500 5150
Text HLabel 6000 5150 2    60   Output ~ 0
3V3
$Comp
L C C906
U 1 1 5A92BC82
P 5750 5450
F 0 "C906" H 5775 5550 50  0000 L CNN
F 1 "10u" H 5775 5350 50  0000 L CNN
F 2 "standardSMD:C1608m" H 5788 5300 50  0001 C CNN
F 3 "" H 5750 5450 50  0001 C CNN
	1    5750 5450
	1    0    0    -1  
$EndComp
Wire Wire Line
	5750 5300 5750 5150
Connection ~ 5750 5150
Wire Wire Line
	5750 5700 5750 5600
$Comp
L L L901
U 1 1 5A92C337
P 3550 5150
F 0 "L901" V 3500 5150 50  0000 C CNN
F 1 "L" V 3625 5150 50  0000 C CNN
F 2 "standardSMD:L3216m" H 3550 5150 50  0001 C CNN
F 3 "" H 3550 5150 50  0001 C CNN
	1    3550 5150
	0    -1   -1   0   
$EndComp
Wire Wire Line
	3100 5150 3400 5150
$Comp
L GND #PWR049
U 1 1 5A92C4E6
P 3100 5750
F 0 "#PWR049" H 3100 5500 50  0001 C CNN
F 1 "GND" H 3100 5600 50  0000 C CNN
F 2 "" H 3100 5750 50  0001 C CNN
F 3 "" H 3100 5750 50  0001 C CNN
	1    3100 5750
	1    0    0    -1  
$EndComp
Wire Wire Line
	3100 5750 3100 5700
Wire Wire Line
	3100 5700 4000 5700
Connection ~ 4000 5700
$Comp
L C C901
U 1 1 5A92D2FC
P 3800 5450
F 0 "C901" H 3825 5550 50  0000 L CNN
F 1 "1u" H 3825 5350 50  0000 L CNN
F 2 "standardSMD:C1608m" H 3838 5300 50  0001 C CNN
F 3 "" H 3800 5450 50  0001 C CNN
	1    3800 5450
	1    0    0    -1  
$EndComp
Wire Wire Line
	3800 5150 3800 5300
Connection ~ 3800 5150
Wire Wire Line
	3800 5600 3800 5700
Connection ~ 3800 5700
Wire Wire Line
	1300 1600 2550 1600
Text HLabel 2550 1600 2    60   Input ~ 0
VoltageControll-PWM
Text HLabel 2550 1800 2    60   Output ~ 0
Earth
Wire Wire Line
	1300 1800 2550 1800
$Comp
L GND #PWR050
U 1 1 5A961543
P 4000 5800
F 0 "#PWR050" H 4000 5550 50  0001 C CNN
F 1 "GND" H 4000 5650 50  0000 C CNN
F 2 "" H 4000 5800 50  0001 C CNN
F 3 "" H 4000 5800 50  0001 C CNN
	1    4000 5800
	1    0    0    -1  
$EndComp
$Comp
L GND #PWR051
U 1 1 5A961590
P 5750 5700
F 0 "#PWR051" H 5750 5450 50  0001 C CNN
F 1 "GND" H 5750 5550 50  0000 C CNN
F 2 "" H 5750 5700 50  0001 C CNN
F 3 "" H 5750 5700 50  0001 C CNN
	1    5750 5700
	1    0    0    -1  
$EndComp
Text Notes 5300 2250 0    60   ~ 0
Run: rising: 4V
$Comp
L D_x2_KCom_AAK D901
U 1 1 5A9BC74D
P 2250 2300
F 0 "D901" V 2450 2150 50  0000 C CNN
F 1 "BAV70" V 2150 2050 50  0000 C CNN
F 2 "standardSMD:SOT23" H 2250 2300 50  0001 C CNN
F 3 "" H 2250 2300 50  0001 C CNN
	1    2250 2300
	0    -1   -1   0   
$EndComp
Wire Wire Line
	1750 2000 1700 2000
Wire Wire Line
	2050 2000 2250 2000
Text Notes 3900 1650 0    60   ~ 0
Voltage Controll is a PWM output, \nwhich controlls the power supply. \n\nFor startup, a 0% d.c. should deliver 12V at the \nVIN input. \n\nA 100% d.c. delivers the max. voltage, \nnormally 48V. \n\nThe frequency is in the range of 1kHz. \nThe amplitude is 3.3V CMOS, ESD-protected. 
$Comp
L R R905
U 1 1 5AA4D6D5
P 6550 1700
F 0 "R905" V 6630 1700 50  0000 C CNN
F 1 "R" V 6550 1700 50  0000 C CNN
F 2 "standardSMD:R1608m" H 6550 1700 60  0001 C CNN
F 3 "" H 6550 1700 60  0001 C CNN
F 4 "150k" H 6550 1700 60  0001 C CNN "Option1"
F 5 "" H 6550 1700 60  0001 C CNN "Option2"
F 6 "" H 6550 1700 60  0001 C CNN "Option3"
F 7 "" H 6550 1700 60  0001 C CNN "Comment"
F 8 "" H 6550 1700 60  0001 C CNN "Link"
F 9 "R1608-150k" H 6550 1700 60  0001 C CNN "InternalName"
	1    6550 1700
	0    1    -1   0   
$EndComp
Wire Wire Line
	6700 1700 7950 1700
Wire Wire Line
	6400 1700 5550 1700
Wire Wire Line
	5550 1700 5550 2750
Connection ~ 5550 2750
Text Notes 6500 1500 0    60   ~ 0
increased hysteresis\nto compensate for \nvoltage drop at the input resistor
Text Notes 6050 4150 0    100  ~ 0
TODO Replace with LM5008M
$EndSCHEMATC
