(module Cartridge-Jack (layer F.Cu) (tedit 5A9E5F33)
  (fp_text reference J2 (at 0 -6.31) (layer F.SilkS)
    (effects (font (size 1 1) (thickness 0.15)))
  )
  (fp_text value JTS-100-Cartridge-Jack (at 0.05 0.05) (layer F.Fab)
    (effects (font (size 1 1) (thickness 0.15)))
  )
  (fp_arc (start 0 0) (end -8 -5.5) (angle 290.982954) (layer F.Fab) (width 0.15))
  (fp_line (start -8 -5.5) (end -8 5.5) (layer F.Fab) (width 0.15))
  (fp_text user TOP (at 0.05 -4.49) (layer F.Fab)
    (effects (font (size 1 1) (thickness 0.15)))
  )
  (pad 11 thru_hole circle (at -6.35 -3.27) (size 1.8 1.8) (drill 1.2) (layers *.Cu *.Mask))
  (pad 12 thru_hole circle (at -3.81 -6.81) (size 1.8 1.8) (drill 1.2) (layers *.Cu *.Mask))
  (pad 1 thru_hole circle (at -1.27 -6.81) (size 1.8 1.8) (drill 1.2) (layers *.Cu *.Mask))
  (pad 3 thru_hole circle (at 3.81 -6.81) (size 1.8 1.8) (drill 1.2) (layers *.Cu *.Mask))
  (pad 4 thru_hole circle (at 6.35 -3.27) (size 1.8 1.8) (drill 1.2) (layers *.Cu *.Mask))
  (pad 5 thru_hole circle (at 6.35 3.27) (size 1.8 1.8) (drill 1.2) (layers *.Cu *.Mask))
  (pad 6 thru_hole circle (at 3.81 6.81) (size 1.8 1.8) (drill 1.2) (layers *.Cu *.Mask))
  (pad 8 thru_hole circle (at -1.27 6.81) (size 1.8 1.8) (drill 1.2) (layers *.Cu *.Mask))
  (pad 9 thru_hole circle (at -3.81 6.81) (size 1.8 1.8) (drill 1.2) (layers *.Cu *.Mask))
  (pad 10 thru_hole circle (at -6.35 3.27) (size 1.8 1.8) (drill 1.2) (layers *.Cu *.Mask))
  (pad 2 thru_hole circle (at 1.27 -6.81) (size 1.8 1.8) (drill 1.2) (layers *.Cu *.Mask))
  (pad 7 thru_hole circle (at 1.27 6.81) (size 1.8 1.8) (drill 1.2) (layers *.Cu *.Mask))
)
