(module Solderpad_3x2_SMT (layer F.Cu) (tedit 5A9DBBD4)
  (fp_text reference REF** (at -0.5 -2.5) (layer F.SilkS)
    (effects (font (size 1 1) (thickness 0.15)))
  )
  (fp_text value Solderpad_3x2_SMT (at 0 2.5) (layer F.Fab)
    (effects (font (size 1 1) (thickness 0.15)))
  )
  (pad 1 smd rect (at 0 0) (size 3 2) (layers F.Cu F.Mask))
)
