EESchema Schematic File Version 4
LIBS:jts-100-step-down-LT8705A-cache
EELAYER 26 0
EELAYER END
$Descr A4 11693 8268
encoding utf-8
Sheet 1 1
Title ""
Date ""
Rev ""
Comp ""
Comment1 ""
Comment2 ""
Comment3 ""
Comment4 ""
$EndDescr
$Comp
L t14_passive:R R1
U 1 1 5C9220C4
P 4650 2850
F 0 "R1" V 4550 2750 40  0000 L CNN
F 1 "2R" H 4721 2812 40  0000 L CNN
F 2 "t14_standardSMD:R2012m" V 4750 2800 30  0001 C CNN
F 3 "" V 4570 2800 30  0001 C CNN
	1    4650 2850
	1    0    0    -1  
$EndComp
Wire Wire Line
	4650 3200 4650 3000
$Comp
L t14_passive:C C11
U 1 1 5C922F07
P 5000 2850
F 0 "C11" V 5150 2850 40  0000 C CNN
F 1 "22m" V 4847 2850 40  0000 C CNN
F 2 "t14_standardSMD:C2012m" V 5150 2850 30  0001 C CNN
F 3 "" H 5000 2950 60  0001 C CNN
	1    5000 2850
	0    1    1    0   
$EndComp
Connection ~ 4850 2850
Wire Wire Line
	4850 2850 4850 3200
Wire Wire Line
	5050 3200 5050 3050
Wire Wire Line
	5050 3050 5150 3050
Wire Wire Line
	5150 3050 5150 2850
Wire Wire Line
	5650 3200 5650 3000
Wire Wire Line
	5950 3200 5950 3000
Wire Wire Line
	5650 3000 5800 3000
$Comp
L t14_passive:R R9
U 1 1 5C924AEC
P 5800 2850
F 0 "R9" V 5700 2700 40  0000 L CNN
F 1 "3m" H 5871 2812 40  0000 L CNN
F 2 "t14_standardSMD:R2012m" V 5900 2800 30  0001 C CNN
F 3 "" V 5720 2800 30  0001 C CNN
	1    5800 2850
	1    0    0    -1  
$EndComp
Connection ~ 5800 3000
Wire Wire Line
	5800 3000 5950 3000
Wire Wire Line
	5450 3200 5450 2600
Wire Wire Line
	5450 2600 5800 2600
Wire Wire Line
	5800 2600 5800 2700
Wire Wire Line
	5800 3000 5800 3100
$Comp
L t14_power:GND #PWR0101
U 1 1 5C92576D
P 5800 3100
F 0 "#PWR0101" H 5800 2850 50  0001 C CNN
F 1 "GND" H 5805 2977 50  0000 C CNN
F 2 "" H 5800 3100 50  0001 C CNN
F 3 "" H 5800 3100 50  0001 C CNN
	1    5800 3100
	1    0    0    -1  
$EndComp
Wire Wire Line
	6150 3200 6150 3000
$Comp
L t14_passive:R R10
U 1 1 5C926392
P 6150 2850
F 0 "R10" V 6050 2750 40  0000 L CNN
F 1 "2R" H 6221 2812 40  0000 L CNN
F 2 "t14_standardSMD:R2012m" V 6250 2800 30  0001 C CNN
F 3 "" V 6070 2800 30  0001 C CNN
	1    6150 2850
	1    0    0    -1  
$EndComp
Wire Wire Line
	6350 3200 6350 2850
$Comp
L t14_passive:C C12
U 1 1 5C927B77
P 6500 2850
F 0 "C12" V 6250 2900 40  0000 C CNN
F 1 "220n" V 6347 2850 40  0000 C CNN
F 2 "t14_standardSMD:C2012m" V 6650 2850 30  0001 C CNN
F 3 "" H 6500 2950 60  0001 C CNN
	1    6500 2850
	0    1    1    0   
$EndComp
Wire Wire Line
	6550 3200 6550 3000
Wire Wire Line
	6550 3000 6650 3000
Wire Wire Line
	6650 3000 6650 2850
$Comp
L v5_Device:L L1
U 1 1 5C929D50
P 5750 1900
F 0 "L1" V 5600 1900 50  0000 C CNN
F 1 "2.2u" V 5660 1900 50  0000 C CNN
F 2 "t14_standardSMD:bourns_ssr7032" H 5750 1900 50  0001 C CNN
F 3 "~" H 5750 1900 50  0001 C CNN
	1    5750 1900
	0    1    1    0   
$EndComp
Wire Wire Line
	6750 3200 6750 2750
$Comp
L t14_power:GND #PWR0102
U 1 1 5C92D74A
P 7400 2300
F 0 "#PWR0102" H 7400 2050 50  0001 C CNN
F 1 "GND" H 7405 2177 50  0000 C CNN
F 2 "" H 7400 2300 50  0001 C CNN
F 3 "" H 7400 2300 50  0001 C CNN
	1    7400 2300
	1    0    0    -1  
$EndComp
$Comp
L t14_passive:C C4
U 1 1 5C97534C
P 7400 2150
F 0 "C4" H 7300 2250 40  0000 C CNN
F 1 "C_OUT1" H 7250 2050 40  0000 C CNN
F 2 "t14_standardSMD:C2012m" V 7550 2150 30  0001 C CNN
F 3 "" H 7400 2250 60  0001 C CNN
	1    7400 2150
	-1   0    0    1   
$EndComp
Wire Wire Line
	6650 2700 6650 2850
Connection ~ 6650 2850
$Comp
L t14_passive:C C1
U 1 1 5C978A03
P 3800 2150
F 0 "C1" H 3700 2250 40  0000 C CNN
F 1 "C_CIN2" V 3950 2150 40  0000 C CNN
F 2 "t14_standardSMD:C2012m" V 3950 2150 30  0001 C CNN
F 3 "" H 3800 2250 60  0001 C CNN
	1    3800 2150
	-1   0    0    1   
$EndComp
$Comp
L t14_power:GND #PWR0103
U 1 1 5C978F92
P 3800 2300
F 0 "#PWR0103" H 3800 2050 50  0001 C CNN
F 1 "GND" H 3805 2177 50  0000 C CNN
F 2 "" H 3800 2300 50  0001 C CNN
F 3 "" H 3800 2300 50  0001 C CNN
	1    3800 2300
	1    0    0    -1  
$EndComp
$Comp
L t14_passive:R_Kelvin R6
U 1 1 5C97A264
P 3450 1900
F 0 "R6" V 3350 1800 40  0000 L CNN
F 1 "25m" V 3550 1850 40  0000 L CNN
F 2 "t14_standardSMD:R3225m_K" V 3550 1850 30  0001 C CNN
F 3 "" V 3370 1850 30  0001 C CNN
	1    3450 1900
	0    1    1    0   
$EndComp
$Comp
L t14_passive:C C3
U 1 1 5C97BE1F
P 2950 2150
F 0 "C3" H 2850 2250 40  0000 C CNN
F 1 "C_CIN1" H 2800 2050 40  0000 C CNN
F 2 "t14_standardSMD:C2012m" V 3100 2150 30  0001 C CNN
F 3 "" H 2950 2250 60  0001 C CNN
	1    2950 2150
	-1   0    0    1   
$EndComp
$Comp
L t14_power:GND #PWR0104
U 1 1 5C97C67A
P 2950 2300
F 0 "#PWR0104" H 2950 2050 50  0001 C CNN
F 1 "GND" H 2955 2177 50  0000 C CNN
F 2 "" H 2950 2300 50  0001 C CNN
F 3 "" H 2950 2300 50  0001 C CNN
	1    2950 2300
	1    0    0    -1  
$EndComp
Wire Wire Line
	2950 1900 2950 2000
Wire Wire Line
	4200 4100 4000 4100
Wire Wire Line
	4000 4100 4000 4150
$Comp
L t14_power:GND #PWR0105
U 1 1 5C98E6CB
P 4000 4150
F 0 "#PWR0105" H 4000 3900 50  0001 C CNN
F 1 "GND" H 4005 4027 50  0000 C CNN
F 2 "" H 4000 4150 50  0001 C CNN
F 3 "" H 4000 4150 50  0001 C CNN
	1    4000 4150
	1    0    0    -1  
$EndComp
Wire Wire Line
	3500 4000 3500 5350
Wire Wire Line
	2600 1900 2600 3700
Wire Wire Line
	3000 3700 3000 4000
Wire Wire Line
	4200 3800 3450 3800
Wire Wire Line
	3000 4000 2500 4000
Wire Wire Line
	2500 4000 2500 4200
$Comp
L t14_passive:R R2
U 1 1 5C9A8FDF
P 2500 4350
F 0 "R2" V 2400 4200 40  0000 L CNN
F 1 "133k" V 2600 4200 40  0000 L CNN
F 2 "t14_standardSMD:R2012m" V 2600 4300 30  0001 C CNN
F 3 "" V 2420 4300 30  0001 C CNN
	1    2500 4350
	-1   0    0    1   
$EndComp
$Comp
L t14_passive:R R3
U 1 1 5C9A98BE
P 2500 5450
F 0 "R3" V 2400 5350 40  0000 L CNN
F 1 "20k" V 2600 5300 40  0000 L CNN
F 2 "t14_standardSMD:R2012m" V 2600 5400 30  0001 C CNN
F 3 "" V 2420 5400 30  0001 C CNN
	1    2500 5450
	-1   0    0    1   
$EndComp
Wire Wire Line
	2500 5600 2500 6000
Wire Wire Line
	2500 6000 3000 6000
Wire Wire Line
	8500 1900 8350 1900
Connection ~ 3500 6000
Wire Wire Line
	3500 6000 3800 6000
Wire Wire Line
	2500 4500 2500 4800
Wire Wire Line
	2500 4800 2800 4800
Wire Wire Line
	2800 4800 2800 6150
Wire Wire Line
	2800 6150 4100 6150
Wire Wire Line
	4100 4200 4200 4200
Connection ~ 2500 4800
Wire Wire Line
	2500 4800 2500 5300
Connection ~ 3000 6000
$Comp
L t14_passive:C C7
U 1 1 5C9B823F
P 3000 4800
F 0 "C7" V 2850 4650 40  0000 L CNN
F 1 "1u" H 3115 4762 40  0000 L CNN
F 2 "t14_standardSMD:C2012m" V 3150 4800 30  0001 C CNN
F 3 "" H 3000 4900 60  0001 C CNN
	1    3000 4800
	1    0    0    -1  
$EndComp
Wire Wire Line
	3000 6000 3250 6000
Wire Wire Line
	3000 4000 3000 4200
Connection ~ 3000 4000
Wire Wire Line
	3000 4200 3250 4200
Wire Wire Line
	3250 4200 3250 4400
Connection ~ 3250 6000
Wire Wire Line
	3250 6000 3500 6000
$Comp
L t14_passive:R R4
U 1 1 5C9C6C5F
P 3250 4550
F 0 "R4" V 3150 4400 40  0000 L CNN
F 1 "71.5k" V 3350 4400 40  0000 L CNN
F 2 "t14_standardSMD:R2012m" V 3350 4500 30  0001 C CNN
F 3 "" V 3170 4500 30  0001 C CNN
	1    3250 4550
	-1   0    0    1   
$EndComp
Wire Wire Line
	3250 4700 3250 4800
$Comp
L t14_passive:R R5
U 1 1 5C9C728C
P 3250 5050
F 0 "R5" V 3150 4950 40  0000 L CNN
F 1 "20k" V 3350 5050 40  0000 L CNN
F 2 "t14_standardSMD:R2012m" V 3350 5000 30  0001 C CNN
F 3 "" V 3170 5000 30  0001 C CNN
	1    3250 5050
	-1   0    0    1   
$EndComp
Wire Wire Line
	3250 5200 3250 6000
Wire Wire Line
	3000 4200 3000 4650
Connection ~ 3000 4200
Wire Wire Line
	3000 4950 3000 6000
Wire Wire Line
	3250 4800 3450 4800
Connection ~ 3250 4800
Wire Wire Line
	3250 4800 3250 4900
$Comp
L t14_passive:C C8
U 1 1 5C9D585C
P 3500 5500
F 0 "C8" V 3350 5350 40  0000 L CNN
F 1 "4.7u" H 3615 5462 40  0000 L CNN
F 2 "t14_standardSMD:C2012m" V 3650 5500 30  0001 C CNN
F 3 "" H 3500 5600 60  0001 C CNN
	1    3500 5500
	1    0    0    -1  
$EndComp
Wire Wire Line
	3500 5650 3500 6000
Connection ~ 3800 6000
Wire Wire Line
	3800 6000 4350 6000
$Comp
L t14_passive:R R7
U 1 1 5C9D922C
P 3800 5100
F 0 "R7" V 3700 5000 40  0000 L CNN
F 1 "124k" V 3900 5100 40  0000 L CNN
F 2 "t14_standardSMD:R2012m" V 3900 5050 30  0001 C CNN
F 3 "" V 3720 5050 30  0001 C CNN
	1    3800 5100
	-1   0    0    1   
$EndComp
Wire Wire Line
	4200 4300 4150 4300
Wire Wire Line
	4150 4300 4150 4350
Wire Wire Line
	4150 4350 3800 4350
Wire Wire Line
	3800 4350 3800 4950
Wire Wire Line
	3800 5250 3800 6000
Wire Wire Line
	4200 4400 4200 5300
Wire Wire Line
	4200 5300 4350 5300
Wire Wire Line
	4350 5300 4350 5350
Connection ~ 4350 6000
Wire Wire Line
	4350 6000 4700 6000
Wire Wire Line
	4100 4200 4100 6150
$Comp
L t14_passive:C C9
U 1 1 5C9F28EC
P 4350 5500
F 0 "C9" V 4200 5350 40  0000 L CNN
F 1 "1u" H 4465 5462 40  0000 L CNN
F 2 "t14_standardSMD:C2012m" V 4500 5500 30  0001 C CNN
F 3 "" H 4350 5600 60  0001 C CNN
	1    4350 5500
	1    0    0    -1  
$EndComp
Wire Wire Line
	4350 5650 4350 6000
Wire Wire Line
	4700 4800 4700 5100
Connection ~ 4700 6000
$Comp
L t14_passive:C C10
U 1 1 5C9F6AED
P 4700 5500
F 0 "C10" V 4550 5350 40  0000 L CNN
F 1 "220p" H 4815 5462 40  0000 L CNN
F 2 "t14_standardSMD:C2012m" V 4850 5500 30  0001 C CNN
F 3 "" H 4700 5600 60  0001 C CNN
	1    4700 5500
	1    0    0    -1  
$EndComp
Wire Wire Line
	4700 5650 4700 6000
$Comp
L t14_passive:C c1
U 1 1 5C9FACA5
P 5350 5500
F 0 "c1" H 5450 5550 40  0000 L CNN
F 1 "15n" H 5465 5462 40  0000 L CNN
F 2 "t14_standardSMD:C2012m" V 5500 5500 30  0001 C CNN
F 3 "" H 5350 5600 60  0001 C CNN
	1    5350 5500
	1    0    0    -1  
$EndComp
Wire Wire Line
	5350 5100 5350 5350
Connection ~ 5350 6000
Wire Wire Line
	5350 6000 6200 6000
Wire Wire Line
	4700 6000 5350 6000
Wire Wire Line
	5350 5650 5350 6000
$Comp
L t14_passive:R R8
U 1 1 5CA0ED68
P 5100 5100
F 0 "R8" V 5000 4950 40  0000 L CNN
F 1 "14.3k" V 5200 5100 40  0000 L CNN
F 2 "t14_standardSMD:R2012m" V 5200 5050 30  0001 C CNN
F 3 "" V 5020 5050 30  0001 C CNN
	1    5100 5100
	0    -1   -1   0   
$EndComp
Wire Wire Line
	5250 5100 5350 5100
Wire Wire Line
	6200 4800 6200 6000
Connection ~ 6200 6000
Wire Wire Line
	6200 6000 6550 6000
$Comp
L t14_passive:R R13
U 1 1 5CA17F1C
P 7900 1900
F 0 "R13" V 7800 1750 40  0000 L CNN
F 1 "25m" V 8000 1900 40  0000 L CNN
F 2 "t14_standardSMD:R2012m" V 8000 1850 30  0001 C CNN
F 3 "" V 7820 1850 30  0001 C CNN
	1    7900 1900
	0    1    1    0   
$EndComp
Wire Wire Line
	7750 1900 7700 1900
Wire Wire Line
	7700 3500 7700 1900
Wire Wire Line
	8100 3600 8100 1900
Connection ~ 8100 1900
Wire Wire Line
	8100 1900 8050 1900
Wire Wire Line
	8350 3700 8350 3600
Connection ~ 8350 1900
Wire Wire Line
	8350 1900 8100 1900
Wire Wire Line
	7200 3800 8500 3800
Connection ~ 8500 3800
Wire Wire Line
	8500 3800 8500 3100
$Comp
L t14_passive:R R16
U 1 1 5CA2A9E2
P 8500 2950
F 0 "R16" V 8400 2800 40  0000 L CNN
F 1 "115m" V 8600 2950 40  0000 L CNN
F 2 "t14_standardSMD:R2012m" V 8600 2900 30  0001 C CNN
F 3 "" V 8420 2900 30  0001 C CNN
	1    8500 2950
	-1   0    0    1   
$EndComp
Wire Wire Line
	8500 2800 8500 1900
Wire Wire Line
	8500 1900 8900 1900
Wire Wire Line
	8900 1900 8900 2000
Connection ~ 8500 1900
$Comp
L t14_passive:C C2
U 1 1 5CA2FD2E
P 8900 2150
F 0 "C2" H 8800 2250 40  0000 C CNN
F 1 "C_OUT2" V 8750 2050 40  0000 C CNN
F 2 "t14_standardSMD:C3216m" V 9050 2150 30  0001 C CNN
F 3 "" H 8900 2250 60  0001 C CNN
	1    8900 2150
	-1   0    0    1   
$EndComp
$Comp
L t14_power:GND #PWR0106
U 1 1 5CA3058A
P 8900 2300
F 0 "#PWR0106" H 8900 2050 50  0001 C CNN
F 1 "GND" H 8905 2177 50  0000 C CNN
F 2 "" H 8900 2300 50  0001 C CNN
F 3 "" H 8900 2300 50  0001 C CNN
	1    8900 2300
	1    0    0    -1  
$EndComp
Connection ~ 7700 1900
Wire Wire Line
	7400 1900 7400 2000
Wire Wire Line
	7400 1900 7700 1900
Wire Wire Line
	8900 1900 9300 1900
Connection ~ 8900 1900
$Comp
L t14_power:VOut #PWR0107
U 1 1 5CA48DFD
P 9750 1900
F 0 "#PWR0107" H 9750 1750 50  0001 C CNN
F 1 "VOut" V 9765 2028 50  0000 L CNN
F 2 "" H 9750 1900 50  0001 C CNN
F 3 "" H 9750 1900 50  0001 C CNN
	1    9750 1900
	0    1    1    0   
$EndComp
Text Label 9550 1900 0    50   ~ 0
2-60V
Connection ~ 7400 6000
Wire Wire Line
	7400 6000 7700 6000
Connection ~ 7700 6000
Wire Wire Line
	7700 6000 8100 6000
$Comp
L t14_passive:R R11
U 1 1 5CA68E20
P 7400 5350
F 0 "R11" V 7300 5200 40  0000 L CNN
F 1 "47.5k" H 7471 5312 40  0000 L CNN
F 2 "t14_standardSMD:R2012m" V 7500 5300 30  0001 C CNN
F 3 "" V 7320 5300 30  0001 C CNN
	1    7400 5350
	1    0    0    -1  
$EndComp
Wire Wire Line
	7400 5500 7400 6000
$Comp
L t14_passive:C C13
U 1 1 5CA695F0
P 7700 5350
F 0 "C13" H 7815 5388 40  0000 L CNN
F 1 "100n" H 7815 5312 40  0000 L CNN
F 2 "t14_standardSMD:C2012m" V 7850 5350 30  0001 C CNN
F 3 "" H 7700 5450 60  0001 C CNN
	1    7700 5350
	1    0    0    -1  
$EndComp
Wire Wire Line
	7700 5500 7700 6000
Connection ~ 8100 6000
Wire Wire Line
	8100 6000 8300 6000
Connection ~ 8300 6000
Wire Wire Line
	8300 6000 8500 6000
$Comp
L t14_passive:R R15
U 1 1 5CA755F0
P 8100 5000
F 0 "R15" V 8000 4850 40  0000 L CNN
F 1 "24k" H 8171 4962 40  0000 L CNN
F 2 "t14_standardSMD:R2012m" V 8200 4950 30  0001 C CNN
F 3 "" V 8020 4950 30  0001 C CNN
	1    8100 5000
	1    0    0    -1  
$EndComp
Wire Wire Line
	8100 5150 8100 6000
$Comp
L t14_passive:C C15
U 1 1 5CA75A50
P 8300 5300
F 0 "C15" V 8150 5200 40  0000 L CNN
F 1 "100n" H 8415 5262 40  0000 L CNN
F 2 "t14_standardSMD:C2012m" V 8450 5300 30  0001 C CNN
F 3 "" H 8300 5400 60  0001 C CNN
	1    8300 5300
	1    0    0    -1  
$EndComp
Wire Wire Line
	8300 5450 8300 6000
Wire Wire Line
	7200 3900 8000 3900
$Comp
L t14_passive:C C16
U 1 1 5CA7C4A3
P 8000 4050
F 0 "C16" V 7850 3850 40  0000 L CNN
F 1 "4.7u" H 8115 4012 40  0000 L CNN
F 2 "t14_standardSMD:C2012m" V 8150 4050 30  0001 C CNN
F 3 "" H 8000 4150 60  0001 C CNN
	1    8000 4050
	1    0    0    -1  
$EndComp
Wire Wire Line
	8500 3800 8500 3850
Wire Wire Line
	8000 4200 8500 4200
Connection ~ 8500 4200
Wire Wire Line
	8500 4200 8500 4350
$Comp
L t14_passive:R R17
U 1 1 5CA8EB85
P 8500 4000
F 0 "R17" V 8400 3850 40  0000 L CNN
F 1 "10k" H 8571 3962 40  0000 L CNN
F 2 "t14_standardSMD:R2012m" V 8600 3950 30  0001 C CNN
F 3 "" V 8420 3950 30  0001 C CNN
	1    8500 4000
	1    0    0    -1  
$EndComp
Wire Wire Line
	8500 4150 8500 4200
Wire Wire Line
	7750 4000 7750 4350
Wire Wire Line
	7750 4350 8050 4350
Connection ~ 8500 4350
Wire Wire Line
	8500 4350 8500 6000
Wire Wire Line
	7200 4000 7500 4000
Wire Wire Line
	7500 4050 7500 4000
Connection ~ 7500 4000
Wire Wire Line
	7500 4000 7750 4000
Wire Wire Line
	7500 4350 7650 4350
Wire Wire Line
	7400 5200 7400 4850
Wire Wire Line
	7400 4850 7200 4850
Wire Wire Line
	7200 4850 7200 4600
Wire Wire Line
	7700 5200 7700 4850
Wire Wire Line
	7700 4850 7400 4850
Connection ~ 7400 4850
Wire Wire Line
	7200 4500 7350 4500
Wire Wire Line
	7350 4500 7350 4700
Wire Wire Line
	7350 4700 8100 4700
Wire Wire Line
	8100 4700 8100 4850
Wire Wire Line
	8100 4700 8300 4700
Wire Wire Line
	8300 4700 8300 5150
Connection ~ 8100 4700
$Comp
L t14_passive:C C14
U 1 1 5CB23A98
P 8200 4350
F 0 "C14" V 8350 4200 40  0000 L CNN
F 1 "4.7u" V 8150 4400 40  0000 L CNN
F 2 "t14_standardSMD:C2012m" V 8350 4350 30  0001 C CNN
F 3 "" H 8200 4450 60  0001 C CNN
	1    8200 4350
	0    1    1    0   
$EndComp
Wire Wire Line
	8350 4350 8500 4350
$Comp
L t14_power:Vin #PWR0108
U 1 1 5CB2CEE7
P 2250 1900
F 0 "#PWR0108" H 2250 1750 50  0001 C CNN
F 1 "Vin" V 2265 2028 50  0000 L CNN
F 2 "" H 2250 1900 50  0001 C CNN
F 3 "" H 2250 1900 50  0001 C CNN
	1    2250 1900
	0    -1   -1   0   
$EndComp
Text Label 2600 1900 2    50   ~ 0
10-60V
Wire Wire Line
	2250 1900 2600 1900
$Comp
L jts-100-step-down-LT8705A-rescue:NMOS_POWERSO8-9-t14_semiconductor M1
U 1 1 5C98001C
P 4450 2000
F 0 "M1" V 4755 2000 40  0000 C CNN
F 1 "NMOS_D2PAK" V 4679 2000 40  0000 C CNN
F 2 "t14_standardSMD:POWER_SO8" H 4320 2102 29  0001 C CNN
F 3 "" H 4450 2000 60  0000 C CNN
	1    4450 2000
	0    -1   -1   0   
$EndComp
Wire Wire Line
	3800 1900 3650 1900
Wire Wire Line
	5800 2400 5800 2600
Connection ~ 5800 2600
Wire Wire Line
	6150 2500 6150 2700
$Comp
L jts-100-step-down-LT8705A-rescue:NMOS_POWERSO8-9-t14_semiconductor M4
U 1 1 5CA10605
P 6850 2100
F 0 "M4" V 6500 2250 40  0000 L CNN
F 1 "NMOS_D2PAK" V 7100 1900 40  0000 L CNN
F 2 "t14_standardSMD:POWER_SO8" H 6720 2202 29  0001 C CNN
F 3 "" H 6850 2100 60  0000 C CNN
	1    6850 2100
	0    1    -1   0   
$EndComp
$Comp
L v5_Device:D D_B1
U 1 1 5CA21DC3
P 7500 4500
F 0 "D_B1" V 7550 4750 50  0000 R CNN
F 1 "D" V 7400 4600 50  0000 R CNN
F 2 "t14_standardSMD:SMA" H 7500 4500 50  0001 C CNN
F 3 "~" H 7500 4500 50  0001 C CNN
	1    7500 4500
	0    -1   -1   0   
$EndComp
Connection ~ 7500 4350
$Comp
L v5_Device:D D_B2
U 1 1 5CA234EB
P 7650 4500
F 0 "D_B2" V 7696 4421 50  0000 R CNN
F 1 "D" V 7605 4421 50  0000 R CNN
F 2 "t14_standardSMD:SMA" H 7650 4500 50  0001 C CNN
F 3 "~" H 7650 4500 50  0001 C CNN
	1    7650 4500
	0    -1   -1   0   
$EndComp
Wire Wire Line
	7500 4650 7500 4800
Wire Wire Line
	7500 4800 8650 4800
Wire Wire Line
	8650 4800 8650 3250
Wire Wire Line
	8650 3250 7650 3250
Wire Wire Line
	7650 3250 7650 3100
Wire Wire Line
	7650 3100 7100 3100
Wire Wire Line
	7100 3100 7100 2500
Wire Wire Line
	7100 2500 6550 2500
Wire Wire Line
	6550 2500 6550 1650
Wire Wire Line
	6550 1650 4850 1650
Wire Wire Line
	4850 1650 4850 2850
Wire Wire Line
	6650 2700 8000 2700
Wire Wire Line
	8000 2700 8000 3150
Wire Wire Line
	8000 3150 8350 3150
Wire Wire Line
	8350 3150 8350 3600
Wire Wire Line
	8350 3600 8800 3600
Wire Wire Line
	8800 3600 8800 4650
Wire Wire Line
	8800 4650 7650 4650
Wire Wire Line
	3550 3500 3550 2050
$Comp
L t14_power:GND #PWR0109
U 1 1 5CD21C95
P 6550 6000
F 0 "#PWR0109" H 6550 5750 50  0001 C CNN
F 1 "GND" H 6555 5877 50  0000 C CNN
F 2 "" H 6550 6000 50  0001 C CNN
F 3 "" H 6550 6000 50  0001 C CNN
	1    6550 6000
	1    0    0    -1  
$EndComp
Connection ~ 6550 6000
Wire Wire Line
	6550 6000 7400 6000
Wire Wire Line
	6550 4800 6550 6000
Text Notes 9050 5300 0    50   ~ 0
FDMS3662 (100V/39A/14.8mR)\n
Wire Wire Line
	5150 2850 5150 2600
Wire Wire Line
	5150 2600 5000 2600
Wire Wire Line
	5000 2600 5000 1900
Connection ~ 5150 2850
Wire Wire Line
	5250 3200 5250 2500
Wire Wire Line
	5250 2500 5100 2500
Wire Wire Line
	5100 2500 5100 2200
Wire Wire Line
	3550 3500 4200 3500
Wire Wire Line
	3350 3600 4200 3600
Wire Wire Line
	2600 3700 3000 3700
Connection ~ 3000 3700
Wire Wire Line
	3800 1900 3800 2000
Wire Wire Line
	4150 1900 4150 2000
Connection ~ 4150 2000
Wire Wire Line
	4150 2000 4150 2100
Connection ~ 4150 2100
Wire Wire Line
	4150 2100 4150 2200
Wire Wire Line
	4150 1900 3800 1900
Connection ~ 4150 1900
Connection ~ 3800 1900
Wire Wire Line
	4650 1900 4650 2000
Connection ~ 4650 2000
Wire Wire Line
	4650 2000 4650 2100
Wire Wire Line
	4650 1900 5000 1900
Connection ~ 4650 1900
Connection ~ 5000 1900
Wire Wire Line
	4450 2300 4650 2300
Wire Wire Line
	4650 2300 4650 2700
Connection ~ 8350 3150
Wire Wire Line
	8350 3150 8350 1900
Connection ~ 8350 3600
Wire Wire Line
	7200 3500 7700 3500
Wire Wire Line
	7200 3600 8100 3600
Wire Wire Line
	7200 3700 8350 3700
Wire Wire Line
	4150 1800 4150 1900
$Comp
L jts-100-step-down-LT8705A-rescue:NMOS_POWERSO8-9-t14_semiconductor M2
U 1 1 5C9E8106
P 5400 2200
F 0 "M2" H 5150 2400 40  0000 L CNN
F 1 "NMOS_D2PAK" H 5200 1950 40  0000 L CNN
F 2 "t14_standardSMD:POWER_SO8" H 5270 2302 29  0001 C CNN
F 3 "" H 5400 2200 60  0000 C CNN
	1    5400 2200
	1    0    0    -1  
$EndComp
Wire Wire Line
	5000 1900 5200 1900
Wire Wire Line
	5500 2400 5800 2400
Wire Wire Line
	5500 1900 5600 1900
Connection ~ 5600 1900
Wire Wire Line
	5500 1900 5400 1900
Connection ~ 5500 1900
Connection ~ 5200 1900
Connection ~ 5300 1900
Wire Wire Line
	5300 1900 5200 1900
Connection ~ 5400 1900
Wire Wire Line
	5400 1900 5300 1900
Wire Wire Line
	5500 2400 5400 2400
Connection ~ 5500 2400
Connection ~ 5400 2400
Wire Wire Line
	5300 2400 5400 2400
$Comp
L jts-100-step-down-LT8705A-rescue:NMOS_POWERSO8-9-t14_semiconductor M3
U 1 1 5C9E759D
P 6150 2200
F 0 "M3" H 6200 2250 40  0000 L CNN
F 1 "NMOS_D2PAK" H 5950 1950 40  0000 L CNN
F 2 "t14_standardSMD:POWER_SO8" H 6020 2302 29  0001 C CNN
F 3 "" H 6150 2200 60  0000 C CNN
	1    6150 2200
	-1   0    0    -1  
$EndComp
Wire Wire Line
	6350 2850 6350 2550
Wire Wire Line
	6350 2550 6500 2550
Wire Wire Line
	6500 2550 6500 1900
Connection ~ 6350 2850
Wire Wire Line
	6450 2500 6450 2200
Wire Wire Line
	6150 2500 6450 2500
Connection ~ 6050 2400
Wire Wire Line
	6050 2400 6150 2400
Connection ~ 6150 2400
Wire Wire Line
	6150 2400 6250 2400
Wire Wire Line
	5800 2400 6050 2400
Connection ~ 5800 2400
Wire Wire Line
	5900 1900 5950 1900
Connection ~ 5950 1900
Wire Wire Line
	5950 1900 6050 1900
Connection ~ 6050 1900
Wire Wire Line
	6050 1900 6150 1900
Connection ~ 6150 1900
Wire Wire Line
	6150 1900 6250 1900
Connection ~ 6250 1900
Wire Wire Line
	6250 1900 6350 1900
Connection ~ 6350 1900
Wire Wire Line
	6350 1900 6500 1900
Wire Wire Line
	6750 2750 6850 2750
Wire Wire Line
	6850 2750 6850 2400
Wire Wire Line
	7150 2300 7150 2200
Wire Wire Line
	7150 1900 7400 1900
Connection ~ 7150 1900
Connection ~ 7150 2000
Wire Wire Line
	7150 2000 7150 1900
Connection ~ 7150 2100
Wire Wire Line
	7150 2100 7150 2000
Connection ~ 7150 2200
Wire Wire Line
	7150 2200 7150 2100
Connection ~ 7400 1900
Wire Wire Line
	6650 2200 6650 2100
Wire Wire Line
	6650 1900 6500 1900
Connection ~ 6650 2000
Wire Wire Line
	6650 2000 6650 1900
Connection ~ 6650 2100
Wire Wire Line
	6650 2100 6650 2000
Connection ~ 6500 1900
Wire Wire Line
	2950 1900 3250 1900
Wire Wire Line
	3350 3600 3350 2050
Wire Wire Line
	2950 1900 2700 1900
Connection ~ 2950 1900
Connection ~ 2600 1900
$Comp
L t14_passive:C_pol C5
U 1 1 5CD84860
P 9300 2150
F 0 "C5" H 9415 2218 40  0000 L CNN
F 1 "C_pol" H 9415 2142 40  0000 L CNN
F 2 "t14_standardSMD:ELKO_D8" H 9415 2074 30  0000 L CNN
F 3 "" H 9300 2150 60  0000 C CNN
	1    9300 2150
	1    0    0    -1  
$EndComp
Wire Wire Line
	3500 4000 4200 4000
Wire Wire Line
	3450 3800 3450 4800
Wire Wire Line
	3000 3700 4200 3700
Wire Wire Line
	4950 5100 4700 5100
Connection ~ 4700 5100
Wire Wire Line
	4700 5100 4700 5350
NoConn ~ 5450 4800
Wire Wire Line
	9300 2000 9300 1900
Connection ~ 9300 1900
Wire Wire Line
	9300 1900 9750 1900
$Comp
L t14_power:GND #PWR0110
U 1 1 5CE666B0
P 9300 2300
F 0 "#PWR0110" H 9300 2050 50  0001 C CNN
F 1 "GND" H 9305 2177 50  0000 C CNN
F 2 "" H 9300 2300 50  0001 C CNN
F 3 "" H 9300 2300 50  0001 C CNN
	1    9300 2300
	1    0    0    -1  
$EndComp
$Comp
L v5_Connector_Generic:Conn_01x04 X1
U 1 1 5CE67362
P 10350 950
F 0 "X1" H 10430 942 50  0000 L CNN
F 1 "Conn_01x04" H 10430 851 50  0000 L CNN
F 2 "t14_standardTHT:01x04x3.81mm_Vertical" H 10350 950 50  0001 C CNN
F 3 "~" H 10350 950 50  0001 C CNN
	1    10350 950 
	1    0    0    -1  
$EndComp
Wire Wire Line
	10150 1150 9300 1150
Wire Wire Line
	9300 1150 9300 1900
Wire Wire Line
	10150 850  2600 850 
Wire Wire Line
	2600 850  2600 1900
Text Label 4900 1900 0    40   ~ 0
prim_sw
Wire Wire Line
	10150 950  8700 950 
Wire Wire Line
	8700 950  8700 1500
Wire Wire Line
	10150 1050 8950 1050
Wire Wire Line
	8950 1050 8950 1500
$Comp
L t14_power:GND #PWR02
U 1 1 5CEC8693
P 8700 1500
F 0 "#PWR02" H 8700 1250 50  0001 C CNN
F 1 "GND" H 8705 1377 50  0000 C CNN
F 2 "" H 8700 1500 50  0001 C CNN
F 3 "" H 8700 1500 50  0001 C CNN
	1    8700 1500
	1    0    0    -1  
$EndComp
$Comp
L t14_power:GND #PWR03
U 1 1 5CEC89E5
P 8950 1500
F 0 "#PWR03" H 8950 1250 50  0001 C CNN
F 1 "GND" H 8955 1377 50  0000 C CNN
F 2 "" H 8950 1500 50  0001 C CNN
F 3 "" H 8950 1500 50  0001 C CNN
	1    8950 1500
	1    0    0    -1  
$EndComp
$Comp
L t14_passive:C_pol C6
U 1 1 5CEC8B67
P 2700 2150
F 0 "C6" H 2815 2218 40  0000 L CNN
F 1 "C_pol" H 2815 2142 40  0000 L CNN
F 2 "t14_standardSMD:ELKO_D8" H 2815 2074 30  0000 L CNN
F 3 "" H 2700 2150 60  0000 C CNN
	1    2700 2150
	1    0    0    -1  
$EndComp
Connection ~ 2700 1900
Wire Wire Line
	2700 1900 2600 1900
Wire Wire Line
	2700 1900 2700 2000
$Comp
L t14_power:GND #PWR01
U 1 1 5CED66DB
P 2700 2300
F 0 "#PWR01" H 2700 2050 50  0001 C CNN
F 1 "GND" H 2705 2177 50  0000 C CNN
F 2 "" H 2700 2300 50  0001 C CNN
F 3 "" H 2700 2300 50  0001 C CNN
	1    2700 2300
	1    0    0    -1  
$EndComp
$Comp
L t14_passive:R R12
U 1 1 5CAB82F8
P 7500 4200
F 0 "R12" V 7400 4050 40  0000 L CNN
F 1 "10k" H 7571 4162 40  0000 L CNN
F 2 "t14_standardSMD:R2012m" V 7600 4150 30  0001 C CNN
F 3 "" V 7420 4150 30  0001 C CNN
	1    7500 4200
	1    0    0    -1  
$EndComp
$Comp
L jts-100-step-down-LT8705A-rescue:LT8705A-jts-100-LT8705A U1
U 1 1 5C920DCE
P 4200 3300
F 0 "U1" H 5700 2600 50  0000 C CNN
F 1 "LT8705A" H 5700 2700 50  0000 C CNN
F 2 "t14_standardSMD:TSSOP-38-31_4.4x9.7mm_P0.5mm_EP" H 4200 3300 50  0001 C CNN
F 3 "" H 4200 3300 50  0001 C CNN
	1    4200 3300
	1    0    0    -1  
$EndComp
Text Label 6300 1900 0    40   ~ 0
sek_sw
Text Label 5650 2400 0    50   ~ 0
com_low
Text Label 3850 1900 0    40   ~ 0
prim_hi
Text Label 7450 1900 0    40   ~ 0
sek_hi
$EndSCHEMATC
