EESchema Schematic File Version 2
LIBS:power
LIBS:device
LIBS:switches
LIBS:relays
LIBS:motors
LIBS:transistors
LIBS:conn
LIBS:linear
LIBS:regul
LIBS:74xx
LIBS:cmos4000
LIBS:adc-dac
LIBS:memory
LIBS:xilinx
LIBS:microcontrollers
LIBS:dsp
LIBS:microchip
LIBS:analog_switches
LIBS:motorola
LIBS:texas
LIBS:intel
LIBS:audio
LIBS:interface
LIBS:digital-audio
LIBS:philips
LIBS:display
LIBS:cypress
LIBS:siliconi
LIBS:opto
LIBS:atmel
LIBS:contrib
LIBS:valves
LIBS:jts-100
LIBS:jts-100-cartridge-adapter-cache
EELAYER 25 0
EELAYER END
$Descr A4 11693 8268
encoding utf-8
Sheet 1 3
Title ""
Date ""
Rev ""
Comp ""
Comment1 ""
Comment2 ""
Comment3 ""
Comment4 ""
$EndDescr
$Comp
L Spring X1
U 1 1 5A9D34D8
P 1950 1950
F 0 "X1" H 2250 2250 60  0000 C CNN
F 1 "HTC-" H 2250 2100 60  0000 C CNN
F 2 "jts-100:WE-331031271520" H 1950 1950 60  0001 C CNN
F 3 "" H 1950 1950 60  0001 C CNN
	1    1950 1950
	1    0    0    -1  
$EndComp
Text Notes 1400 1800 0    60   ~ 0
1 Top
Text Notes 1350 2750 0    60   ~ 0
2 Left Top
Text Notes 1200 3550 0    60   ~ 0
3 Left Bottom
Text Notes 1350 4350 0    60   ~ 0
4 Bottom
Text Notes 1100 5300 0    60   ~ 0
5 Right Bottom
Text Notes 1250 6050 0    60   ~ 0
6 Right Top
$Comp
L Spring X48
U 1 1 5A9D3B39
P 6600 1950
F 0 "X48" H 6900 2250 60  0000 C CNN
F 1 "TC+" H 6900 2100 60  0000 C CNN
F 2 "jts-100:WE-331031271520" H 6600 1950 60  0001 C CNN
F 3 "" H 6600 1950 60  0001 C CNN
	1    6600 1950
	1    0    0    -1  
$EndComp
$Comp
L Spring X49
U 1 1 5A9D3BA9
P 6600 4550
F 0 "X49" H 6900 4850 60  0000 C CNN
F 1 "TC+" H 6900 4700 60  0000 C CNN
F 2 "jts-100:WE-331031271520" H 6600 4550 60  0001 C CNN
F 3 "" H 6600 4550 60  0001 C CNN
	1    6600 4550
	1    0    0    -1  
$EndComp
$Comp
L Spring X27
U 1 1 5A9D3C26
P 4350 2850
F 0 "X27" H 4650 3150 60  0000 C CNN
F 1 "H+" H 4650 3000 60  0000 C CNN
F 2 "jts-100:WE-331031271520" H 4350 2850 60  0001 C CNN
F 3 "" H 4350 2850 60  0001 C CNN
	1    4350 2850
	1    0    0    -1  
$EndComp
$Comp
L Spring X25
U 1 1 5A9D3C7A
P 4300 4550
F 0 "X25" H 4600 4850 60  0000 C CNN
F 1 "H+" H 4600 4700 60  0000 C CNN
F 2 "jts-100:WE-331031271520" H 4300 4550 60  0001 C CNN
F 3 "" H 4300 4550 60  0001 C CNN
	1    4300 4550
	1    0    0    -1  
$EndComp
$Comp
L Spring X26
U 1 1 5A9D3CDF
P 4300 6150
F 0 "X26" H 4600 6450 60  0000 C CNN
F 1 "H+" H 4600 6300 60  0000 C CNN
F 2 "jts-100:WE-331031271520" H 4300 6150 60  0001 C CNN
F 3 "" H 4300 6150 60  0001 C CNN
	1    4300 6150
	1    0    0    -1  
$EndComp
Text Notes 1800 1000 0    60   ~ 0
Heater/Thermo Couple\nMinus
Text Notes 4550 1000 0    60   ~ 0
Heater \nPlus
Text Notes 6650 1000 0    60   ~ 0
Thermo Couple\nPlus
$Sheet
S 8050 850  2400 500 
U 5A9D599B
F0 "Jack Plate" 60
F1 "jack-plate.sch" 60
$EndSheet
$Comp
L JTS-100-Dual-Pad X19
U 1 1 5A9D6468
P 3850 1850
F 0 "X19" H 3850 1950 50  0000 C CNN
F 1 "JTS-100-Dual-Pad" H 3850 1650 50  0001 C CNN
F 2 "jts-100:Dual-Pad" H 3850 1850 50  0001 C CNN
F 3 "" H 3850 1850 50  0001 C CNN
	1    3850 1850
	1    0    0    -1  
$EndComp
$Comp
L JTS-100-Dual-Pad X20
U 1 1 5A9D6DAA
P 3850 2750
F 0 "X20" H 3850 2850 50  0000 C CNN
F 1 "JTS-100-Dual-Pad" H 3850 2550 50  0001 C CNN
F 2 "jts-100:Dual-Pad" H 3850 2750 50  0001 C CNN
F 3 "" H 3850 2750 50  0001 C CNN
	1    3850 2750
	1    0    0    -1  
$EndComp
$Comp
L JTS-100-Dual-Pad X22
U 1 1 5A9D6E40
P 3850 4450
F 0 "X22" H 3850 4550 50  0000 C CNN
F 1 "JTS-100-Dual-Pad" H 3850 4250 50  0001 C CNN
F 2 "jts-100:Dual-Pad" H 3850 4450 50  0001 C CNN
F 3 "" H 3850 4450 50  0001 C CNN
	1    3850 4450
	1    0    0    -1  
$EndComp
$Comp
L JTS-100-Dual-Pad X21
U 1 1 5A9D70C2
P 3850 3550
F 0 "X21" H 3850 3650 50  0000 C CNN
F 1 "JTS-100-Dual-Pad" H 3850 3300 50  0001 C CNN
F 2 "jts-100:Dual-Pad" H 3850 3550 50  0001 C CNN
F 3 "" H 3850 3550 50  0001 C CNN
	1    3850 3550
	1    0    0    -1  
$EndComp
$Comp
L JTS-100-Dual-Pad X23
U 1 1 5A9D7129
P 3850 5250
F 0 "X23" H 3850 5350 50  0000 C CNN
F 1 "JTS-100-Dual-Pad" H 3850 5050 50  0001 C CNN
F 2 "jts-100:Dual-Pad" H 3850 5250 50  0001 C CNN
F 3 "" H 3850 5250 50  0001 C CNN
	1    3850 5250
	1    0    0    -1  
$EndComp
$Comp
L JTS-100-Dual-Pad X24
U 1 1 5A9D71A1
P 3850 6050
F 0 "X24" H 3850 6150 50  0000 C CNN
F 1 "JTS-100-Dual-Pad" H 3850 5850 50  0001 C CNN
F 2 "jts-100:Dual-Pad" H 3850 6050 50  0001 C CNN
F 3 "" H 3850 6050 50  0001 C CNN
	1    3850 6050
	1    0    0    -1  
$EndComp
$Comp
L JTS-100-Cartridge-Jack J1
U 1 1 5A9D9FA3
P 8400 4350
F 0 "J1" H 7900 4800 60  0000 C CNN
F 1 "JTS-100-Cartridge-Jack" H 9250 3900 60  0000 C CNN
F 2 "" H 7775 4125 60  0001 C CNN
F 3 "" H 7775 4125 60  0001 C CNN
	1    8400 4350
	1    0    0    -1  
$EndComp
$Comp
L Spring X2
U 1 1 5A9DC7D9
P 1950 2850
F 0 "X2" H 2250 3150 60  0000 C CNN
F 1 "HTC-" H 2250 3000 60  0000 C CNN
F 2 "jts-100:WE-331031271520" H 1950 2850 60  0001 C CNN
F 3 "" H 1950 2850 60  0001 C CNN
	1    1950 2850
	1    0    0    -1  
$EndComp
$Comp
L Spring X3
U 1 1 5A9DC837
P 1950 3650
F 0 "X3" H 2250 3950 60  0000 C CNN
F 1 "HTC-" H 2250 3800 60  0000 C CNN
F 2 "jts-100:WE-331031271520" H 1950 3650 60  0001 C CNN
F 3 "" H 1950 3650 60  0001 C CNN
	1    1950 3650
	1    0    0    -1  
$EndComp
$Comp
L Spring X4
U 1 1 5A9DC894
P 1950 4550
F 0 "X4" H 2250 4850 60  0000 C CNN
F 1 "HTC-" H 2250 4700 60  0000 C CNN
F 2 "jts-100:WE-331031271520" H 1950 4550 60  0001 C CNN
F 3 "" H 1950 4550 60  0001 C CNN
	1    1950 4550
	1    0    0    -1  
$EndComp
$Comp
L Spring X5
U 1 1 5A9DC93C
P 1950 5350
F 0 "X5" H 2250 5650 60  0000 C CNN
F 1 "HTC-" H 2250 5500 60  0000 C CNN
F 2 "jts-100:WE-331031271520" H 1950 5350 60  0001 C CNN
F 3 "" H 1950 5350 60  0001 C CNN
	1    1950 5350
	1    0    0    -1  
$EndComp
$Comp
L Spring X6
U 1 1 5A9DCDBB
P 1950 6150
F 0 "X6" H 2250 6450 60  0000 C CNN
F 1 "HTC-" H 2250 6300 60  0000 C CNN
F 2 "jts-100:WE-331031271520" H 1950 6150 60  0001 C CNN
F 3 "" H 1950 6150 60  0001 C CNN
	1    1950 6150
	1    0    0    -1  
$EndComp
Text Notes 4000 6200 0    60   ~ 0
HR+\nSDA
Text Notes 4050 1900 0    60   ~ 0
GND
Text Notes 4050 2000 0    60   ~ 0
3V3
Text Notes 4000 2900 0    60   ~ 0
SCL\nHL+
Text Notes 4000 3700 0    60   ~ 0
HTL-\nTCL+
Text Notes 4000 4600 0    60   ~ 0
n.c.\nEarth
Text Notes 4000 5400 0    60   ~ 0
TCR+\nHTR-
$Comp
L AT30TSE004A U1
U 1 1 5A9F6D16
P 5050 1700
F 0 "U1" H 4800 1950 60  0000 C CNN
F 1 "AT30TSE004A" H 4950 1300 60  0000 C CNN
F 2 "Housings_DFN_QFN:DFN-8-1EP_3x2mm_Pitch0.5mm" H 4850 1450 60  0001 C CNN
F 3 "" H 4850 1450 60  0001 C CNN
	1    5050 1700
	1    0    0    -1  
$EndComp
NoConn ~ 5450 1650
$Comp
L C C2
U 1 1 5A9F92B5
P 4100 1100
F 0 "C2" H 4125 1200 50  0000 L CNN
F 1 "1u" H 4125 1000 50  0000 L CNN
F 2 "standardSMD:C1608m" H 4138 950 50  0001 C CNN
F 3 "" H 4100 1100 50  0001 C CNN
	1    4100 1100
	0    -1   -1   0   
$EndComp
$Comp
L Bridge-Pad-L X10
U 1 1 5AA03BDA
P 2700 3100
F 0 "X10" V 2650 3300 50  0000 C CNN
F 1 "Bridge-Pad-L" H 2700 3000 50  0001 C CNN
F 2 "jts-100:Pad-4x3" H 2700 3100 50  0001 C CNN
F 3 "" H 2700 3100 50  0001 C CNN
	1    2700 3100
	0    1    1    0   
$EndComp
$Comp
L Bridge-Pad-R X11
U 1 1 5AA03F45
P 2700 3150
F 0 "X11" V 2650 2950 50  0000 C CNN
F 1 "Bridge-Pad-R" H 2700 3050 50  0001 C CNN
F 2 "jts-100:Pad-4x3" H 2700 3150 50  0001 C CNN
F 3 "" H 2700 3150 50  0001 C CNN
	1    2700 3150
	0    -1   -1   0   
$EndComp
$Comp
L Bridge-Pad-L X8
U 1 1 5AA0571D
P 2700 2250
F 0 "X8" V 2650 2450 50  0000 C CNN
F 1 "Bridge-Pad-L" H 2700 2150 50  0001 C CNN
F 2 "jts-100:Pad-4x3" H 2700 2250 50  0001 C CNN
F 3 "" H 2700 2250 50  0001 C CNN
	1    2700 2250
	0    1    1    0   
$EndComp
$Comp
L Bridge-Pad-R X9
U 1 1 5AA05724
P 2700 2300
F 0 "X9" V 2650 2100 50  0000 C CNN
F 1 "Bridge-Pad-R" H 2700 2200 50  0001 C CNN
F 2 "jts-100:Pad-4x3" H 2700 2300 50  0001 C CNN
F 3 "" H 2700 2300 50  0001 C CNN
	1    2700 2300
	0    -1   -1   0   
$EndComp
$Comp
L Bridge-Pad-L X12
U 1 1 5AA05B65
P 2700 3900
F 0 "X12" V 2650 4100 50  0000 C CNN
F 1 "Bridge-Pad-L" H 2700 3800 50  0001 C CNN
F 2 "jts-100:Pad-4x3" H 2700 3900 50  0001 C CNN
F 3 "" H 2700 3900 50  0001 C CNN
	1    2700 3900
	0    1    1    0   
$EndComp
$Comp
L Bridge-Pad-R X13
U 1 1 5AA05B6C
P 2700 3950
F 0 "X13" V 2650 3750 50  0000 C CNN
F 1 "Bridge-Pad-R" H 2700 3850 50  0001 C CNN
F 2 "jts-100:Pad-4x3" H 2700 3950 50  0001 C CNN
F 3 "" H 2700 3950 50  0001 C CNN
	1    2700 3950
	0    -1   -1   0   
$EndComp
$Comp
L Bridge-Pad-L X14
U 1 1 5AA05C15
P 2700 4850
F 0 "X14" V 2650 5050 50  0000 C CNN
F 1 "Bridge-Pad-L" H 2700 4750 50  0001 C CNN
F 2 "jts-100:Pad-4x3" H 2700 4850 50  0001 C CNN
F 3 "" H 2700 4850 50  0001 C CNN
	1    2700 4850
	0    1    1    0   
$EndComp
$Comp
L Bridge-Pad-R X15
U 1 1 5AA05C1C
P 2700 4900
F 0 "X15" V 2650 4700 50  0000 C CNN
F 1 "Bridge-Pad-R" H 2700 4800 50  0001 C CNN
F 2 "jts-100:Pad-4x3" H 2700 4900 50  0001 C CNN
F 3 "" H 2700 4900 50  0001 C CNN
	1    2700 4900
	0    -1   -1   0   
$EndComp
$Comp
L Bridge-Pad-L X16
U 1 1 5AA0612B
P 2700 5650
F 0 "X16" V 2650 5850 50  0000 C CNN
F 1 "Bridge-Pad-L" H 2700 5550 50  0001 C CNN
F 2 "jts-100:Pad-4x3" H 2700 5650 50  0001 C CNN
F 3 "" H 2700 5650 50  0001 C CNN
	1    2700 5650
	0    1    1    0   
$EndComp
$Comp
L Bridge-Pad-R X17
U 1 1 5AA06132
P 2700 5700
F 0 "X17" V 2650 5500 50  0000 C CNN
F 1 "Bridge-Pad-R" H 2700 5600 50  0001 C CNN
F 2 "jts-100:Pad-4x3" H 2700 5700 50  0001 C CNN
F 3 "" H 2700 5700 50  0001 C CNN
	1    2700 5700
	0    -1   -1   0   
$EndComp
$Comp
L Bridge-Pad-L X18
U 1 1 5AA0620B
P 2700 6400
F 0 "X18" V 2650 6600 50  0000 C CNN
F 1 "Bridge-Pad-L" H 2700 6300 50  0001 C CNN
F 2 "jts-100:Pad-4x3" H 2700 6400 50  0001 C CNN
F 3 "" H 2700 6400 50  0001 C CNN
	1    2700 6400
	0    1    1    0   
$EndComp
$Comp
L Bridge-Pad-R X7
U 1 1 5AA06212
P 2700 1100
F 0 "X7" V 2650 900 50  0000 C CNN
F 1 "Bridge-Pad-R" H 2700 1000 50  0001 C CNN
F 2 "jts-100:Pad-4x3" H 2700 1100 50  0001 C CNN
F 3 "" H 2700 1100 50  0001 C CNN
	1    2700 1100
	0    -1   -1   0   
$EndComp
$Comp
L Bridge-Pad-L X29
U 1 1 5AA069B3
P 5350 2300
F 0 "X29" V 5300 2500 50  0000 C CNN
F 1 "Bridge-Pad-L" H 5350 2200 50  0001 C CNN
F 2 "jts-100:Pad-4x3" H 5350 2300 50  0001 C CNN
F 3 "" H 5350 2300 50  0001 C CNN
	1    5350 2300
	0    1    1    0   
$EndComp
$Comp
L Bridge-Pad-R X30
U 1 1 5AA069BA
P 5350 2350
F 0 "X30" V 5300 2150 50  0000 C CNN
F 1 "Bridge-Pad-R" H 5350 2250 50  0001 C CNN
F 2 "jts-100:Pad-4x3" H 5350 2350 50  0001 C CNN
F 3 "" H 5350 2350 50  0001 C CNN
	1    5350 2350
	0    -1   -1   0   
$EndComp
$Comp
L Bridge-Pad-L X40
U 1 1 5AA06A83
P 6300 2250
F 0 "X40" V 6250 2450 50  0000 C CNN
F 1 "Bridge-Pad-L" H 6300 2150 50  0001 C CNN
F 2 "jts-100:Pad-4x3" H 6300 2250 50  0001 C CNN
F 3 "" H 6300 2250 50  0001 C CNN
	1    6300 2250
	0    1    1    0   
$EndComp
$Comp
L Bridge-Pad-R X41
U 1 1 5AA06A8A
P 6300 2300
F 0 "X41" V 6250 2100 50  0000 C CNN
F 1 "Bridge-Pad-R" H 6300 2200 50  0001 C CNN
F 2 "jts-100:Pad-4x3" H 6300 2300 50  0001 C CNN
F 3 "" H 6300 2300 50  0001 C CNN
	1    6300 2300
	0    -1   -1   0   
$EndComp
$Comp
L Bridge-Pad-L X31
U 1 1 5AA06EF9
P 5350 3100
F 0 "X31" V 5300 3300 50  0000 C CNN
F 1 "Bridge-Pad-L" H 5350 3000 50  0001 C CNN
F 2 "jts-100:Pad-4x3" H 5350 3100 50  0001 C CNN
F 3 "" H 5350 3100 50  0001 C CNN
	1    5350 3100
	0    1    1    0   
$EndComp
$Comp
L Bridge-Pad-R X32
U 1 1 5AA06F00
P 5350 3150
F 0 "X32" V 5300 2950 50  0000 C CNN
F 1 "Bridge-Pad-R" H 5350 3050 50  0001 C CNN
F 2 "jts-100:Pad-4x3" H 5350 3150 50  0001 C CNN
F 3 "" H 5350 3150 50  0001 C CNN
	1    5350 3150
	0    -1   -1   0   
$EndComp
$Comp
L Bridge-Pad-L X42
U 1 1 5AA06FB1
P 6300 3100
F 0 "X42" V 6250 3300 50  0000 C CNN
F 1 "Bridge-Pad-L" H 6300 3000 50  0001 C CNN
F 2 "jts-100:Pad-4x3" H 6300 3100 50  0001 C CNN
F 3 "" H 6300 3100 50  0001 C CNN
	1    6300 3100
	0    1    1    0   
$EndComp
$Comp
L Bridge-Pad-R X43
U 1 1 5AA06FB8
P 6300 3150
F 0 "X43" V 6250 2950 50  0000 C CNN
F 1 "Bridge-Pad-R" H 6300 3050 50  0001 C CNN
F 2 "jts-100:Pad-4x3" H 6300 3150 50  0001 C CNN
F 3 "" H 6300 3150 50  0001 C CNN
	1    6300 3150
	0    -1   -1   0   
$EndComp
$Comp
L Bridge-Pad-L X33
U 1 1 5AA0755F
P 5350 3900
F 0 "X33" V 5300 4100 50  0000 C CNN
F 1 "Bridge-Pad-L" H 5350 3800 50  0001 C CNN
F 2 "jts-100:Pad-4x3" H 5350 3900 50  0001 C CNN
F 3 "" H 5350 3900 50  0001 C CNN
	1    5350 3900
	0    1    1    0   
$EndComp
$Comp
L Bridge-Pad-R X34
U 1 1 5AA07566
P 5350 3950
F 0 "X34" V 5300 3750 50  0000 C CNN
F 1 "Bridge-Pad-R" H 5350 3850 50  0001 C CNN
F 2 "jts-100:Pad-4x3" H 5350 3950 50  0001 C CNN
F 3 "" H 5350 3950 50  0001 C CNN
	1    5350 3950
	0    -1   -1   0   
$EndComp
$Comp
L Bridge-Pad-L X44
U 1 1 5AA07617
P 6300 3900
F 0 "X44" V 6250 4100 50  0000 C CNN
F 1 "Bridge-Pad-L" H 6300 3800 50  0001 C CNN
F 2 "jts-100:Pad-4x3" H 6300 3900 50  0001 C CNN
F 3 "" H 6300 3900 50  0001 C CNN
	1    6300 3900
	0    1    1    0   
$EndComp
$Comp
L Bridge-Pad-R X45
U 1 1 5AA0761E
P 6300 3950
F 0 "X45" V 6250 3750 50  0000 C CNN
F 1 "Bridge-Pad-R" H 6300 3850 50  0001 C CNN
F 2 "jts-100:Pad-4x3" H 6300 3950 50  0001 C CNN
F 3 "" H 6300 3950 50  0001 C CNN
	1    6300 3950
	0    -1   -1   0   
$EndComp
$Comp
L Bridge-Pad-L X39
U 1 1 5AA080F1
P 5350 6400
F 0 "X39" V 5300 6600 50  0000 C CNN
F 1 "Bridge-Pad-L" H 5350 6300 50  0001 C CNN
F 2 "jts-100:Pad-4x3" H 5350 6400 50  0001 C CNN
F 3 "" H 5350 6400 50  0001 C CNN
	1    5350 6400
	0    1    1    0   
$EndComp
$Comp
L Bridge-Pad-R X28
U 1 1 5AA080F8
P 5350 1100
F 0 "X28" V 5300 900 50  0000 C CNN
F 1 "Bridge-Pad-R" H 5350 1000 50  0001 C CNN
F 2 "jts-100:Pad-4x3" H 5350 1100 50  0001 C CNN
F 3 "" H 5350 1100 50  0001 C CNN
	1    5350 1100
	0    -1   -1   0   
$EndComp
$Comp
L Bridge-Pad-L X37
U 1 1 5AA190BB
P 5350 5650
F 0 "X37" V 5300 5850 50  0000 C CNN
F 1 "Bridge-Pad-L" H 5350 5550 50  0001 C CNN
F 2 "jts-100:Pad-4x3" H 5350 5650 50  0001 C CNN
F 3 "" H 5350 5650 50  0001 C CNN
	1    5350 5650
	0    1    1    0   
$EndComp
$Comp
L Bridge-Pad-R X38
U 1 1 5AA19166
P 5350 5700
F 0 "X38" V 5300 5500 50  0000 C CNN
F 1 "Bridge-Pad-R" H 5350 5600 50  0001 C CNN
F 2 "jts-100:Pad-4x3" H 5350 5700 50  0001 C CNN
F 3 "" H 5350 5700 50  0001 C CNN
	1    5350 5700
	0    -1   -1   0   
$EndComp
$Comp
L Bridge-Pad-L X35
U 1 1 5AA19460
P 5350 4850
F 0 "X35" V 5300 5050 50  0000 C CNN
F 1 "Bridge-Pad-L" H 5350 4750 50  0001 C CNN
F 2 "jts-100:Pad-4x3" H 5350 4850 50  0001 C CNN
F 3 "" H 5350 4850 50  0001 C CNN
	1    5350 4850
	0    1    1    0   
$EndComp
$Comp
L Bridge-Pad-R X36
U 1 1 5AA19466
P 5350 4900
F 0 "X36" V 5300 4700 50  0000 C CNN
F 1 "Bridge-Pad-R" H 5350 4800 50  0001 C CNN
F 2 "jts-100:Pad-4x3" H 5350 4900 50  0001 C CNN
F 3 "" H 5350 4900 50  0001 C CNN
	1    5350 4900
	0    -1   -1   0   
$EndComp
$Comp
L GND #PWR101
U 1 1 5AA1C1C0
P 4350 1650
F 0 "#PWR101" H 4350 1400 50  0001 C CNN
F 1 "GND" H 4350 1500 50  0000 C CNN
F 2 "" H 4350 1650 50  0001 C CNN
F 3 "" H 4350 1650 50  0001 C CNN
	1    4350 1650
	1    0    0    -1  
$EndComp
$Comp
L R R3
U 1 1 5AA1DF68
P 5750 2000
F 0 "R3" V 5830 2000 50  0000 C CNN
F 1 "220R" V 5750 2000 50  0000 C CNN
F 2 "standardSMD:R1608m" V 5680 2000 50  0001 C CNN
F 3 "" H 5750 2000 50  0001 C CNN
	1    5750 2000
	-1   0    0    1   
$EndComp
$Comp
L R R2
U 1 1 5AA2142F
P 5650 1550
F 0 "R2" V 5730 1550 50  0000 C CNN
F 1 "220R" V 5650 1550 50  0000 C CNN
F 2 "standardSMD:R1608m" V 5580 1550 50  0001 C CNN
F 3 "" H 5650 1550 50  0001 C CNN
	1    5650 1550
	1    0    0    -1  
$EndComp
$Comp
L D_TVS_x2_ACom_KKA D1
U 1 1 5AA2454E
P 6000 1750
F 0 "D1" H 6050 1650 50  0000 C CNN
F 1 "SP3222" H 6000 1850 50  0000 C CNN
F 2 "standardSMD:SOD-883" H 6000 1750 50  0001 C CNN
F 3 "" H 6000 1750 50  0001 C CNN
F 4 "Value" H 6000 1750 60  0001 C CNN "Fieldname"
	1    6000 1750
	0    -1   -1   0   
$EndComp
$Comp
L GND #PWR102
U 1 1 5AA2695D
P 6200 1750
F 0 "#PWR102" H 6200 1500 50  0001 C CNN
F 1 "GND" H 6200 1600 50  0000 C CNN
F 2 "" H 6200 1750 50  0001 C CNN
F 3 "" H 6200 1750 50  0001 C CNN
	1    6200 1750
	0    -1   -1   0   
$EndComp
Text Notes 5850 1400 0    60   ~ 0
ESD-Protection
Wire Wire Line
	3650 3550 3500 3550
Wire Wire Line
	3500 3550 3500 3650
Wire Wire Line
	2350 5350 3650 5350
Wire Wire Line
	3650 5250 3500 5250
Wire Wire Line
	7000 2050 7000 1950
Wire Wire Line
	3500 3650 2350 3650
Wire Wire Line
	3650 3650 3650 3700
Wire Wire Line
	3650 3700 6300 3700
Wire Wire Line
	2350 4550 3650 4550
Wire Wire Line
	3650 6050 3500 6050
Wire Wire Line
	3500 6050 3500 5750
Wire Wire Line
	3500 5750 4800 5750
Wire Wire Line
	4800 5750 4800 6150
Wire Wire Line
	4700 6150 5350 6150
Wire Wire Line
	6300 2400 6300 3000
Wire Wire Line
	6300 3250 6300 3800
Connection ~ 6300 3700
Wire Wire Line
	7000 4600 7000 4550
Wire Wire Line
	6300 4050 6300 4750
Wire Wire Line
	3650 2750 3500 2750
Wire Wire Line
	4850 2850 4750 2850
Wire Wire Line
	7000 2050 6300 2050
Wire Wire Line
	6300 2050 6300 2150
Wire Wire Line
	2350 1950 2700 1950
Wire Wire Line
	2700 1200 2700 2150
Wire Wire Line
	2700 2400 2700 3000
Connection ~ 2700 2850
Wire Wire Line
	2700 5000 2700 5550
Connection ~ 2700 5350
Wire Wire Line
	2700 3250 2700 3800
Connection ~ 2700 3650
Wire Wire Line
	2700 4050 2700 4750
Connection ~ 2700 4550
Wire Wire Line
	2700 5800 2700 6300
Wire Wire Line
	2350 6150 2700 6150
Connection ~ 2700 6150
Connection ~ 2700 1950
Wire Wire Line
	5350 4050 5350 4750
Wire Wire Line
	5350 3800 5350 3250
Wire Wire Line
	3650 1850 3500 1850
Wire Wire Line
	3500 1850 3500 1550
Wire Wire Line
	3500 1550 4650 1550
Wire Wire Line
	4550 1750 4650 1750
Wire Wire Line
	4550 1550 4550 2000
Connection ~ 4550 1550
Wire Wire Line
	4550 1850 4650 1850
Connection ~ 4550 1750
Wire Wire Line
	4650 1650 4550 1650
Connection ~ 4550 1650
Wire Wire Line
	3350 1950 3650 1950
Wire Wire Line
	3350 1350 5550 1350
Wire Wire Line
	5550 1350 5550 1550
Wire Wire Line
	5550 1550 5450 1550
Wire Wire Line
	3950 1100 3800 1100
Wire Wire Line
	4250 1100 4350 1100
Wire Wire Line
	4350 850  4350 1650
Connection ~ 4350 1550
Wire Wire Line
	4550 2000 5050 2000
Connection ~ 4550 1850
Wire Wire Line
	3500 6300 5350 6300
Wire Wire Line
	5350 1250 5350 1200
Wire Wire Line
	3800 850  3800 1350
Connection ~ 3800 1350
Wire Wire Line
	5350 5000 5350 5550
Wire Wire Line
	5350 4350 4850 4350
Wire Wire Line
	4850 4350 4850 4550
Wire Wire Line
	5350 6150 5350 5800
Connection ~ 4800 6150
Wire Wire Line
	5350 2200 6000 2200
Wire Wire Line
	6000 2200 6000 2050
Wire Wire Line
	5750 2200 5750 2150
Connection ~ 5750 2200
Wire Wire Line
	6000 1450 6000 1350
Wire Wire Line
	6000 1350 5650 1350
Wire Wire Line
	5650 1250 5650 1400
Wire Wire Line
	5650 1250 5350 1250
Connection ~ 5650 1350
$Comp
L C C1
U 1 1 5AA2BB53
P 4100 850
F 0 "C1" H 4125 950 50  0000 L CNN
F 1 "10n" H 4125 750 50  0000 L CNN
F 2 "standardSMD:C1608m" H 4138 700 50  0001 C CNN
F 3 "" H 4100 850 50  0001 C CNN
	1    4100 850 
	0    -1   -1   0   
$EndComp
Wire Wire Line
	3950 850  3800 850 
Connection ~ 3800 1100
Wire Wire Line
	4250 850  4350 850 
Connection ~ 4350 1100
$Comp
L R R1
U 1 1 5AA2CD88
P 3350 1650
F 0 "R1" V 3430 1650 50  0000 C CNN
F 1 "33R" V 3350 1650 50  0000 C CNN
F 2 "standardSMD:R1608m" V 3280 1650 50  0001 C CNN
F 3 "" H 3350 1650 50  0001 C CNN
	1    3350 1650
	-1   0    0    1   
$EndComp
Wire Wire Line
	3350 1500 3350 1350
Wire Wire Line
	3350 1800 3350 1950
Wire Wire Line
	5750 1850 5750 1750
Wire Wire Line
	5750 1750 5450 1750
Wire Wire Line
	5650 1700 5650 1850
Wire Wire Line
	5650 1850 5450 1850
Wire Wire Line
	3500 2750 3500 2500
Wire Wire Line
	3500 2500 5350 2500
Wire Wire Line
	5350 2500 5350 2450
Wire Wire Line
	2700 2850 2350 2850
Wire Wire Line
	3650 2850 3500 2850
Wire Wire Line
	3500 2850 3500 2950
Wire Wire Line
	3500 2950 5350 2950
Wire Wire Line
	4850 2950 4850 2850
Wire Wire Line
	3500 5250 3500 5100
Wire Wire Line
	3500 5100 6300 5100
Wire Wire Line
	6300 5100 6300 5000
$Comp
L Bridge-Pad-L X46
U 1 1 5AA0C533
P 6300 4850
F 0 "X46" V 6250 5050 50  0000 C CNN
F 1 "Bridge-Pad-L" H 6300 4750 50  0001 C CNN
F 2 "jts-100:Pad-4x3" H 6300 4850 50  0001 C CNN
F 3 "" H 6300 4850 50  0001 C CNN
	1    6300 4850
	0    1    1    0   
$EndComp
$Comp
L Bridge-Pad-R X47
U 1 1 5AA0C53A
P 6300 4900
F 0 "X47" V 6250 4700 50  0000 C CNN
F 1 "Bridge-Pad-R" H 6300 4800 50  0001 C CNN
F 2 "jts-100:Pad-4x3" H 6300 4900 50  0001 C CNN
F 3 "" H 6300 4900 50  0001 C CNN
	1    6300 4900
	0    -1   -1   0   
$EndComp
Connection ~ 5350 4350
Wire Wire Line
	5350 2950 5350 3000
Connection ~ 4850 2950
Wire Wire Line
	4850 4550 4700 4550
NoConn ~ 3650 4450
Wire Wire Line
	3500 6300 3500 6150
Wire Wire Line
	3500 6150 3650 6150
Text Label 5650 1250 0    50   ~ 0
SDA
Text Label 5350 2200 0    50   ~ 0
SCL
$Sheet
S 8100 1650 2400 500 
U 5AB237B6
F0 "Handle Proto Boards" 60
F1 "handle-proto-boards.sch" 60
$EndSheet
$EndSCHEMATC
