EESchema Schematic File Version 4
EELAYER 30 0
EELAYER END
$Descr A4 11693 8268
encoding utf-8
Sheet 2 9
Title "JTS-100"
Date "2018-02-26"
Rev "work in progress"
Comp "Team14 GesbR"
Comment1 "Open Source Hardware"
Comment2 "Creative Commons 4.0 (CC-BY)"
Comment3 ""
Comment4 ""
$EndDescr
Text HLabel 1000 650  0    60   Input ~ 0
VIN
$Comp
L power:GND #PWR01
U 1 1 5A933D59
P 1450 7550
F 0 "#PWR01" H 1450 7300 50  0001 C CNN
F 1 "GND" H 1450 7400 50  0000 C CNN
F 2 "" H 1450 7550 50  0001 C CNN
F 3 "" H 1450 7550 50  0001 C CNN
	1    1450 7550
	1    0    0    -1  
$EndComp
Text HLabel 1100 2650 0    60   Input ~ 0
EN-Right
Text HLabel 1000 1450 0    60   Input ~ 0
EN-Left
$Comp
L team14-jts-100-rescue:ACS711-EX U301
U 1 1 5A9374E6
P 1950 6650
AR Path="/5A9374E6" Ref="U301"  Part="1" 
AR Path="/5A907B12/5A9374E6" Ref="U301"  Part="1" 
F 0 "U301" H 1700 7050 60  0000 C CNN
F 1 "ACS711EEXLT-15AB-T" H 2150 6950 60  0000 C CNN
F 2 "" H 550 6700 60  0001 C CNN
F 3 "" H 550 6700 60  0001 C CNN
	1    1950 6650
	1    0    0    -1  
$EndComp
Wire Wire Line
	2350 6900 2500 6900
Wire Wire Line
	2500 6900 2500 7300
Text HLabel 2950 6800 2    60   Input ~ 0
3V3
Wire Wire Line
	2350 6800 2950 6800
$Comp
L team14-jts-100-rescue:C C301
U 1 1 5A937B9D
P 2800 7100
F 0 "C301" H 2825 7200 50  0000 L CNN
F 1 "100n" H 2825 7000 50  0000 L CNN
F 2 "standardSMD:C1608m" H 2838 6950 50  0001 C CNN
F 3 "" H 2800 7100 50  0001 C CNN
	1    2800 7100
	1    0    0    -1  
$EndComp
Wire Wire Line
	2800 7300 2800 7250
Wire Wire Line
	2800 6950 2800 6800
Connection ~ 2800 6800
Wire Wire Line
	1450 6550 1500 6550
Wire Wire Line
	1450 6650 1500 6650
Connection ~ 1450 6550
Wire Wire Line
	1450 6900 1500 6900
Wire Wire Line
	1450 6800 1450 7550
Wire Wire Line
	1500 6800 1450 6800
Connection ~ 1450 6900
NoConn ~ 2350 6650
$Comp
L team14-jts-100-rescue:R R302
U 1 1 5A93CAD4
P 3500 1000
F 0 "R302" V 3400 1000 50  0000 C CNN
F 1 "15k/250mW" V 3600 950 50  0000 C CNN
F 2 "standardSMD:R3216m" V 3430 1000 50  0001 C CNN
F 3 "" H 3500 1000 50  0001 C CNN
	1    3500 1000
	1    0    0    1   
$EndComp
$Comp
L team14-jts-100-rescue:R R303
U 1 1 5A93CD68
P 3500 1450
F 0 "R303" V 3400 1450 50  0000 C CNN
F 1 "1k" V 3500 1450 50  0000 C CNN
F 2 "standardSMD:R1608m" V 3430 1450 50  0001 C CNN
F 3 "" H 3500 1450 50  0001 C CNN
	1    3500 1450
	1    0    0    1   
$EndComp
$Comp
L team14-jts-100-rescue:C C303
U 1 1 5A93D07D
P 3750 1450
F 0 "C303" H 3775 1550 50  0000 L CNN
F 1 "100n" H 3775 1350 50  0000 L CNN
F 2 "standardSMD:C1608m" H 3788 1300 50  0001 C CNN
F 3 "" H 3750 1450 50  0001 C CNN
	1    3750 1450
	1    0    0    -1  
$EndComp
Wire Wire Line
	3500 650  3500 850 
Wire Wire Line
	3500 1150 3500 1300
Wire Wire Line
	3500 1200 5350 1200
Wire Wire Line
	3750 1200 3750 1300
Connection ~ 3500 1200
Wire Wire Line
	3500 1700 3500 1600
Wire Wire Line
	3750 1700 3750 1600
Connection ~ 3750 1200
$Comp
L power:GND #PWR02
U 1 1 5A963BD3
P 2500 7300
F 0 "#PWR02" H 2500 7050 50  0001 C CNN
F 1 "GND" H 2500 7150 50  0000 C CNN
F 2 "" H 2500 7300 50  0001 C CNN
F 3 "" H 2500 7300 50  0001 C CNN
	1    2500 7300
	1    0    0    -1  
$EndComp
$Comp
L power:GND #PWR03
U 1 1 5A963C35
P 2800 7300
F 0 "#PWR03" H 2800 7050 50  0001 C CNN
F 1 "GND" H 2800 7150 50  0000 C CNN
F 2 "" H 2800 7300 50  0001 C CNN
F 3 "" H 2800 7300 50  0001 C CNN
	1    2800 7300
	1    0    0    -1  
$EndComp
$Comp
L power:GND #PWR04
U 1 1 5A964407
P 3500 1700
F 0 "#PWR04" H 3500 1450 50  0001 C CNN
F 1 "GND" H 3500 1550 50  0000 C CNN
F 2 "" H 3500 1700 50  0001 C CNN
F 3 "" H 3500 1700 50  0001 C CNN
	1    3500 1700
	1    0    0    -1  
$EndComp
$Comp
L power:GND #PWR05
U 1 1 5A964469
P 3750 1700
F 0 "#PWR05" H 3750 1450 50  0001 C CNN
F 1 "GND" H 3750 1550 50  0000 C CNN
F 2 "" H 3750 1700 50  0001 C CNN
F 3 "" H 3750 1700 50  0001 C CNN
	1    3750 1700
	1    0    0    -1  
$EndComp
Text Notes 3900 6650 0    60   ~ 0
1.65V +90mV/A
$Comp
L team14-jts-100-rescue:R R301
U 1 1 5A984754
P 2750 6550
F 0 "R301" V 2650 6550 50  0000 C CNN
F 1 "1k" V 2750 6550 50  0000 C CNN
F 2 "standardSMD:R1608m" V 2680 6550 50  0001 C CNN
F 3 "" H 2750 6550 50  0001 C CNN
	1    2750 6550
	0    -1   1    0   
$EndComp
Wire Wire Line
	2350 6550 2600 6550
Wire Wire Line
	2900 6550 5000 6550
$Comp
L team14-jts-100-rescue:C C302
U 1 1 5A99168E
P 3350 6800
F 0 "C302" H 3375 6900 50  0000 L CNN
F 1 "10n" H 3375 6700 50  0000 L CNN
F 2 "standardSMD:C1608m" H 3388 6650 50  0001 C CNN
F 3 "" H 3350 6800 50  0001 C CNN
	1    3350 6800
	1    0    0    -1  
$EndComp
Wire Wire Line
	3350 7050 3350 6950
Wire Wire Line
	3350 6550 3350 6650
$Comp
L power:GND #PWR06
U 1 1 5A991696
P 3350 7050
F 0 "#PWR06" H 3350 6800 50  0001 C CNN
F 1 "GND" H 3350 6900 50  0000 C CNN
F 2 "" H 3350 7050 50  0001 C CNN
F 3 "" H 3350 7050 50  0001 C CNN
	1    3350 7050
	1    0    0    -1  
$EndComp
Text Notes 3400 7000 0    40   ~ 0
close to MCU
Connection ~ 3350 6550
Wire Wire Line
	1000 650  3500 650 
Wire Wire Line
	1450 5850 1450 6650
Wire Wire Line
	2800 650  2800 2650
Connection ~ 2800 650 
$Sheet
S 1500 1300 1050 500 
U 5AA5505A
F0 "Heater Driver Left" 60
F1 "heater-driver.sch" 60
F2 "Enable" I L 1500 1450 60 
F3 "Out" O R 2550 1650 60 
F4 "VIN" I R 2550 1450 60 
$EndSheet
Wire Wire Line
	2800 1450 2550 1450
Wire Wire Line
	1000 1450 1500 1450
$Sheet
S 1500 2500 1050 500 
U 5AA58D84
F0 "Heater Driver Right" 60
F1 "heater-driver.sch" 60
F2 "Enable" I L 1500 2650 60 
F3 "Out" O R 2550 2850 60 
F4 "VIN" I R 2550 2650 60 
$EndSheet
Wire Wire Line
	2800 2650 2550 2650
Connection ~ 2800 1450
Wire Wire Line
	2550 1650 2700 1650
Wire Wire Line
	2700 1650 2700 2000
Wire Wire Line
	2700 2000 1200 2000
Text HLabel 1200 2000 0    60   Output ~ 0
HeaterLeft+
Wire Wire Line
	1100 2650 1500 2650
Text HLabel 1200 3200 0    60   Output ~ 0
HeaterRight+
Wire Wire Line
	1200 3200 2700 3200
Wire Wire Line
	2700 3200 2700 2850
Wire Wire Line
	2700 2850 2550 2850
Text HLabel 1050 5850 0    60   Input ~ 0
Heater-
Wire Wire Line
	1050 5850 1450 5850
Text Label 3850 6550 0    60   ~ 0
CurrentMonitor
Text Label 3900 1200 0    60   ~ 0
VIN-Monitor
$Comp
L team14-jts-100-rescue:R R205
U 1 1 5AB3FB71
P 2600 3700
F 0 "R205" V 2680 3700 50  0000 C CNN
F 1 "10k/250mW" V 2500 3700 50  0000 C CNN
F 2 "standardSMD:R3216m" V 2530 3700 50  0001 C CNN
F 3 "" H 2600 3700 50  0001 C CNN
	1    2600 3700
	0    -1   -1   0   
$EndComp
Wire Wire Line
	3250 3700 3250 4300
Connection ~ 3250 3700
Wire Wire Line
	2950 4000 2950 4300
Wire Wire Line
	2300 4200 2950 4200
Connection ~ 2950 4200
Wire Wire Line
	1450 3700 2450 3700
$Comp
L team14-jts-100-rescue:C C207
U 1 1 5AB3FB7E
P 2300 3900
F 0 "C207" H 2325 4000 50  0000 L CNN
F 1 "100n/100V" H 2325 3800 50  0000 L CNN
F 2 "standardSMD:C1608m" H 2338 3750 50  0001 C CNN
F 3 "" H 2300 3900 50  0001 C CNN
	1    2300 3900
	-1   0    0    -1  
$EndComp
Wire Wire Line
	2300 4200 2300 4050
Wire Wire Line
	2300 3500 2300 3750
Connection ~ 2300 3700
Text HLabel 1450 3500 0    60   Input ~ 0
3V3
$Comp
L team14-jts-100-rescue:R R203
U 1 1 5AB3FB89
P 2050 3500
F 0 "R203" V 1950 3500 50  0000 C CNN
F 1 "1M" V 2050 3500 50  0000 C CNN
F 2 "standardSMD:R1608m" V 1980 3500 50  0001 C CNN
F 3 "" H 2050 3500 50  0001 C CNN
	1    2050 3500
	0    -1   1    0   
$EndComp
Text Label 1650 3700 0    60   ~ 0
TC+
$Comp
L power:GND #PWR07
U 1 1 5AB3FB92
P 2950 4300
F 0 "#PWR07" H 2950 4050 50  0001 C CNN
F 1 "GND" H 2950 4150 50  0000 C CNN
F 2 "" H 2950 4300 50  0001 C CNN
F 3 "" H 2950 4300 50  0001 C CNN
	1    2950 4300
	1    0    0    -1  
$EndComp
$Comp
L team14-jts-100-rescue:C C209
U 1 1 5AB3FB98
P 3550 4000
F 0 "C209" H 3575 4100 50  0000 L CNN
F 1 "1n" H 3575 3900 50  0000 L CNN
F 2 "standardSMD:C1608m" H 3588 3850 50  0001 C CNN
F 3 "" H 3550 4000 50  0001 C CNN
	1    3550 4000
	1    0    0    -1  
$EndComp
$Comp
L power:GND #PWR08
U 1 1 5AB3FB9F
P 3550 4300
F 0 "#PWR08" H 3550 4050 50  0001 C CNN
F 1 "GND" H 3550 4150 50  0000 C CNN
F 2 "" H 3550 4300 50  0001 C CNN
F 3 "" H 3550 4300 50  0001 C CNN
	1    3550 4300
	1    0    0    -1  
$EndComp
Wire Wire Line
	3550 4300 3550 4150
Wire Wire Line
	3550 3700 3550 3850
Connection ~ 3550 3700
$Comp
L team14-jts-100-rescue:BAV99 D201
U 1 1 5AB3FBA8
P 3100 4000
F 0 "D201" H 3200 4150 40  0000 C CNN
F 1 "BAV199" H 3150 3650 40  0000 C CNN
F 2 "standardSMD:SOT23" V 3100 3850 60  0001 C CNN
F 3 "" V 3100 3850 60  0000 C CNN
	1    3100 4000
	1    0    0    -1  
$EndComp
Wire Wire Line
	3100 4000 2950 4000
Wire Wire Line
	3250 4300 3100 4300
Wire Wire Line
	2750 3700 3850 3700
Connection ~ 3100 3700
$Comp
L team14-jts-100-rescue:LTC2444 U202
U 1 1 5AB40F78
P 7600 3450
F 0 "U202" H 6300 4250 60  0000 C CNN
F 1 "LTC2444" H 6450 4150 60  0000 C CNN
F 2 "Housings_DFN_QFN:QFN-38-1EP_5x7mm_Pitch0.5mm" H 5750 5650 60  0001 C CNN
F 3 "" H 5750 5650 60  0001 C CNN
	1    7600 3450
	1    0    0    -1  
$EndComp
$Comp
L team14-jts-100-rescue:L L201
U 1 1 5AB40F80
P 9700 3800
F 0 "L201" V 9650 3800 50  0000 C CNN
F 1 "600R" V 9775 3800 50  0000 C CNN
F 2 "" H 9700 3800 50  0001 C CNN
F 3 "" H 9700 3800 50  0001 C CNN
	1    9700 3800
	0    -1   -1   0   
$EndComp
Wire Wire Line
	9850 3800 10050 3800
$Comp
L team14-jts-100-rescue:C C211
U 1 1 5AB40F88
P 9250 4100
F 0 "C211" H 9275 4200 50  0000 L CNN
F 1 "10u/16V" H 9275 4000 50  0000 L CNN
F 2 "standardSMD:C1608m" H 9288 3950 50  0001 C CNN
F 3 "" H 9250 4100 50  0001 C CNN
	1    9250 4100
	1    0    0    -1  
$EndComp
$Comp
L power:GND #PWR09
U 1 1 5AB40F8F
P 9250 4450
F 0 "#PWR09" H 9250 4200 50  0001 C CNN
F 1 "GND" H 9250 4300 50  0000 C CNN
F 2 "" H 9250 4450 50  0001 C CNN
F 3 "" H 9250 4450 50  0001 C CNN
	1    9250 4450
	1    0    0    -1  
$EndComp
Wire Wire Line
	9250 4250 9250 4450
Wire Wire Line
	6600 4350 9250 4350
Wire Wire Line
	6600 4350 6600 4250
Connection ~ 9250 4350
Wire Wire Line
	6700 4250 6700 4350
Connection ~ 6700 4350
Wire Wire Line
	6800 4250 6800 4350
Connection ~ 6800 4350
Wire Wire Line
	6900 4250 6900 4350
Connection ~ 6900 4350
Wire Wire Line
	7000 4250 7000 4350
Connection ~ 7000 4350
Wire Wire Line
	7100 4250 7100 4350
Connection ~ 7100 4350
Wire Wire Line
	7200 4250 7200 4350
Connection ~ 7200 4350
Wire Wire Line
	7300 4250 7300 4350
Connection ~ 7300 4350
Wire Wire Line
	7400 4250 7400 4350
Connection ~ 7400 4350
Wire Wire Line
	9000 3800 9550 3800
Wire Wire Line
	9250 3950 9250 3800
Connection ~ 9250 3800
Wire Wire Line
	2200 3500 2300 3500
Wire Wire Line
	1450 3500 1900 3500
Text HLabel 1450 3700 0    60   Input ~ 0
TC_Left
$Comp
L team14-jts-100-rescue:R R206
U 1 1 5AB42A5B
P 2600 4700
F 0 "R206" V 2680 4700 50  0000 C CNN
F 1 "10k/250mW" V 2500 4700 50  0000 C CNN
F 2 "standardSMD:R3216m" V 2530 4700 50  0001 C CNN
F 3 "" H 2600 4700 50  0001 C CNN
	1    2600 4700
	0    -1   -1   0   
$EndComp
Wire Wire Line
	3250 4700 3250 5300
Connection ~ 3250 4700
Wire Wire Line
	2950 5000 2950 5300
Wire Wire Line
	2300 5200 2950 5200
Connection ~ 2950 5200
Wire Wire Line
	1450 4700 2450 4700
$Comp
L team14-jts-100-rescue:C C208
U 1 1 5AB42A67
P 2300 4900
F 0 "C208" H 2325 5000 50  0000 L CNN
F 1 "100n/100V" H 2325 4800 50  0000 L CNN
F 2 "standardSMD:C1608m" H 2338 4750 50  0001 C CNN
F 3 "" H 2300 4900 50  0001 C CNN
	1    2300 4900
	-1   0    0    -1  
$EndComp
Wire Wire Line
	2300 5200 2300 5050
Wire Wire Line
	2300 4500 2300 4750
Connection ~ 2300 4700
Text HLabel 1450 4500 0    60   Input ~ 0
3V3
$Comp
L team14-jts-100-rescue:R R204
U 1 1 5AB42A71
P 2050 4500
F 0 "R204" V 1950 4500 50  0000 C CNN
F 1 "1M" V 2050 4500 50  0000 C CNN
F 2 "standardSMD:R1608m" V 1980 4500 50  0001 C CNN
F 3 "" H 2050 4500 50  0001 C CNN
	1    2050 4500
	0    -1   1    0   
$EndComp
Text Label 1650 4700 0    60   ~ 0
TC+
$Comp
L power:GND #PWR010
U 1 1 5AB42A78
P 2950 5300
F 0 "#PWR010" H 2950 5050 50  0001 C CNN
F 1 "GND" H 2950 5150 50  0000 C CNN
F 2 "" H 2950 5300 50  0001 C CNN
F 3 "" H 2950 5300 50  0001 C CNN
	1    2950 5300
	1    0    0    -1  
$EndComp
$Comp
L team14-jts-100-rescue:C C210
U 1 1 5AB42A7E
P 3550 5000
F 0 "C210" H 3575 5100 50  0000 L CNN
F 1 "1n" H 3575 4900 50  0000 L CNN
F 2 "standardSMD:C1608m" H 3588 4850 50  0001 C CNN
F 3 "" H 3550 5000 50  0001 C CNN
	1    3550 5000
	1    0    0    -1  
$EndComp
$Comp
L power:GND #PWR011
U 1 1 5AB42A84
P 3550 5300
F 0 "#PWR011" H 3550 5050 50  0001 C CNN
F 1 "GND" H 3550 5150 50  0000 C CNN
F 2 "" H 3550 5300 50  0001 C CNN
F 3 "" H 3550 5300 50  0001 C CNN
	1    3550 5300
	1    0    0    -1  
$EndComp
Wire Wire Line
	3550 5300 3550 5150
Wire Wire Line
	3550 4700 3550 4850
Connection ~ 3550 4700
$Comp
L team14-jts-100-rescue:BAV99 D202
U 1 1 5AB42A8D
P 3100 5000
F 0 "D202" H 3200 5150 40  0000 C CNN
F 1 "BAV199" H 3150 4650 40  0000 C CNN
F 2 "standardSMD:SOT23" V 3100 4850 60  0001 C CNN
F 3 "" V 3100 4850 60  0000 C CNN
	1    3100 5000
	1    0    0    -1  
$EndComp
Wire Wire Line
	3100 5000 2950 5000
Wire Wire Line
	3250 5300 3100 5300
Wire Wire Line
	2750 4700 3850 4700
Connection ~ 3100 4700
Wire Wire Line
	2200 4500 2300 4500
Wire Wire Line
	1450 4500 1900 4500
Text HLabel 1450 4700 0    60   Input ~ 0
TC_Right
Text HLabel 10050 3800 2    60   Input ~ 0
5V
$Bitmap
Pos 6750 1700
Scale 1.000000
Data
89 50 4E 47 0D 0A 1A 0A 00 00 00 0D 49 48 44 52 00 00 01 9C 00 00 01 76 08 02 00 00 00 D5 FC B9 
8A 00 00 00 03 73 42 49 54 08 08 08 DB E1 4F E0 00 00 20 00 49 44 41 54 78 9C EC 9D 77 5C 13 49 
1B C7 27 F4 2E 48 47 04 04 05 94 62 17 04 51 14 05 B1 F7 5E CF 72 96 2B 7A A7 67 43 C5 B3 17 EC 
F5 94 53 B1 DE D9 BB 08 4A B1 21 16 40 41 50 50 90 26 BD 48 2F 49 DE 3F 06 E7 F6 4D 42 08 B0 21 
64 79 BE 1F FE 98 9D 9D CC CC 0E 9B 5F 9E 69 CF B0 B8 5C 2E 02 00 00 60 0A 32 92 AE 00 00 00 00 
9D 80 A8 01 00 C0 28 40 D4 00 00 60 14 20 6A 00 00 30 0A 10 35 00 00 18 05 88 1A 00 00 8C 02 44 
0D 00 00 46 01 A2 06 00 00 A3 00 51 03 00 80 51 80 A8 01 00 C0 28 40 D4 00 00 60 14 20 6A 00 00 
30 0A E6 88 DA 96 2D 5B B6 6C D9 22 E9 5A 00 00 20 61 E4 24 5D 01 DA 08 0D 0D 95 91 61 8E 46 03 
00 D0 30 98 A3 02 E0 43 09 00 00 C4 30 51 63 B1 58 92 AE 05 00 00 12 86 39 A2 86 10 02 51 03 00 
80 39 A2 06 DD 4F 00 00 10 93 44 0D 81 A5 06 00 00 93 44 0D 2C 35 00 00 10 C3 44 0D 2C 35 00 00 
98 23 6A 08 BA 9F 00 00 30 49 D4 A0 FB 09 00 00 62 92 A8 21 B0 D4 00 00 60 92 A8 81 A5 06 00 00 
12 F7 DE CF D8 D8 58 36 9B 6D 6E 6E AE A2 A2 42 8D E7 70 38 EF DF BF 47 08 59 5A 5A 2A 28 28 D0 
55 1C 58 6A 00 00 88 D7 52 5B B4 68 91 9D 9D DD A5 4B 97 78 E2 63 62 62 EC EC EC 5C 5C 5C 68 DC 
82 0E B3 9F 00 00 20 71 8B 9A A7 A7 27 42 28 38 38 98 27 3E 28 28 08 21 E4 E1 E1 21 27 47 9B A9 
08 DD 4F 00 00 90 B8 45 6D C8 90 21 48 90 A8 E1 18 7C 97 46 C0 52 03 00 40 BC A2 66 63 63 63 6C 
6C 9C 94 94 94 94 94 44 22 39 1C 4E 48 48 08 8B C5 1A 3C 78 30 8D 65 81 A5 06 00 00 12 B7 A8 B1 
58 2C 6C 8E 85 84 84 90 C8 B7 6F DF E6 E5 E5 F5 EC D9 53 4F 4F 8F F6 E2 E8 CD 10 00 00 A9 43 EC 
4B 3A F8 87 D5 F0 80 1A ED 7D 4F B0 D4 00 00 40 4D 20 6A 6E 6E 6E F2 F2 F2 4D 23 6A 60 A9 01 00 
20 76 51 53 57 57 EF DB B7 2F 19 56 63 B3 D9 A1 A1 A1 BA BA BA DD BB 77 A7 BD 2C 10 35 00 00 9A 
62 47 01 EE 81 E2 61 B5 88 88 88 C2 C2 42 4F 4F 4F EA 0A B5 87 0F 1F 0E 1F 3E BC 47 8F 1E F3 E6 
CD 4B 49 49 A1 7E 56 C8 2D 1E A0 FB 09 00 00 6A 1A 51 A3 2E EC E0 EF 7B 3E 78 F0 C0 DD DD 3D 23 
23 C3 CE CE EE EE DD BB DD BB 77 CF C9 C9 A9 F3 96 40 C0 52 03 00 00 71 C5 0F 87 C3 31 35 35 35 
33 33 E3 72 B9 D8 46 CB CB CB 23 77 7B F7 EE 6D 6B 6B 5B 5D 5D CD E5 72 BF 7C F9 22 23 23 B3 6E 
DD BA 3A 6F F1 D3 BB 77 EF 09 13 26 88 F7 49 00 00 68 F6 34 85 A5 86 17 76 24 25 25 25 24 24 3C 
7E FC D8 C9 C9 49 4B 4B 0B DF CA CD CD 7D F1 E2 C5 FC F9 F3 65 65 65 11 42 26 26 26 96 96 96 91 
91 91 C2 6F D5 A6 CE D8 52 AB AC AC 64 D5 85 B7 B7 77 13 3C 38 00 00 4D 4F 13 1D 66 EC E9 E9 79 
E4 C8 11 1F 1F 9F E2 E2 62 6A DF 33 3A 3A 9A C3 E1 B4 6F DF 9E C4 84 87 87 63 6D 12 72 AB 36 F0 
5D 05 05 05 2E 8C AF 01 40 4B A5 89 44 6D C0 80 01 0A 0A 0A 47 8F 1E 45 FF 3F A0 56 50 50 80 10 
52 55 55 25 31 EA EA EA 75 DE 12 08 08 19 00 00 A8 C9 FC A9 A9 AA AA BA BA BA 22 84 8C 8C 8C EC 
ED ED 49 7C 55 55 15 42 48 E0 B6 76 21 B7 6A 03 26 0A 00 00 68 22 4B 0D 21 E4 EF EF CF 1F A9 A6 
A6 C6 13 73 EB D6 2D 79 79 F9 C1 83 07 0B B9 25 30 7F B0 D4 00 00 40 12 F7 7C 6B 6C 6C 8C 10 4A 
4F 4F 27 31 0B 17 2E 3C 7E FC B8 F0 5B B5 01 96 1A 00 00 12 16 B5 4E 9D 3A 69 69 69 DD BD 7B 17 
5F 26 27 27 A7 A5 A5 E1 C9 01 21 B7 04 02 96 1A 00 00 A8 29 BB 9F 02 91 91 91 99 30 61 82 AF AF 
6F DF BE 7D ED EC EC F6 EC D9 83 10 9A 3A 75 AA F0 5B 02 E1 C2 DE 4F 00 00 24 2E 6A 08 A1 ED DB 
B7 27 26 26 CE 9E 3D 1B 21 A4 A0 A0 E0 EB EB 4B 66 12 84 DC 12 08 88 1A 00 00 92 17 B5 56 AD 5A 
F9 FB FB 7F FA F4 29 27 27 C7 DE DE 5E 59 59 59 94 5B FC 40 F7 13 00 00 D4 1C 44 0D 63 61 61 61 
61 61 51 DF 5B 3C 80 A5 06 00 00 9C FB 09 00 00 A3 60 94 A8 81 A5 06 00 00 73 44 0D 41 F7 13 00 
00 26 89 1A 74 3F 01 00 40 4C 12 35 04 96 1A 00 00 4C 12 35 B0 D4 00 00 40 4C 12 35 04 96 1A 00 
00 4C 12 35 98 FD 04 00 00 31 4C D4 24 5D 05 00 00 24 0F 73 44 0D 41 F7 13 00 00 26 89 1A 58 6A 
00 00 20 26 89 1A 02 4B 0D 00 00 26 89 1A 58 6A 00 00 20 86 89 1A 58 6A 00 00 30 47 D4 10 74 3F 
01 00 60 92 A8 41 F7 13 00 00 C4 24 51 43 60 A9 01 00 C0 24 51 03 4B 0D 00 00 C4 24 51 43 60 A9 
01 00 C0 24 51 83 D9 4F 00 00 10 C3 44 4D D2 55 00 00 40 F2 30 47 D4 10 74 3F 01 00 60 92 A8 81 
A5 06 00 00 62 92 A8 21 B0 D4 00 00 60 92 A8 81 A5 06 00 00 62 98 A8 81 A5 06 00 00 73 44 0D 41 
F7 13 00 00 26 89 1A 74 3F 01 00 40 4C 12 35 04 96 1A 00 00 4C 12 35 B0 D4 00 00 40 4C 12 35 04 
96 1A 00 00 4C 12 35 98 FD 04 00 00 31 4C D4 24 5D 05 00 00 24 0F 73 44 0D 41 F7 13 00 00 26 89 
1A 58 6A 00 00 20 26 89 1A 02 4B 0D 00 00 26 89 1A 4C 14 00 00 80 18 26 6A 92 AE 02 00 00 92 87 
39 A2 86 A0 FB 09 00 00 93 44 0D 2C 35 00 00 10 93 44 0D 81 A5 06 00 00 93 44 0D 2C 35 00 00 10 
93 44 0D 81 A5 06 00 00 93 44 0D 96 74 00 00 80 18 26 6A 92 AE 02 00 00 92 87 39 A2 86 A0 FB 09 
00 00 93 44 0D 2C 35 00 00 10 93 44 0D 81 A5 06 00 00 93 44 0D 26 0A 00 00 40 0C 13 35 49 57 01 
00 00 C9 C3 1C 51 43 D0 FD 04 00 80 49 A2 06 96 1A 00 00 88 49 A2 86 C0 52 03 00 80 49 A2 06 96 
1A 00 00 88 49 A2 86 C0 52 03 00 80 49 A2 06 4B 3A 00 00 40 0C 13 35 49 57 01 00 00 C9 C3 1C 51 
43 D0 FD 04 00 80 49 A2 06 96 1A 00 00 88 49 A2 86 C0 52 03 00 80 49 A2 06 96 1A 00 00 88 61 A2 
06 96 1A 00 00 CC 11 35 00 00 00 C4 24 51 03 4B 0D 00 00 C4 24 51 43 30 51 00 00 00 93 44 0D 26 
0A 00 00 40 0C 13 35 B0 D4 00 00 60 8E A8 01 00 00 20 26 89 1A 58 6A 00 00 20 26 89 1A 00 00 00 
62 92 A8 81 A5 06 00 00 62 92 A8 21 58 D2 01 00 00 93 44 0D 96 74 00 00 80 18 26 6A 60 A9 01 00 
C0 1C 51 03 00 00 40 4C 12 35 B0 D4 00 00 40 4C 12 35 04 13 05 00 00 30 49 D4 60 A2 00 00 00 C4 
30 51 03 4B 0D 00 00 39 49 57 00 90 18 D5 A5 E5 39 6F 3F E4 44 C5 E5 BC FD 50 94 FC B5 28 25 A3 
E4 6B 36 A7 AA AA 22 FF 1B 42 48 4E 59 49 56 49 41 A9 B5 A6 9A B1 BE BA 89 A1 96 B5 B9 5E D7 8E 
BA DD 6C 54 F4 B5 25 5D 71 00 10 06 73 44 0D 2C 35 11 C9 8D 49 F8 7C 3D 30 E5 61 D8 D7 67 11 EC 
8A CA DA 92 55 97 95 57 97 95 57 E4 7F 2B FC 94 4C 8D D7 B6 ED 60 E2 EE 6C 3E 62 80 91 4B 77 96 
0C 73 2C 7D 80 31 30 47 D4 00 E1 94 65 E5 C6 F8 5E F9 70 FE 76 6E 74 7C 63 F2 C9 8D 8E CF 8D 8E 
8F D8 7D 4A BD AD 81 E5 94 61 F6 0B 27 AB 9B 1A D1 55 49 00 68 3C CC 11 35 B0 D4 6A 23 F7 DD C7 
D7 3B 7C E3 2F DD AF CD 2E 53 D2 D6 D4 B2 36 57 6B A3 AF D6 46 4F 4E 45 59 41 5D 15 21 54 F0 AD 
50 89 8D CA 73 F2 8B 53 33 0B 13 53 0B 13 92 B9 1C 0E F5 53 45 29 19 AF B7 9F 88 F0 39 69 31 C6 
BD E7 9A 1F 75 EC AD 9A E2 61 00 A0 2E 98 23 6A 08 96 74 F0 91 F7 FE D3 0B EF 83 09 57 1E F0 E8 
11 42 48 DB B6 43 DB 81 BD DB 0E 70 D4 ED D6 49 AD 8D 3E FF 67 7F FF FD 77 1F 1F 1F 72 59 55 52 
96 13 15 97 1A 1C 9E FC E0 E9 D7 67 11 9C AA 6A 1C CF A9 66 C7 FF 7B 2F E1 B2 BF E5 E4 A1 BD 37 
FE A2 D1 CE 58 7C 8F 03 00 A2 C0 62 CC 4A 08 19 19 19 1F 1F 9F A5 4B 97 4A BA 22 CD 82 8A 82 A2 
B0 F5 07 DE 1D 3E CF A9 66 53 E3 B5 AC CD AD A7 0D EF 30 71 88 66 7B 13 21 1F 2F 2A 2A D2 D5 D5 
4D 4D 4D D5 D1 D1 E1 BF 5B 96 93 1F FF CF BD D8 D3 D7 33 5F BE A3 C6 CB 29 2B F5 5A B7 A8 DB EF 
B3 65 E4 19 F5 63 09 48 17 CC 19 E8 85 EE 27 E1 F3 8D 87 7E 56 9E 51 FB CF FC A7 68 2C 56 BB 61 
AE A3 03 FE 9E FE FE 76 CF 35 0B 84 2B 1A 42 E8 E1 C3 87 15 15 15 8F 1E 3D 12 78 57 59 47 CB 7E 
F1 94 89 E1 FF 8E 7F 72 CE 62 94 1B FA DE EC D5 65 E5 CF 56 ED BE D8 73 7C 23 87 ED 00 A0 31 30 
47 D4 00 84 50 55 71 E9 A3 F9 EB 6E 8F FA A9 2C 2B 97 44 B6 1B DE 7F D2 AB CB C3 6F 1D 69 3B B0 
37 12 4D F7 1F 3C 78 80 10 0A 08 08 10 9E CC D0 B9 DB D0 6B 07 27 BE F8 C7 B8 BF 03 89 CC 89 8A 
FB A7 D7 84 B7 87 CE 37 E8 09 00 A0 B1 30 4A D4 5A B8 A5 96 F9 F2 DD 85 EE 63 A3 8F 5F 22 31 5A 
56 ED 46 DE FB 6B F8 CD C3 7A DD 3A D5 2B 2B 11 45 0D A3 DF D3 6E CC A3 53 9E FF EE 21 4B D8 AA 
CB CA 83 7F DA 78 7F CA B2 EA D2 F2 7A 95 0B 00 8D 87 21 A2 86 47 06 5B B2 A8 BD F1 39 79 C9 69 
72 C1 C7 24 7C 29 23 27 EB B0 7E F1 D4 E8 5B A6 83 5D EA 9B 55 42 42 C2 A7 4F 9F 10 42 5F BE 7C 
F9 F0 E1 83 88 9F EA 30 7E F0 B4 98 DB 16 A3 07 92 98 8F 17 EE 5C 71 9D 51 96 9D 57 DF 0A 00 40 
63 60 88 A8 B5 64 38 D5 EC 47 0B BC 9F 2C DB 41 46 D0 5A 59 98 8C 7B 7C CE C1 FB 27 19 39 D9 06 
64 E8 EF EF 4F C2 22 1A 6B 18 25 6D CD A1 57 0F 0C 38 EA 2D AB A8 80 63 32 5F BE BB D2 6F 46 71 
5A 66 03 AA 01 00 0D 83 21 A2 D6 62 2D B5 AA E2 D2 3B A3 7F 8A 3E F6 0F 89 B1 9E 3E 62 72 C4 55 
03 C7 CE 0D CE B3 C1 A2 86 B1 FD 71 E2 F8 67 17 D4 4D 0C F1 65 5E EC A7 4B CE 53 0A 12 92 85 7F 
0A 00 E8 82 51 A2 D6 D2 28 4E CD B8 D4 67 6A E2 ED 60 7C 29 AB 20 3F E8 E4 16 77 BF ED 78 F5 6C 
C3 A8 AA AA 0A 09 09 21 97 41 41 41 55 55 55 F5 CD 44 AF 5B A7 71 4F CE 6B 5A 9A E1 CB A2 2F E9 
57 FA 4D CF 7B FF A9 C1 B5 02 00 D1 61 88 A8 61 5A 94 A5 F6 2D 29 ED 92 F3 94 9C A8 38 7C A9 A8 
A9 3E F2 DE 5F 1D 67 8D 6E 64 B6 CF 9E 3D FB F6 ED 1B B9 2C 2A 2A 0A 0B 0B 6B 40 3E EA 6D 0D C6 
85 9E 25 DB 0C 4A D2 B3 AE F4 9F 09 F6 1A D0 04 30 44 D4 5A 5A F7 B3 28 25 E3 9A DB EC A2 E4 AF 
F8 52 A3 9D F1 F8 A7 17 8C 07 38 36 3E 67 6A DF 13 D3 80 1E 28 46 45 5F 7B 6C C8 19 C3 DE 5D F0 
65 59 56 EE 0D 8F B9 A5 99 B9 C2 3F 05 00 8D 84 21 A2 D6 A2 28 4A C9 B8 EA 3A A3 F0 73 0A BE D4 
EB D6 69 C2 F3 8B AD 3B 59 D0 92 39 BF A8 E1 E5 1D 0D 43 51 53 7D A4 FF 09 A3 3E DD F1 65 E1 E7 
94 DB 23 17 C1 3A 0F 40 AC 30 44 D4 5A 8E A5 56 9A 99 7B DD 7D 0E 51 34 9D CE D6 A3 1E F8 D2 E5 
E3 2C 27 27 27 32 32 92 27 F2 D5 AB 57 79 79 0D 5F 96 A1 A0 AE 3A E2 F6 11 D2 0F CD 78 F1 F6 EE 
84 25 3C 9B B7 00 80 46 18 22 6A 2D 84 F2 BC C2 2B AE 33 F2 E3 3E E3 4B 1D 7B AB D1 81 7F 2B 69 
6B D2 95 FF 83 07 0F 38 7C 5B DF D9 6C 76 6D FB A5 44 44 A1 95 FA F0 9B 87 55 8D F4 F0 65 D2 9D 
90 C7 BF 6F 6F 4C 86 00 20 04 86 88 5A 4B B0 D4 38 55 D5 F7 26 2C 21 8A A6 65 6D 3E CA FF 84 B2 
8E 16 8D 45 E0 BE 67 9B 36 6D 4E 9F 3E 8D 10 BA 79 F3 66 BB 76 ED 50 23 86 D5 08 EA A6 46 A3 FC 
4F 28 6A AA E3 CB A8 FD 67 E2 CE DC 6C 64 9E 00 20 10 46 89 1A 93 E1 72 03 E7 AC 49 79 58 33 11 
A9 69 69 36 36 D8 4F C5 40 80 0B 8D 46 94 C0 7D F2 E4 C9 8A 15 2B E2 E2 E2 66 CC 98 81 10 1A 3E 
7C 78 4C 4C CC FA F5 EB A9 8B 3C 1A 8C B6 6D 07 CF 7F F6 B0 64 6B D6 03 07 2D DA 40 04 1A 00 68 
84 21 A2 86 61 B0 A5 F6 62 C3 21 62 DA 28 69 6B 8E B8 7D 94 F6 B3 02 4A 4A 4A 1E 3E 7C B8 6D DB 
36 35 35 35 12 A9 AC AC EC ED ED 7D E7 CE 9D F2 72 1A 46 F7 4D DC 9D 1D 37 FC 84 C3 55 C5 A5 B7 
47 FD 54 59 54 D2 F8 6C 01 80 0A 43 44 8D D9 DD CF B8 33 37 5F FC 79 18 87 65 95 14 87 DF 38 A4 
D9 C1 94 F6 52 D4 D4 D4 CC CC CC 04 DE B2 B0 B0 50 52 52 A2 A5 94 1E AB E6 9B 0D ED 87 C3 F9 1F 
12 83 16 6E A0 25 5B 00 20 30 44 D4 18 4C 76 64 DC A3 1F D7 23 DC BF 66 B1 06 9E D8 68 E8 DC 4D 
D2 95 6A 38 2C 19 19 8F 33 3B 88 83 DC 0F E7 6E C5 9D 85 C1 35 80 4E 18 22 6A 4C B5 D4 CA 73 0B 
EE 8C FE A9 BA AC A6 EB D7 7B D3 AF 56 53 87 4B B6 4A 8D 47 51 4B C3 F3 9F DD 64 D3 7B C8 CF 9B 
8A 53 33 24 5B 25 80 49 30 4A D4 18 06 97 C3 F1 9F BE E2 5B 52 1A BE B4 9C 34 A4 E7 EA 1F 25 5B 
25 BA D0 EF 69 D7 7B E3 2F 38 5C 51 50 14 30 7B 35 62 E2 7F 10 90 08 0C 11 35 0C C3 2C B5 B0 75 
07 BE DC 0B C5 61 2D 6B F3 01 7F FD 29 D9 FA D0 4B D7 DF 67 B7 E9 D7 13 87 53 02 9F BF 3D 72 51 
B2 F5 01 18 03 43 44 8D 79 DD CF C4 DB C1 2F B7 1C C3 61 05 0D B5 E1 37 0E 35 C6 F7 46 33 84 25 
23 33 D0 77 93 BC 9A 0A BE 7C FA C7 4E D8 EE 0E D0 02 43 44 8D 61 14 A7 65 06 92 1E 19 8B 35 F0 
EF CD C4 8D 0F 93 68 65 61 D2 67 E7 72 1C AE 2A 29 7B 38 D7 0B 3A A1 40 E3 61 88 A8 31 C9 52 E3 
72 38 01 33 57 96 E5 E4 E3 CB EE 7F CC 69 3F D6 5D B2 55 12 1F 76 3F 4E 34 F5 E8 83 C3 69 21 2F 
63 FD 6E 48 B6 3E 00 03 60 88 A8 31 89 37 3B FF 26 3B 07 F4 7B DA F5 DE F8 AB 64 EB 23 5E 58 AC 
01 C7 36 90 4E E8 E3 DF B7 C3 99 06 40 23 61 88 A8 31 C6 52 CB 7A 1D 13 B6 6E 3F 0E CB AB A9 78 
9C DB C9 F8 83 81 D5 4D 8D 7A AD 5D 84 C3 E5 B9 05 4F FE D8 25 D9 FA 00 D2 0E A3 44 4D DA A9 2A 
2E BD 3F F9 77 76 65 8D FB EC 01 47 BD C5 B1 73 A0 19 D2 F5 B7 59 3A 9D AD 71 38 F6 F4 F5 D4 A0 
17 92 AD 0F 20 D5 30 44 D4 30 D2 6E A9 3D 59 BE B3 20 FE 0B 0E 5B 4F 1F C1 80 75 B6 22 22 23 27 
EB 76 FC CF 9A BD EE 5C 6E F0 E2 8D 9C AA 6A 49 57 0A 90 56 18 22 6A 0C E8 7E A6 3E 0A 7B F7 FD 
50 A8 56 16 26 AE 07 D7 4A B6 3E 4D 8C 7E 4F 3B FB 85 93 70 38 2F F6 D3 BB 23 17 24 5B 1F 40 7A 
61 88 A8 49 3B 55 25 65 0F E7 D7 6C F0 64 C9 C8 0C FC 7B B3 82 86 5A 9D 9F 62 18 8E 1B 7F 55 D6 
6D 8D C3 61 DE 07 C9 FC 2F 00 D4 0B 86 88 9A B4 5B 6A 4F 96 ED 28 FC 54 B3 F4 B4 F3 2F D3 DA F4 
ED 21 D9 FA 48 04 45 4D 75 C7 3F 7F C6 E1 8A FC 6F 2F D6 1F 90 6C 7D 00 29 85 51 A2 26 A5 A4 06 
BD 20 1D 4F 8D 76 C6 0C 5F C3 21 14 DB 79 E3 C9 8C C1 BB 63 FF E6 BC FD 20 D9 FA 00 D2 08 43 44 
0D 23 8D 96 5A 55 49 D9 C3 79 EB 48 C7 73 D0 A9 AD 64 D1 56 0B 84 25 2B DB 77 CF 4A 1C E6 B2 D9 
A1 4B B7 49 B6 3E 80 34 C2 10 51 93 DE EE E7 93 E5 3B FF EB 78 FE DC 42 3B 9E 54 8C FB 3B 90 1D 
14 A9 8F C2 3E 5D 7F 28 D9 FA 00 52 07 43 44 4D 4A 49 0D 7A F1 EE 68 8D 77 0A 8D 76 C6 BD 37 B5 
DC 8E 27 95 3E 3B 97 CB 2A 29 E2 F0 93 DF B7 B3 CB 2B 24 5B 1F 40 BA 60 88 A8 49 A3 A5 C6 DB F1 
3C B9 A5 25 77 3C A9 68 B4 33 EE F6 DB 2C 1C 2E FC 9C 12 B1 D7 4F A2 D5 01 A4 0C 86 88 9A 34 F2 
F4 8F FF EF 78 7E 77 2E 06 20 84 7A AC 9A 4F CE 09 7D B9 F9 68 C9 D7 6C C9 D6 07 90 22 18 22 6A 
52 67 A9 A5 06 BD 20 6E 11 A1 E3 C9 8F BC 9A 8A D3 D6 DF 70 B8 AA B8 F4 F9 9A BD 92 AD 0F 20 45 
80 A8 49 80 EA D2 F2 47 F3 A1 E3 59 07 1D A7 8F 30 70 B0 C7 E1 D8 D3 D7 B3 5E 45 4B B6 3E 80 B4 
C0 10 51 93 2E C2 BC 0F 12 2F AF F6 8B 26 43 C7 53 30 2C 56 DF BD AB 11 8B 85 10 E2 72 38 E0 BD 
03 10 11 86 88 9A 14 59 6A 39 51 71 91 7B 4F E3 B0 BA 89 21 E9 64 01 FC 18 38 76 B6 9C E8 89 C3 
A9 41 2F 12 6F 05 49 B6 3E 80 54 C0 10 51 93 16 38 D5 EC C0 1F D6 10 17 14 AE 07 D7 42 C7 53 38 
4E 5B 7F FB 6F 79 C7 F2 9D E0 BD 03 A8 13 86 88 9A B4 58 6A 6F 76 FD 9D F5 E6 3D 0E 5B 4F 1B D1 
6E 78 7F C9 D6 A7 01 C4 C6 C6 46 47 47 97 96 96 F2 C4 73 38 9C E8 E8 E8 E8 E8 E8 CA CA 4A 1A 8B 
D3 30 6B D3 E5 97 69 38 9C FF 21 31 FA AF 7F 69 CC 1C 60 24 8C 12 B5 66 4E 41 FC 97 F0 3F 0F E3 
B0 92 B6 A6 8B CF 1F 92 AD 4F C3 58 B4 68 91 9D 9D DD A5 4B 97 78 E2 63 62 62 EC EC EC 5C 5C 5C 
64 64 68 7E A9 7A 7A 2D 54 D1 D7 C6 E1 17 1B 0E 55 16 16 D1 9B 3F C0 30 18 22 6A 98 66 6D A9 71 
B9 41 0B BD C9 59 EB FD F6 AD 56 D6 D3 96 6C 8D 1A 86 A7 A7 27 42 28 38 38 98 27 3E 28 28 08 21 
E4 E1 E1 21 27 47 B3 FF 71 05 75 D5 9E 5E 0B 71 B8 2C 3B EF E5 D6 BF E8 CD 1F 60 18 0C 11 B5 E6 
DF FD 8C 3E 71 99 1C A7 62 3A D8 45 7A BD DA 0E 19 32 04 09 12 35 1C 83 EF D2 8E DD 82 49 AD 3B 
59 E0 70 E4 BE 33 E4 D4 7A 00 E0 87 21 A2 D6 CC 29 CD C8 79 BA A2 66 45 82 BC AA B2 EB 21 29 F6 
6A 6B 63 63 63 6C 6C 9C 94 94 94 94 94 44 22 39 1C 4E 48 48 08 8B C5 1A 3C 78 B0 38 0A 95 91 93 
75 DA B2 14 87 D9 E5 15 B0 16 17 10 02 43 44 AD 99 5B 6A 41 8B FF AC C8 FF 86 C3 4E 5B 96 B6 32 
6F 2B D9 FA 34 06 16 8B 85 CD B1 90 90 10 12 F9 F6 ED DB BC BC BC 9E 3D 7B EA E9 E9 89 A9 5C F3 
91 6E 6D DD 1C 71 F8 C3 85 3B 5F 9F 45 88 A9 20 40 DA 61 88 A8 35 67 12 6F 07 7F BA 1A 80 C3 FA 
BD EC ED 17 4F 91 6C 7D 1A 0F FF B0 1A 1E 50 13 53 DF 93 D0 67 D7 0A 16 9E 85 E0 72 9F 2C DB 01 
C7 B9 03 02 61 88 A8 35 5B 4B AD A2 A0 E8 D1 8F EB 71 58 56 41 7E A0 EF A6 9A 33 93 A4 19 37 37 
37 79 79 F9 A6 17 35 DD 2E D6 56 53 87 E1 F0 D7 E7 91 9F AE 05 8A B5 38 40 4A 01 51 13 2F A1 4B 
B6 94 A4 67 E1 70 8F 55 F3 B5 6D 3B 48 B6 3E B4 A0 AE AE DE B7 6F 5F 32 AC C6 66 B3 43 43 43 75 
75 75 BB 77 EF 2E EE A2 9D B6 FE 26 A7 A2 84 C3 8F 97 ED 00 57 6B 00 3F 0C 3F FD 5B B2 24 DD 0D 
8D 3D 7D 1D 87 5B 77 B2 E8 B1 6A BE 64 EB 43 23 9E 9E 9E 0F 1F 3E 0C 09 09 31 33 33 8B 88 88 28 
2C 2C 9C 31 63 C6 BA 75 EB 32 32 32 10 42 8A 8A 8A 46 46 46 23 47 8E B4 B5 B5 C5 E9 AB AA AA 16 
2E 5C 48 CD 41 4D 4D 6D E7 CE 9D 3C 91 FD FB F7 9F 3A 75 AA 90 72 D5 DA E8 77 FD 6D F6 CB 4D 47 
10 42 DF 12 53 23 F6 FA F5 58 39 8F E6 67 03 A4 1C B0 D4 C4 45 65 61 51 D0 82 9A 8E 27 4B 56 76 
D0 C9 2D B2 8A 0A 92 AD 12 8D 50 17 76 90 BE E7 E5 CB 97 2F 5F BE 1C 19 19 19 1C 1C BC 79 F3 66 
3B 3B BB 03 07 6A 4E 84 62 B3 D9 BE BE BE 77 EE DC 89 FC CE BB 77 EF F8 23 D3 D2 EA 5E AB D1 73 
D5 7C F5 B6 06 38 0C AE D6 00 01 70 19 41 72 72 32 42 E8 CA 95 2B 92 AE C8 7F 04 CC 5E BD 0F 59 
E3 BF A7 2B 7D 24 5D 9D 7A 23 FC DD E0 70 38 A6 A6 A6 66 66 66 5C 2E D7 D3 D3 53 46 46 26 2F 2F 
CF CA CA 6A E4 C8 91 38 41 59 59 99 A3 A3 A3 B2 B2 72 75 75 35 BE 44 08 AD 59 B3 86 9A 89 C0 48 
51 78 7F FA 3A 69 DB 80 D9 AB EB FB 71 80 D9 80 A5 26 16 52 02 9F BF 3F 75 0D 87 B5 AC CD 1D D6 
2F 96 6C 7D 68 07 2F EC 48 4A 4A 4A 48 48 78 FC F8 B1 93 93 93 96 96 16 35 81 92 92 D2 D0 A1 43 
CB CA CA 52 53 53 69 2F BD E3 F4 11 FA BD FE 73 B5 96 F9 F2 1D ED 45 00 D2 0B A3 44 AD 99 50 59 
58 14 30 7B 75 8D 0F 48 DC F1 FC EE 67 82 49 E0 85 1D 3E 3E 3E C5 C5 C5 02 E7 3D 93 92 92 94 94 
94 C4 B2 72 8D C5 EA BB 77 15 71 B5 16 BA 64 2B 2C EF 00 08 8C 9A 28 68 26 96 DA E3 DF B7 17 A7 
66 E0 70 D7 DF 66 19 38 76 96 6C 7D C4 C4 80 01 03 14 14 14 8E 1E 3D 8A 28 8B 39 92 92 92 4E 9C 
38 51 59 59 19 15 15 75 EA D4 A9 3D 7B F6 28 2B 2B 93 8F 9C 3D 7B 36 2C AC 66 AF 98 AB AB EB B2 
65 CB 10 42 A7 4F 9F 26 AB 43 B6 6F DF EE EC EC 2C 4A E9 86 BD BB 58 4D 1E FA E1 FC 6D 84 D0 D7 
67 11 EF 4F 5D EB 34 7B 0C 6D CF 06 48 33 0C 11 B5 E6 D3 FD 4C 79 18 16 F3 F7 55 1C D6 B2 6A E7 
B8 E1 27 C9 D6 47 7C A8 AA AA BA BA BA 3E 78 F0 C0 C8 C8 C8 DE BE A6 33 18 15 15 35 6F 5E CD 74 
A4 8E 8E 8E 93 93 13 F5 23 4A 4A 4A 9A 9A 9A E4 E3 38 D0 AA 55 2B 33 33 33 1C 56 51 A9 87 77 39 
17 9F 15 89 B7 83 2B BF 15 23 84 9E AE DC 6D 31 6A A0 A2 96 46 C3 9F 07 68 10 4F 57 FA C8 29 29 
F6 5A BB B0 F9 2C C0 64 88 A8 35 13 2A BF 15 07 FE B0 9A 1C 3E E0 76 62 A3 9C B2 92 A4 2B 25 46 
FC FD FD 79 62 86 0F 1F 7E F5 EA 55 0E 87 13 17 17 37 6C D8 B0 45 8B 16 BD 78 F1 82 DC 1D 37 6E 
DC A6 4D 9B C8 65 79 79 39 42 68 D4 A8 51 D4 48 D1 51 31 D0 E9 E5 B5 00 BB F9 2E CB CA 0D 5B B7 
BF DF 01 AF 86 3C 06 D0 50 32 C3 DF BE D9 75 92 CB 66 27 3F 78 3A C8 6F BB 66 7B 13 49 D7 08 21 
86 8D A9 49 DC 52 7B FC FB F6 A2 E4 AF 38 DC F5 F7 D9 46 7D C4 BE 18 B5 B9 21 23 23 23 27 27 A7 
A0 A0 60 6F 6F 3F 6C D8 B0 57 AF 5E 55 55 55 89 AF B8 2E 4B 67 69 DB 59 E2 F0 DB C3 17 60 C6 A0 
29 61 57 56 05 CE F1 E2 B2 D9 08 A1 AF CF 23 C9 79 8F 12 87 51 A2 26 59 92 03 9E C5 F8 5E C1 61 
66 77 3C 45 C4 CA CA 8A C3 E1 64 66 66 8A AF 08 19 39 D9 7E FB FE 3B 9C 25 F4 D7 2D 52 34 63 90 
9D 9D 9D 9E 9E 2E CA AB CB E5 72 D3 D3 D3 0B 0B 0B A9 91 4D EC 82 98 9F 57 5B 8E E5 46 C7 E3 70 
C7 59 A3 4D 3D FA 88 B5 38 D1 61 88 A8 61 24 68 A9 55 14 14 3D 9C B3 86 74 3C 07 FE BD 99 D9 1D 
4F 51 D0 D7 D7 47 08 51 D7 D3 BE 7E FD FA E8 77 4E 9C 38 41 4B 29 C6 FD 1D 2C 27 D5 4C 53 7C 7D 
1E 19 7B E6 26 2D D9 8A 95 A8 A8 A8 6E DD BA E9 E9 E9 B5 69 D3 C6 D4 D4 F4 C6 8D 1B B5 A5 E4 72 
B9 C7 8E 1D 33 30 30 68 D3 A6 8D A6 A6 66 F7 EE DD C9 4C 4B D3 BB 20 A6 92 1B 1D FF EA BB B7 4E 
55 43 DD BE BB 57 8A AF AC FA C2 10 51 93 78 F7 33 78 F1 9F 45 29 35 33 9E 5D 96 CC 30 74 EA 2A 
A9 9A 34 1F 7A F5 EA 85 10 A2 7E EB EE DF BF BF F0 3B 4B 96 2C A1 AB 20 97 5D 7F 28 A8 D7 4C 3B 
3C 5B B5 BB AA 98 D7 78 69 56 E4 E6 E6 0E 1E 3C F8 D3 A7 4F EB D7 AF F7 F2 F2 2A 2C 2C 1C 37 6E 
1C 75 E4 91 8A 9F 9F DF 82 05 0B 0C 0D 0D B7 6D DB B6 62 C5 8A B8 B8 38 77 77 77 BC D4 BC E9 5D 
10 13 B8 6C 76 E0 1C 2F 76 65 CD C0 82 EB C1 B5 CD 6B 8A 46 62 CB 7E 69 25 21 21 01 21 74 EB D6 
2D 89 94 FE E1 C2 1D B2 C0 FD 4C C7 A1 55 A5 65 12 A9 06 BD 48 D7 BB F1 72 CB 31 F2 2F 78 B6 7A 
8F A4 AB 23 8C 3F FF FC 13 21 74 FC F8 71 7C 79 F9 F2 65 84 10 D9 89 C1 83 B5 B5 B5 82 82 42 5E 
5E 1E BE DC BB 77 2F 42 68 D5 AA 55 5C 2E F7 DD BB 77 08 21 BC A9 83 CA E8 D1 A3 11 42 A7 4F 9F 
16 DB 13 70 A3 0E 9E 23 AD 7D 77 FC 12 F1 15 D4 30 C0 52 6B 2C C5 A9 19 41 8B 36 E0 B0 8C BC 9C 
FB 99 ED D0 F1 6C 7A BA 2E 9D 49 5C 6F BE D9 7D EA 5B 22 FD DB 18 E8 22 30 30 50 49 49 69 E2 C4 
89 F8 72 E4 C8 91 FA FA FA 4F 9E 3C E1 F2 0D AE 55 55 55 7D F8 F0 A1 53 A7 4E 64 B7 46 E7 CE 9D 
11 42 31 31 31 48 42 2E 88 11 42 E5 B9 05 61 EB F6 E3 B0 52 EB 56 CD 70 C6 99 21 A2 26 29 B8 1C 
CE 83 99 AB 88 57 5B C7 0D 3F EB 75 B7 91 6C 95 9A 00 6F 6F 6F 96 78 F0 F6 F6 6E 58 95 64 95 14 
FB EC AA 39 9D 8B 5D 5E F1 78 D9 0E DA 9E 96 56 AA AB AB 5F BD 7A D5 B6 6D 5B 75 75 75 1C 23 27 
27 67 6E 6E 9E 9B 9B CB BF 99 9F C3 E1 9C 3F 7F 7E E7 CE 9D 24 06 CF BA B4 6A D5 0A 49 CE 05 F1 
F3 B5 FB CB F3 6A A6 2C 7A 6F 5E 42 0E FA 6A 3E 30 44 D4 24 65 A9 45 EE F5 4B 7D 54 33 70 6B E8 
DC AD FB 1F 73 9A B8 02 12 C1 DB DB 5B 4C 1D 87 06 8B 1A 42 C8 62 F4 40 13 F7 9A DD 08 9F AE 06 
24 07 3C A3 E7 69 69 25 25 25 A5 B4 B4 B4 75 EB D6 D4 48 7C 49 35 B8 30 8A 8A 8A 93 26 4D 1A 38 
70 20 BE E4 70 38 57 AF 5E 45 08 4D 98 30 01 C7 34 BD 0B E2 DC 98 84 98 E3 35 47 AF 6A DB B4 B7 
99 3B 5E 4C 05 35 06 10 B5 86 93 F7 FE D3 73 AF 7D 38 2C AF A6 32 E8 D4 D6 E6 B3 A8 BA 99 90 93 
93 93 93 93 D3 64 C5 F5 DD B3 4A 46 AE E6 5F F0 78 E9 56 4E 35 BB C9 8A 16 91 E2 E2 62 84 10 CF 
10 3E 7E 6F 2B 2A 6A 75 78 F9 F2 E5 CB 99 33 67 76 ED DA F5 EE DD BB BB 77 EF 1E 36 AC C6 FD 6F 
D3 BB 20 0E F9 69 23 69 D5 7E 07 D7 92 D6 6E 56 30 44 D4 9A 1E 76 45 E5 FD 29 CB C8 39 9E AE 07 
BC 9A C9 72 EA E6 00 87 C3 D9 BF 7F BF B9 B9 B9 AE AE AE AE AE 6E BB 76 ED 84 AC 5A A0 91 D6 9D 
2C 6C E7 D7 58 31 54 9B A2 F9 80 BD 2D B1 D9 FF A7 B6 F8 27 59 88 A8 25 25 25 F9 F9 F9 BD 7D FB 
96 C3 E1 24 25 25 91 05 68 4D EC 82 38 FE D2 FD D4 E0 70 1C EE 30 7E B0 B1 6B 2F 71 94 D2 78 18 
22 6A 4D 6F A9 3D 5F BB 3F 27 2A 0E 87 2D 46 0F EC 38 6B 74 93 15 DD FC 39 75 EA D4 AF BF FE CA 
66 B3 BD BC BC D6 AE 5D FB ED DB B7 51 A3 46 85 86 86 36 41 D1 8E 7F FE 42 96 17 84 AD 3B 40 86 
3B 9B 86 84 84 04 E1 83 86 78 CA 52 5E 5E 9E FF B3 4A 4A B5 CE 2F 8D 1F 3F BE BA BA 3A 3E 3E 7E 
C8 90 21 FB F7 EF FF ED B7 DF C8 2D DC 03 C5 C3 6A D8 05 31 76 6F 47 FB A3 B1 2B 2A 9F AE F0 C1 
61 39 65 A5 3E 3B 97 D3 5E 04 5D C0 DE CF 86 90 1A 1C 1E E1 73 12 87 55 0D 75 07 FC F5 A7 64 EB 
D3 DC D8 BA 75 2B 42 E8 F6 ED DB 76 76 76 08 21 27 27 27 4F 4F CF 8D 1B 37 06 04 04 88 BB 68 25 
6D 4D 47 EF 9F 42 7E DD 82 10 2A CB C9 7F B1 E1 50 DF BD AB C4 5D 28 41 5B 5B 9B 3A AE CF 8F 95 
95 15 E2 FB F5 C5 86 1B D9 E1 2F 10 59 59 D9 F6 ED DB 9F 38 71 E2 E6 CD 9B 27 4E 9C D8 B3 67 0F 
56 C6 21 43 86 2C 5B B6 2C 38 38 78 E6 CC 99 62 ED 7B BE 3B 7A 91 CC 29 77 5B FE 83 BA A9 91 38 
4A A1 05 86 88 5A 53 5A 6A 95 85 45 01 B3 56 71 39 1C 84 10 62 B1 DC 8E 6F 54 D6 D1 AA EB 43 2D 
88 E2 E2 E2 84 84 04 13 13 13 AC 68 08 A1 3E 7D FA 20 84 DE BE 7D DB 34 15 B0 5B 34 25 FA F8 25 
BC 83 E7 ED A1 73 36 73 C7 35 D9 79 37 5A 5A 5A D8 9F 52 6D 54 54 54 C8 CB CB E3 91 35 42 76 76 
36 42 C8 C0 C0 80 27 71 74 74 F4 F5 EB D7 1D 1D 1D C9 5C 41 AB 56 AD 8C 8D 8D 3F 7F FE 9C 95 95 
D5 A6 4D 1B 84 90 B5 B5 B5 A9 A9 29 F1 AB 2E 23 23 E3 EE EE 4E DF 03 D5 50 55 5C 4A F6 0F 28 EB 
69 77 5B F6 03 ED 45 D0 08 A3 BA 9F 4D 43 F0 4F 9B 8A BE A4 E3 B0 FD C2 49 66 43 FB 35 59 D1 52 
01 9E 19 D0 D6 FE 6F A6 1F EF 4F E4 DF A5 28 26 64 E4 64 5D 7C 56 E0 30 A7 9A FD A4 39 2D EF 50 
54 54 EC DC B9 73 66 66 26 79 63 39 1C 4E 6A 6A AA 9E 9E 9E 89 09 EF 98 6C 5A 5A DA DA B5 6B 6F 
DF BE 4D 8D 94 95 95 95 91 91 D1 D5 D5 C5 97 AC BA 5C 10 D3 C2 9B 5D 7F 97 66 E6 E2 B0 C3 FA C5 
64 FF 46 F3 84 21 A2 86 69 02 4B 2D E1 CA 83 B8 B3 35 BB 0B B5 AC CD FB EC FC 43 DC 25 4A 1D A6 
A6 A6 55 55 55 E1 E1 E1 24 06 0F 24 75 E8 D0 74 C7 03 9A B8 3B B7 1B DE 1F 87 BF F8 3F 49 BC 15 
D4 64 45 D7 89 AB AB 6B 5A 5A 1A 19 61 0C 0C 0C CC CC CC 74 72 72 C2 6F 6F 59 59 59 41 41 01 FE 
01 C0 7D D5 D0 D0 50 0E EE 16 20 94 9C 9C FC F9 F3 67 5B 5B 5B 05 85 FF 0E F1 A9 D3 05 71 23 29 
CB CE 8B D8 7D 0A 87 35 DA 19 DB CC 1D 47 7B 11 34 23 A6 05 47 4D 0C 5E 63 FD E0 C1 03 B1 96 52 
94 F2 F5 A8 56 2F BC 3B E4 80 BC 6D E6 CB 77 62 2D 4E B2 D0 F5 6E 94 95 95 39 38 38 20 84 0E 1E 
3C 48 4B 86 22 92 FF 31 E9 A0 82 1D FE 67 9D 6E EF 5E 5D 5E D1 94 A5 0B 21 29 29 49 55 55 D5 CA 
CA EA DC B9 73 17 2E 5C C0 5A 1F 1C 1C 8C EF AE 58 B1 02 21 B4 78 F1 62 7C 39 66 CC 18 84 D0 E8 
D1 A3 FF F9 E7 1F 3F 3F 3F 1B 1B 1B 84 D0 A5 4B 97 A8 19 16 17 17 13 8D 8B 8C 8C A4 BD C2 C1 3F 
6F 22 9B A2 3E 5C B8 43 7B FE B4 C3 28 4B 4D BC 70 B9 01 B3 57 93 D9 34 87 75 8B F4 7A D8 4A B6 
46 CD 9F EA EA EA D9 B3 67 BF 78 F1 62 C2 84 09 3C 47 7C 8A 1B CD 0E A6 5D 96 CC C0 E1 82 84 E4 
88 3D A7 9B B2 74 21 98 9A 9A 5E BD 7A B5 A0 A0 60 EA D4 A9 93 27 4F 4E 4F 4F 3F 7A F4 68 BF 7E 
82 07 31 7C 7D 7D 47 8D 1A 75 ED DA B5 89 13 27 CE 98 31 03 7B 4B 1F 3B 76 2C 35 0D 76 41 8C 10 
A2 BA 20 A6 8B 6F 89 A9 D1 C7 FE C1 61 BD 6E 9D 3A 4C 10 D7 EE 2B 1A 61 71 A5 C7 FF 94 10 62 62 
62 6C 6D 6D 03 02 02 C8 90 2A ED 44 EC 39 FD F8 B7 6D 38 6C E8 D4 75 5C E8 19 66 2F B5 65 B1 1A 
FB 6E 54 56 56 4E 9D 3A F5 F2 E5 CB 2E 2E 2E 0F 1E 3C 10 B2 64 41 4C 54 16 95 9C B1 1E 52 92 9E 
85 10 92 57 53 99 F1 E1 9E AA 91 B8 36 0F D5 97 D2 D2 52 EC F2 CC D6 D6 96 B8 38 AF 8D BC BC BC 
E8 E8 68 6D 6D 6D 4B 4B 4B 81 CB 41 C4 47 E0 1C AF F7 7F D7 78 09 1C F5 C0 D7 64 90 93 F0 F4 CD 
01 B0 D4 44 22 37 26 E1 D9 EA 3D 38 AC A0 AE EA EE B7 8D D9 8A D6 78 CA CB CB C7 8E 1D 7B F9 F2 
65 0F 0F 8F BB 77 EF 36 BD A2 21 84 14 D4 55 9D B6 D6 2C E9 AA 2A 2E 7D BA D2 A7 E9 EB 50 1B 2A 
2A 2A BD 7A F5 EA D3 A7 4F 9D 8A 86 10 6A DD BA 75 DF BE 7D 6D 6C 6C 9A 58 D1 0A 3F A7 C4 9D A9 
59 35 DD A6 5F 4F A9 50 34 C4 18 51 E3 8A 73 49 07 BB A2 D2 7F EA 72 76 79 CD 82 EF BE FB 56 B7 
B2 80 CD 03 C2 E0 70 38 53 A6 4C B9 7D FB F6 D4 A9 53 6F DE BC A9 A6 A6 26 A9 9A 74 9C 3E 82 38 
55 8F 3B 7B 2B FD F1 6B 49 D5 44 1A 79 B9 E9 28 A7 AA 1A 87 1D BC A5 C6 93 33 88 5A DD 50 37 0F 
98 8F 74 83 A3 D8 EA 64 E7 CE 9D D7 AE 5D 9B 31 63 86 9F 9F 1F 75 9E 4E 9D 54 7A 1D 00 00 20 00 
49 44 41 54 02 B0 58 7D F7 AD 66 E1 15 F6 5C 6E E8 92 2D DC EF 33 89 80 70 0A 3F 25 13 33 CD B8 
BF 43 B3 DD 14 C5 0F 43 44 4D 7C A4 3F 79 4D E6 B3 95 F5 B4 07 1C DB 20 D1 EA 48 01 5C 2E F7 F0 
E1 C3 6A 6A 6A C7 8E 1D 13 AB 47 69 11 D1 EB D6 89 6C 62 CB 7A F3 FE FD C9 6B 92 AD 8F B4 10 BE 
F1 08 D9 BB EE B0 7E B1 64 2B 53 2F 60 47 81 30 2A 0B 8B FC A7 FD 81 CF CB 41 2C D6 A0 93 5B 9A 
A1 F7 A8 E6 46 4A 4A 4A 72 72 B2 9E 9E 9E 97 17 AF FB C0 95 2B 57 EA E8 E8 34 7D 95 9C B6 2C 4D 
B8 EC 8F 4F 08 7D B6 7A 4F 87 71 EE 0A AD D4 9B BE 1A F5 C2 DB DB BB 31 8E 98 1A 49 41 42 F2 87 
73 B7 70 D8 B8 BF 43 9B 7E 3D 25 55 93 06 C0 10 51 13 13 BC 9B 07 86 F4 95 6C 7D A4 82 8C 8C 0C 
84 50 56 56 96 8F 0F EF C0 FC 82 05 0B 24 22 6A 2A FA DA BD D6 2D C2 5B 0B CA B2 72 5F 6C 38 E4 
D2 9C 0E 0A 11 C8 86 0D 1B 24 28 6A 2F 37 1F FD CF 4C 93 9E D1 34 8C E4 7B 07 B4 20 0E 4B 2D FE 
DF 7B FF 6D 1E B0 6A 07 9B 07 44 A4 57 AF 5E B5 AD 8A 6C DF BE BD A4 6A D5 E5 97 E9 5A D6 E6 38 
1C 75 F0 5C 5E EC 27 49 D5 A4 F9 F3 2D 31 F5 3F 33 6D 80 63 9B BE 3D 24 5B 9F FA C2 28 51 A3 91 
92 F4 AC A0 45 35 BE 37 64 E4 64 07 9D DE 26 A7 02 27 0F 48 31 32 F2 72 AE DF BD E9 73 AA AA 43 
7E 6E C8 99 F0 2D 84 57 DB 8E FF 37 E9 B9 6E 91 64 2B D3 00 18 22 6A 18 DA 2C 35 2E 37 60 D6 AA 
F2 DC 02 7C D5 6B DD 62 03 07 9A 17 6A 03 4D 4F DB 81 BD C9 86 D0 94 87 61 9F AE 05 4A B6 3E CD 
93 E2 D4 8C D8 D3 D7 71 D8 A8 4F 77 E9 1A 4D C3 30 44 D4 E8 ED 7E 46 EE 3F 43 3C DC 1B F6 EE D2 
63 D5 7C 5A B2 05 24 8E CB EE 95 B2 8A 35 4B 4C 42 97 6C A9 2A 29 93 6C 7D 9A 21 AF 77 F8 B2 2B 
6A 3C EB F6 5A DB A4 3B DB E8 82 21 A2 46 23 79 EF 3F 3D 5B 55 B3 79 40 5E 55 79 D0 E9 6D CD D3 
11 3B D0 00 34 DB 9B 74 5B 5E 73 38 4E 51 F2 D7 F0 3F 0F 49 B6 3E CD 8D D2 CC DC 98 13 97 71 58 
BF 97 3D 39 C8 46 BA 60 88 A8 D1 65 A9 71 AA AA 1F CC 5C 49 4E 1E E8 BB 6F 8D 66 07 D3 C6 56 0E 
68 4E F4 5C 3D 9F 9C 10 1A B1 FB 54 CE DB 0F 92 AD 4F B3 E2 CD 4E 5F F2 F2 4B A9 99 86 18 23 6A 
74 F1 DC 6B 6F D6 AB 68 1C 36 1F E9 66 33 67 AC F0 F4 80 D4 21 A7 AC E4 7A 78 1D 0E 73 AA D9 C1 
8B 37 22 46 F8 74 68 3C E5 B9 05 EF BE 3B E4 D0 ED 62 DD 4E 6A BD 9F 32 44 D4 68 B1 D4 D2 9F BC 
7E E3 73 0A 87 61 F3 00 83 31 F5 E8 63 31 BA C6 9B 4B FA 93 D7 B1 67 6E 4A B6 3E CD 84 37 3E 27 
AB 8A 6B BC 13 F7 5A BB 08 35 F9 29 BA 74 01 A2 56 43 E5 B7 E2 07 D3 57 FC B7 79 E0 EF CD B0 79 
80 C1 F4 DD B7 46 5E 4D 05 87 9F 2C DB 51 96 93 2F D9 FA 48 9C 8A FC 6F 6F 0F 9D C7 61 6D 9B F6 
E6 A3 DC 24 5B 9F C6 C0 10 51 6B 3C C1 3F 6D FC 96 94 86 C3 76 0B E0 E4 01 86 A3 DE D6 A0 D7 DA 
9A 15 58 65 D9 79 4F 7E DF 2E D9 FA 48 9C C8 7D 7E 78 1B 19 42 A8 E7 9A 05 AC 66 B0 69 B7 C1 48 
71 D5 A9 34 D2 52 FB 74 2D 30 EE 7B 1F A4 95 85 49 9F 1D C2 0E 04 02 98 41 D7 DF 66 E9 75 EB 84 
C3 B1 7E 37 BE F8 3F 91 6C 7D 24 48 E5 B7 E2 C8 FD 67 70 58 B3 BD 49 FB F1 52 E0 DE 56 08 0C 11 
B5 C6 50 92 9E F5 70 DE 5A 1C 96 91 93 1D 7C 7E 27 E9 98 00 0C 46 46 4E 76 C0 B1 0D C4 D9 67 D0 
02 EF 16 BB 6C ED ED A1 F3 C4 4F 7D 4F AF 85 D2 BE 86 89 21 A2 D6 70 4B 8D CB 0D 9C BB 96 BA 79 
40 BF 57 0B DD 3C 50 5C 5C 1C 1B 1B 2B F0 56 74 74 74 79 79 79 13 D7 A7 09 D0 EB 61 DB F5 FB 39 
06 DF 92 D2 C2 D6 EE 93 60 65 DE BE 7D BB 6B D7 AE AA AA 2A 9E F8 2F 5F BE F0 FB 3B A1 91 AA E2 
52 72 80 83 BA A9 91 D5 94 61 E2 2B AB 69 68 E9 A2 16 75 E0 EC 97 7B 35 87 95 E9 F5 B0 ED B1 72 
1E CD 35 93 1E D4 D4 D4 86 0E 1D FA EB AF BF 16 16 16 92 C8 92 92 12 6F 6F EF 89 13 27 4A C4 1F 
77 13 E0 F8 E7 2F C4 8F 71 E4 BE 33 5F 9F 45 48 AA 26 9D 3A 75 DA B4 69 93 8D 8D CD 9D 3B 77 70 
4C 55 55 D5 BE 7D FB 6C 6D 6D 4B 4A 4A C4 57 6E E4 3E BF B2 EC 3C 1C EE B5 76 91 8C BC D4 7B EE 
61 88 A8 35 8C BC F7 9F 9E AE DC 8D C3 F2 6A 2A 83 2F F8 30 E0 3F DA 18 5C 5D 5D F7 EF DF 6F 61 
61 B1 6F DF 3E 84 D0 A5 4B 97 3A 76 EC B8 61 C3 86 DA CE 3A 62 00 72 2A 4A 03 8E 6D C0 CB 17 B8 
1C CE C3 79 6B 89 DF F6 A6 AE 89 9C 9C 9B 9B 5B 7C 7C FC B0 61 C3 46 8D 1A 85 10 EA D8 B1 E3 92 
25 4B 8A 8B 8B C5 77 9C 50 E5 B7 62 E2 03 B5 95 79 DB 8E 33 46 8A A9 A0 A6 84 21 A2 D6 00 4B 8D 
5D 59 F5 60 FA 1F 64 FD B4 CB EE 95 9A ED 5B FA C9 03 1E 1E 1E 08 A1 DC DC DC 25 4B 96 20 84 26 
4C 98 90 92 92 82 10 1A 34 68 90 84 6B 26 4E DA BA 39 76 FA EE 1A 37 EF FD A7 67 6B F6 4A AA 26 
EE EE EE 38 70 E3 C6 0D 84 D0 A7 4F 9F 10 42 0A 0A 0A E2 FB 51 89 DA 7F A6 3C AF C6 30 EF B9 E6 
47 66 FC A8 33 44 D4 1A C0 8B F5 07 B2 DE BC C7 61 F3 11 03 6C E7 8D 97 6C 7D 9A 03 EE EE EE B2 
7C A7 64 C9 C9 C9 0D 18 30 40 22 F5 69 32 FA EE 59 A9 6E 62 88 C3 91 7B FD 52 83 C3 85 A7 17 13 
F8 47 85 07 67 67 67 31 9D 5C 53 F9 AD 98 8C A6 B5 B2 30 B1 9E CE 04 33 0D 31 46 D4 EA 6B A9 A5 
3F 7E FD 7A E7 DF 38 AC A2 AF ED 76 FC 4F 71 D5 4C AA D0 D2 D2 EA DE BD 3B 4F 64 AF 5E BD 5A B5 
6A 25 91 FA 34 19 0A AD D4 DD 4E 6C 22 9D D0 C0 1F D6 54 16 89 71 18 AB 36 CC CC CC 2C 2D 2D 79 
22 C5 67 26 47 EE F5 23 66 5A 2F AF 05 CC 30 D3 10 63 44 AD 5E 54 15 97 06 FE B0 BA 66 F3 00 42 
6E C7 37 2A EB C1 E6 81 1A F8 8D 05 66 F7 3D 09 26 83 9C EC 17 4D C6 E1 6F 89 A9 E4 E0 EA 26 86 
F4 40 09 62 6A FF B2 9C FC 37 3E 27 71 B8 95 85 89 D5 B4 11 E2 28 45 22 30 44 D4 EA 65 A9 05 FF 
B4 B1 20 21 19 87 6D E7 4F 20 8E 03 01 24 E8 4B C5 1F C3 54 FA EC 58 4E 9C B2 C4 9C B8 9C 78 3B 
B8 E9 EB C0 F3 A3 A2 AD AD DD AD 5B 37 71 14 F4 6A CB 31 B2 85 C0 71 C3 4F D2 BE 36 8D 4A 8B 13 
B5 4F D7 02 89 63 CF 56 16 26 7D 76 C1 C9 03 FF 87 A3 A3 23 B5 B3 A9 A1 A1 D1 B3 A7 F4 F9 3E 6D 
18 72 2A 4A EE 7E DB C9 72 DC 80 99 2B C9 B1 3B 4D 46 FF FE FD 15 15 15 C9 E5 C0 81 03 C5 71 CC 
60 D1 97 F4 B7 87 2F E0 B0 B6 9D A5 E5 E4 A1 B4 17 21 41 E8 6F AF 57 AF 5E 9D 38 71 E2 F8 F1 E3 
61 61 61 FC 2B 09 D3 D2 D2 A2 A3 A3 A3 A3 A3 73 73 73 49 24 9B CD 8E 8E 8E 8E 8B AB 39 30 38 2B 
2B 2B 9A 42 46 46 06 87 A6 03 68 79 36 0F 78 9C DB A9 A0 AE 4A 4B CE 8C 81 67 5A C0 CD CD 4D 5E 
5E 5E 82 F5 69 62 0C 1C 3B F7 58 31 17 87 CB F3 0A FD A7 FF 41 0E 55 6A 1A 54 55 55 9D 9C 9C C8 
A5 98 FA 9E 61 DE 07 89 7B 5B E7 6D BF 4B F5 4E 4F 7E E8 7C 98 BC BC BC 41 83 06 F5 EC D9 73 DE 
BC 79 F3 E7 CF EF DD BB B7 A3 A3 63 74 74 34 35 CD C6 8D 1B ED EC EC EC EC EC 96 2D FB 6F 7F 65 
59 59 99 9D 9D 1D 59 8C F3 D7 5F 7F D9 51 30 34 34 D4 D1 D1 59 B6 6C 59 59 59 AD BB 58 44 B2 D4 
B8 DC 87 F3 FE DB 3C D0 D3 6B 21 9C 3C 20 10 6A 0F A8 85 0C A8 51 71 D8 F0 B3 A1 73 4D 8F 2F FD 
F1 EB 17 EB 0F 34 71 05 A8 FD 7D 71 B4 7F 7E DC E7 0F DF 8F 49 33 72 E9 CE BC 83 1F 69 13 35 2E 
97 3B 7E FC F8 C0 C0 C0 9F 7F FE F9 ED DB B7 B1 B1 B1 9B 36 6D 8A 8C 8C 1C 31 62 84 40 31 BA 7A 
F5 AA F0 9D 37 E3 C6 8D 3B 7E FC F8 F1 E3 C7 D7 AC 59 63 6A 6A EA E3 E3 E3 E1 E1 51 5D 5D DD E0 
1A 46 1D 3A 9F 74 B7 66 F3 80 81 83 7D CF 35 0B 1A 9C 15 B3 A1 8A 5A CB 19 50 23 C8 C8 C9 0E BE 
E0 A3 A4 AD 89 2F 5F 6D 3B 9E FC E0 69 53 56 80 B4 BF B5 B5 B5 89 09 FD 6B 27 1F FF BE 9D 98 9F 
CE DB 7E A7 3D 7F 89 43 9B A8 3D 79 F2 E4 D1 A3 47 13 26 4C D8 BF 7F BF 9D 9D 9D B5 B5 F5 9A 35 
6B 7E F8 E1 87 C4 C4 C4 93 27 4F F2 24 EE DD BB F7 B7 6F DF EE DD BB 27 24 43 07 07 87 B9 73 E7 
CE 9D 3B 77 D3 A6 4D 61 61 61 0E 0E 0E 8F 1F 3F F6 F3 F3 13 98 B8 4E 4B 2D 2F F6 D3 D3 3F 76 E1 
B0 BC AA B2 FB 99 1D 4C 1A 19 A5 17 33 33 B3 0E 1D 3A E0 80 85 85 85 A4 AB 23 01 D4 DB 1A 0C 3A 
B5 95 AC F0 F0 9F BE A2 24 3D AB C9 4A EF D2 A5 8B A1 A1 21 12 CF 2F 4A E2 ED 60 F2 D3 6E 3E D2 
CD D0 A9 2B ED 45 48 1C DA 44 ED F6 ED DB 08 A1 1F 7E F8 81 1A 89 8D E7 A8 A8 28 9E C4 C3 86 0D 
43 08 5D BC 78 51 C4 CC 15 15 15 57 AF 5E 8D 10 BA 7E FD BA C0 04 C2 45 8D 53 CD 0E 98 B9 EA BF 
CD 03 7B 56 C1 C9 03 C2 C1 C6 C2 E0 C1 D2 ED 82 A6 31 B4 1B E6 DA ED B7 59 38 5C 96 95 7B 77 DC 
AF 64 10 4A DC B0 58 2C 37 37 37 24 86 BE 27 BB B2 EA F1 77 CF 71 B2 0A F2 CE DB 19 68 A6 21 1A 
45 ED FE FD FB 08 21 3B 3B 3B 6A A4 9B 9B 5B 40 40 C0 C2 85 BC 27 38 98 9B 9B 3B 38 38 DC BA 75 
AB B8 B8 58 C4 FC 5D 5C 5C 10 42 81 81 81 95 95 F5 7E B7 C2 D6 ED CF 7C F9 0E 87 4D 07 BB D8 CE 
1D 57 DF 1C 5A 1A 58 D4 5A E0 80 1A 15 A7 6D BF 13 43 E6 EB F3 C8 47 F3 D7 35 59 D1 1E 1E 1E F2 
F2 F2 7D FB D2 3C DA F5 66 C7 89 82 8F 49 38 DC F5 B7 59 5A 56 ED E8 CD BF 99 40 9B A8 A5 A6 A6 
CA CB CB 63 B3 99 A0 AD AD 3D 70 E0 C0 2E 5D BA F0 A7 9F 32 65 4A 59 59 19 DE E3 26 0A 5A 5A 5A 
1A 1A 1A 65 65 65 54 1F 12 04 21 96 DA D7 A7 6F 5E EF F0 C5 61 65 3D 6D D2 AD 00 84 D0 BF 7F 7F 
15 15 95 FE FD 5B F4 0A 3E 3C B8 46 BC BA C7 FA DD 78 B3 EB EF A6 29 7A D0 A0 41 CE CE CE 1A 1A 
1A 34 E6 59 94 92 F1 6A DB 71 1C 56 6B A3 CF E0 31 65 7A 44 8D C3 E1 E4 E7 E7 2B 2A 2A 8A BE 51 
69 C2 84 09 32 32 32 A2 F7 40 11 42 AD 5B B7 46 08 89 6E DC 21 84 2A 8B 4A FC C9 C9 03 08 B9 1D 
FF 13 4E 1E 10 05 55 55 D5 25 4B 96 68 69 69 49 BA 22 12 46 DD C4 70 E8 95 FD E4 FC E3 A7 2B 77 
93 01 29 B1 A2 AF AF 4F 5D 1E 40 0B 8F 97 6E 25 5E 30 FB EC 5C CE 60 4F A8 F4 88 5A 45 45 05 97 
CB 25 AB 04 4F 9F 3E DD 85 C2 F0 E1 C3 F9 3F 62 60 60 30 60 C0 00 7F 7F FF BC BC 3C 11 4B C1 8B 
12 05 76 3F 6B B3 D4 42 7E D9 FC 2D 31 15 87 6D E7 4F 30 1F C1 F0 8D D9 34 B2 62 C5 0A 49 57 A1 
59 60 E8 DC 6D C0 5F 35 5B 83 B9 6C F6 FD 49 BF E5 46 C7 37 41 B9 43 87 D2 B9 20 F6 E3 3F F7 12 
AE 3C C0 61 A3 3E DD 2D 27 0D A1 31 F3 E6 06 3D A2 A6 A4 A4 44 5D F7 AC A4 A4 A4 A9 A9 A9 A9 A9 
A9 A2 A2 12 15 15 55 9B 3F D5 C9 93 27 57 55 55 5D B9 72 45 C4 52 2A 2A 2A 10 42 7A 7A 7A 22 A6 
FF 74 35 20 F6 D4 35 1C D6 6C 6F E2 E2 03 DF D2 7A 40 6F DF 47 AA E9 38 63 64 D7 EF 93 06 95 45 
25 37 87 2D 28 4A C9 90 68 8D EA 47 69 66 6E C8 4F 1B 71 58 56 41 BE FF E1 75 CC 1E 81 A1 67 5F 
3E 8B C5 52 57 57 2F 2F 2F E7 72 B9 2C 16 6B E2 C4 89 13 27 4E 44 08 A5 A6 A6 B6 6D DB B6 B6 4F 
8D 19 33 66 E1 C2 85 17 2F 5E 9C 3C 79 B2 28 A5 54 56 56 2A 2A 2A 6A 6A 6A F2 DF C2 96 DA BF F7 
BF 3E 7C F9 9F 1D 57 9A 51 9D DC 77 5C E5 B7 62 96 0C CB 62 8C FB 81 8B 31 F5 7E 30 00 C0 58 F7 
4F 1C 29 43 76 4D 85 CD 38 6C 31 66 90 9C B2 74 78 03 FE 72 2F B4 D0 D8 01 19 23 84 90 BE 83 FD 
E9 17 85 E8 C5 4B 49 57 8A 17 79 79 D9 9F 67 D2 B3 CB 95 36 67 23 16 16 16 6F DE BC C9 C9 C9 D1 
D5 D5 25 91 45 45 45 42 3E A2 A9 A9 39 64 C8 90 9B 37 6F 7E FD FA B5 CE FC BF 7D FB 96 99 99 D9 
B5 6B 57 21 C3 76 C1 2F 73 11 CA FD BF 28 5D 6B A4 8B 10 42 1F 23 F8 6E 01 40 BD 90 33 42 16 46 
E4 2A 3A 24 59 82 75 A9 1F 2C 03 64 61 80 83 F1 39 08 DD FF 28 D9 EA 08 84 5D 5D F1 22 60 F7 D9 
B3 67 1B 9F 15 6D B3 9F 78 C3 60 64 64 24 35 F2 F5 EB D7 C2 3F 35 79 F2 64 0E 87 F3 EF BF FF D6 
99 7F 48 48 08 9B CD 1E 3D 7A B4 C0 BB E6 E6 E6 DB B6 49 C6 57 0C 00 00 8D 47 41 41 01 77 EF 1A 
0F 6D 96 9A BB BB FB AE 5D BB 7C 7C 7C C8 E2 26 2E 97 FB CF 3F FF 08 FF D4 B0 61 C3 D4 D4 D4 2E 
5D BA 24 3C 59 5E 5E DE CA 95 2B 65 64 64 C6 8D 13 BC C4 CC D4 D4 74 C5 8A 15 61 0B AE 35 A0 E6 
00 20 3A 5C 36 A7 34 33 87 C3 AE F1 B0 20 A7 A4 A0 AC A3 D5 4C 87 A8 B8 DC D2 AC 3C 76 65 8D 53 
09 C5 56 6A 0A 1A 62 F1 A0 4B 0B CA 8A 72 02 67 14 1B 00 6D A2 36 70 E0 C0 BE 7D FB FA FB FB 2F 
5E BC 78 C2 84 09 D5 D5 D5 27 4F 9E BC 7D FB B6 B1 B1 B1 90 4F A9 A8 A8 8C 1A 35 4A A0 CD 79 EB 
D6 AD 8C 8C 0C 84 50 4A 4A 4A 68 68 68 46 46 C6 C6 8D 1B F9 FD 82 52 B9 76 54 B0 1D 07 00 34 52 
F0 31 E9 72 DF 69 A5 99 35 A3 19 86 4E 5D 47 DC 3E AA A8 D5 EC E6 55 FC A7 FD F1 E1 FA 2D 1C 36 
72 E9 3E F6 E6 69 16 9F AF 76 46 42 5B F7 93 C5 62 5D BF 7E 7D E8 D0 A1 87 0F 1F 76 75 75 1D 38 
70 E0 F5 EB D7 7D 7D 7D 3B 77 EE 2C FC 83 53 A6 4C 11 18 1F 1A 1A EA E3 E3 E3 E3 E3 73 E7 CE 9D 
B6 6D DB 9E 3B 77 4E AC A7 1F 02 80 88 68 5A 9A 8D F2 3F 41 54 EC EB B3 88 CB 2E 53 8B D3 32 25 
5B 2B 1E 22 76 9F FA 70 AE 46 D1 D4 8C 0D 86 5C DA D7 42 14 0D 21 C4 C2 F3 86 34 12 1F 1F 1F 1B 
1B 2B 2F 2F EF E0 E0 D0 BA 75 EB CC CC CC AA AA 2A E1 F6 1A 00 48 1D D9 91 71 37 3C E7 95 66 E4 
E0 4B 75 53 A3 51 FE 27 9A C9 C6 A3 E4 80 67 37 87 CC C7 AE 38 64 95 14 C7 85 F8 B5 A8 23 BA E9 
17 35 00 68 21 14 7E 4A BE EE 31 AF F0 53 CD 34 A8 B2 6E EB 61 D7 0F 4A DC EF 45 66 F8 DB 6B 03 
7F 20 07 C7 0C 3A B9 A5 E3 AC 96 35 2C C3 28 8F 97 00 D0 94 B4 B2 30 19 FF E4 9C 6E 17 6B 7C 59 
96 9D 77 B5 FF CC 77 47 EB B1 F3 8F 76 72 A2 E2 6E 78 CE 27 8A D6 F9 E7 69 2D 4D D1 10 58 6A 00 
D0 48 2A 0B 8B 6E 8D 5C 9C 16 F2 DF 72 D6 8E 33 46 F6 3B B8 B6 E9 3D C5 67 BC 78 7B C3 73 5E 45 
FE 37 7C 69 31 CA CD F3 D2 BE 16 E8 37 10 44 0D 00 1A 0B BB BC E2 D1 02 6F 72 A0 0F 42 A8 95 85 
89 C7 D9 1D 06 8E 75 CC 92 D1 C8 97 7B A1 F7 26 FE 46 6C B4 B6 03 7B 8F B8 7D 94 6C C5 6F 51 88 
45 D4 B2 B3 B3 AB AA AA 0C 0D 0D EB 74 DA C1 E5 72 BF 7E FD AA AA AA 4A 3D C1 28 36 36 96 CD 66 
9B 9B 9B AB A8 FC 9F 23 01 0E 87 F3 FE FD 7B 84 90 A5 A5 A5 82 42 4B FC 6F 01 CD 99 B7 87 CE 87 
2E DD CA A9 AA F1 38 CF 92 95 ED FC F3 D4 DE 1B 7F 15 BB 3F 0C 2E F7 F5 0E DF 67 6B F6 12 6F 34 
26 EE CE C3 AE 1D 94 53 91 8E 5D 5C B4 43 F3 98 5A 54 54 54 B7 6E DD F4 F4 F4 DA B4 69 63 6A 6A 
2A C4 5D 1A 97 CB 3D 76 EC 98 81 81 41 9B 36 6D 34 35 35 BB 77 EF 1E 16 16 86 6F 2D 5A B4 C8 CE 
CE 8E 7F 45 6E 4C 4C 8C 9D 9D 9D 8B 8B 8B 38 0E 0D 03 80 46 62 BF 78 CA F8 27 E7 34 DB D7 9C 2A 
C0 65 B3 23 F7 FA 9D B5 19 F6 F1 E2 5D 24 B6 FE 50 69 46 CE CD 61 0B 9E AE F4 21 8A 66 31 7A E0 
F0 9B 87 5B AC A2 21 7A 45 2D 37 37 77 F0 E0 C1 9F 3E 7D 5A BF 7E BD 97 97 57 61 61 E1 B8 71 E3 
5E BC 78 21 30 B1 9F 9F DF 82 05 0B 0C 0D 0D B7 6D DB B6 62 C5 8A B8 B8 38 77 77 F7 E4 E4 64 84 
90 A7 A7 27 42 28 38 38 98 E7 23 41 41 41 08 21 0F 0F 0F 39 39 DA D6 0C 03 00 8D E8 F7 B2 9F 1C 
71 AD D3 0F 63 49 4C 51 F2 D7 FB 93 7F FF C7 61 62 72 C0 33 7A CB E2 72 38 EF 4F 5E 3D 67 37 82 
EA E2 AD DB B2 1F 86 5C DA DB 32 7B 9D FF C1 A5 8F 3F FF FC 13 21 74 FC F8 71 7C 79 F9 F2 65 84 
D0 C8 91 23 05 26 B6 B6 B6 56 50 50 C8 CB CB C3 97 7B F7 EE 45 08 AD 5A B5 8A CB E5 BE 7B F7 0E 
21 64 66 66 C6 F3 11 BC F1 F3 F4 E9 D3 34 D6 19 00 C4 41 72 C0 B3 53 16 EE FB 90 35 F5 EF 42 B7 
31 1F 2E DC A9 AE A8 6C 7C FE 49 F7 1F 5F E8 31 8E 9A F9 61 D5 AE B1 67 6E 34 3E 67 06 40 E7 98 
5A BF 7E FD C2 C3 C3 B3 B2 B2 D4 D5 D5 11 42 D5 D5 D5 C6 C6 C6 D5 D5 D5 D9 D9 D9 3C 83 6B 55 55 
55 8A 8A 8A 9D 3B 77 8E 88 88 C0 31 C1 C1 C1 FD FB F7 1F 31 62 C4 8D 1B 37 B8 5C AE 89 89 49 6A 
6A 6A 62 62 A2 99 99 19 4E C0 E1 70 74 75 75 F3 F3 F3 33 32 32 44 77 A9 06 00 92 A2 BA AC FC F5 
0E DF 37 BB FE AE 2A 2E A5 C6 2B EB 68 59 4D 1D 6E 39 69 88 7E 2F BB FA 9E 22 5C 51 50 94 70 E5 
C1 DB 83 67 B3 23 E3 A8 F1 06 0E F6 EE 7E DB 35 2D CD 1A 5F 6D 06 40 5B 3F AE BA BA FA D5 AB 57 
6D DB B6 C5 8A 86 10 92 93 93 33 37 37 7F FE FC 79 5A 5A 1A CF 8E 02 0E 87 73 FE FC 79 1D 1D 1D 
12 93 99 99 89 10 C2 D3 05 2C 16 6B C8 90 21 7F FD F5 57 48 48 08 11 B5 B7 6F DF E6 E5 E5 F5 EA 
D5 0B 14 0D 90 0A E4 94 95 1C D6 2F B6 FB 71 E2 8B 0D 87 DE 9F BC 4A 0E A3 2A CB C9 8F DC E7 17 
B9 CF 4F 59 B7 B5 89 BB B3 61 EF 2E FA BD EC B4 6D 3B D4 E6 9D 8D 5D 5E 91 F3 EE 63 FA E3 D7 29 
8F C2 52 02 9F F3 1C 6A A5 D0 4A BD D7 DA 85 5D 7E 9D D1 02 97 6E D4 06 6D A2 96 92 92 52 5A 5A 
8A 8F 11 20 E0 CB A4 A4 24 1E 51 53 54 54 9C 34 69 12 B9 E4 70 38 57 AF 5E 45 08 4D 98 30 01 C7 
78 7A 7A FE F5 D7 5F C1 C1 C1 33 67 CE C4 31 78 40 6D C8 10 26 BB 21 06 98 87 8A 81 4E FF 23 EB 
7B AD 5D 18 B1 D7 2F FA D8 3F 95 DF FE 3B 61 A3 2C 3B EF C3 B9 5B 64 87 A6 8A BE B6 BA 69 1B 05 
0D 55 05 35 15 19 79 F9 F2 FC C2 EA D2 F2 E2 94 AF 45 A9 99 02 E7 19 64 95 14 3B CD 1E E3 E8 BD 
58 59 0F 8E DD F8 3F 68 13 35 7C 1E 0A CF 10 3E EE 75 62 37 DC 02 79 F9 F2 E5 C1 83 07 23 23 23 
3F 7F FE BC 7B F7 6E 7C 1E 28 42 C8 CD CD 4D 5E 5E 9E 3A 57 00 A2 06 48 2F AA 46 7A 7D 76 2C 73 
58 BF 38 E1 CA 83 F7 7F 5F 49 7F FC 9A CB E1 F0 A4 29 CD CC 25 9E 3F 84 A3 A2 AF DD 69 F6 98 2E 
BF CE 50 31 D0 A9 3B 75 CB 83 36 51 2B 2B 2B 43 08 B1 BF CF 2B 63 F0 80 9D 10 51 4B 4A 4A C2 87 
AE AB A8 A8 24 25 25 55 56 56 E2 05 68 EA EA EA 7D FB F6 7D F8 F0 61 52 52 92 99 99 19 9B CD 0E 
0D 0D D5 D5 D5 ED DE BD 3B 5D 15 06 80 26 46 5E 55 B9 E3 8C 91 1D 67 8C 2C CD CC 4D BA 1B F2 E5 
DE E3 F4 A7 6F 44 3F FB BD 95 85 89 71 FF 5E 1D C6 0F 6E EB E6 D8 72 5C 6E 34 04 11 27 14 E2 E3 
EB 38 41 E7 C4 89 13 08 21 17 17 17 EA A7 F0 89 38 0F 1F 3E 14 92 73 75 75 75 7C 7C 3C F6 FE B8 
78 F1 62 12 BF 6B D7 2E 84 D0 A9 53 A7 B8 5C EE CB 97 2F 11 42 33 66 CC 10 B1 B6 EB D7 AF E7 A9 
DE FA F5 EB 85 DC E5 A7 A4 A4 84 A4 9F 36 6D 9A F0 C4 06 06 06 D4 D2 7B F7 EE 2D 3C BD B3 B3 33 
35 BD BE BE BE F0 F4 D4 07 17 E5 84 C0 0D 1B 36 90 F4 51 51 51 75 A6 3F 73 E6 0C 49 8F C7 01 84 
F3 EC D9 33 9E 7F 93 70 32 33 33 49 7A FE 93 AD 79 50 53 53 A3 36 8E BB BB BB F0 F4 9D 3B 77 A6 
A6 B7 B0 B0 10 9E 7E F4 E8 D1 D4 F4 75 56 7E D9 B2 65 24 F1 E7 CF 9F EB 4C 7F E4 C8 11 92 3E 20 
20 A0 CE F4 77 CF FF FB E9 7A E0 9B DD A7 82 7F DE 74 A0 DB F0 45 A8 ED 12 64 FA 3B 32 5B 84 DA 
CE 45 6D 26 21 03 37 A4 6D 8F D4 35 BF DB 1F 09 09 09 24 FF E5 CB 97 D7 99 3F F5 61 C7 8C 19 23 
3C B1 B9 B9 39 35 BD C0 13 7B A9 0C 1A 34 88 9A 9E 8C A7 D7 C6 82 05 0B 48 62 E1 5F D2 C6 20 EA 
EC 67 7E 7E BE AF AF AF 90 04 8E 8E 8E 2E 2E 2E 7D FB F6 0D 09 09 21 91 9E 9E 9E F7 EF DF 0F 0B 
0B 73 70 70 10 9E 7F 61 61 A1 9E 9E 1E 8B C5 2A 2A 2A 92 97 97 47 08 C5 C6 C6 76 EA D4 69 D6 AC 
59 27 4F 9E DC B9 73 E7 1F 7F FC 71 F1 E2 45 BA 1C FE 02 00 C0 54 44 ED 7E 6A 69 69 09 3F 5D B5 
A2 A2 42 5E 5E 9E C7 8E C8 CE CE 46 08 19 18 18 F0 24 8E 8E 8E BE 7E FD BA A3 A3 E3 C0 81 03 71 
4C AB 56 AD 8C 8D 8D 3F 7F FE 9C 95 95 D5 A6 4D 1B 84 90 B5 B5 B5 A9 A9 29 1E 56 0B 0A 0A 92 91 
91 A9 F3 47 1B 00 18 43 58 58 98 A3 A3 A3 A4 6B 21 95 D0 B6 A3 00 AF 3B C3 1D 0D 1C C3 E1 70 52 
53 53 F5 F4 F4 4C 4C 4C 78 12 A7 A5 A5 AD 5D BB F6 F6 ED DB D4 48 59 59 59 19 19 19 72 18 15 5E 
D8 91 94 94 94 90 90 F0 F8 F1 63 27 27 27 38 30 1C 68 39 FC F1 C7 1F 1C BE C9 04 40 14 E8 DC 26 
E5 EA EA 9A 96 96 16 1A 5A B3 69 23 30 30 30 33 33 D3 C9 C9 09 CF 81 96 95 95 15 14 14 94 96 96 
22 84 AC AC AC 10 42 A1 A1 A1 E4 DF 96 9C 9C FC F9 F3 67 5B 5B 5B EA 4E 75 BC 5F CA C7 C7 A7 B8 
B8 18 E6 3D 81 96 43 6A 6A EA E3 C7 8F C9 D2 74 A0 7E D0 32 32 87 49 4A 4A 52 55 55 B5 B2 B2 3A 
77 EE DC 85 0B 17 3A 74 E8 80 10 0A 0E 0E C6 77 57 AC 58 81 28 53 01 78 CC 72 F4 E8 D1 FF FC F3 
8F 9F 9F 9F 8D 8D 0D 42 E8 D2 A5 4B D4 0C 8B 8B 8B 89 C6 45 46 46 D2 58 55 00 68 CE E0 69 B7 AD 
5B B7 4A BA 22 52 09 9D A2 C6 E5 72 FD FD FD C9 5C 9E AA AA EA D1 A3 47 C9 2D 1E 51 CB CF CF 1F 
35 6A 14 D1 56 55 55 D5 13 27 4E 70 38 1C 9E 0C F1 38 9A 91 91 11 FF 2D 00 60 2A E3 C7 8F 47 08 
0D 18 30 40 D2 15 91 4A E8 F7 A7 56 5A 5A 1A 1D 1D 5D 59 59 69 6B 6B AB A9 A9 29 3C 71 5E 5E 5E 
74 74 B4 B6 B6 B6 A5 A5 25 9E F4 04 80 16 0E 9B CD D6 D3 D3 CB CB CB 53 50 50 C8 CD CD 55 53 6B 
BE 87 75 36 4F C0 F3 2D 00 34 2F C2 C2 C2 C8 52 C7 BB 77 EF E2 91 65 40 74 C0 DB 22 00 34 2F FC 
FD FD 49 58 94 E5 BB 00 0F 20 6A 00 D0 BC 78 F0 E0 81 C0 30 20 22 D0 FD 04 80 66 44 41 41 81 AE 
AE 6E 75 75 35 89 49 49 49 81 B3 C0 EB 05 58 6A 00 D0 8C 78 F8 F0 21 55 D1 10 42 81 81 81 92 AA 
8C 94 02 A2 06 00 CD 08 EA 80 1A 06 86 D5 EA 0B 74 3F 01 A0 19 61 6E 6E 9E 98 98 48 8D D1 D1 D1 
C9 CC CC 84 13 D4 44 07 5A 0A 00 9A 0B 71 71 71 3C 8A 86 10 CA C9 C9 11 C5 7F 14 40 00 51 03 80 
E6 02 99 EB 34 34 34 44 08 B5 6B D7 0E 5F 42 0F B4 5E 80 A8 01 40 73 C1 DF DF 5F 5E 5E FE 97 5F 
7E 89 8B 8B 43 08 C5 C4 C4 AC 5F BF 5E 49 49 09 44 AD 5E 80 A8 01 40 B3 A0 B2 B2 52 5E 5E 3E 22 
22 62 DF BE 7D 1A 1A 1A 08 21 65 65 65 6F 6F EF 98 98 18 43 43 43 EC DE 06 10 05 98 28 00 80 66 
01 87 C3 A1 CE 06 B0 58 FF F7 DD E4 B9 0B 08 01 44 0D 00 9A 23 3C A2 06 88 0E 68 3F 00 00 8C 02 
44 0D 00 00 46 01 A2 06 00 00 A3 00 51 03 00 80 51 80 A8 01 00 C0 28 40 D4 00 00 60 14 20 6A 00 
00 30 0A 10 35 00 00 18 05 88 1A 00 00 8C 02 44 0D 00 00 46 01 A2 06 00 00 A3 00 51 03 00 80 51 
80 A8 01 40 73 64 FD FA F5 92 AE 82 B4 02 9E 00 00 00 60 14 60 A9 01 00 C0 28 40 D4 00 00 60 14 
20 6A 00 00 30 0A 10 35 00 00 18 85 9C A4 2B D0 70 62 63 63 5D 5D 5D E5 E5 E5 A3 A3 A3 35 35 35 
05 A6 C9 CF CF F7 F5 F5 C5 E1 29 53 A6 18 19 19 ED DD BB 77 D3 A6 4D CE CE CE 37 6E DC 10 A5 94 
D4 D4 D4 8B 17 2F F2 C7 2B 2B 2B 77 EC D8 B1 5F BF 7E B2 B2 B2 0D 7E 04 7A E1 7F 58 DA B3 A5 A2 
AC AC EC E8 E8 D8 B9 73 67 39 B9 FF 7B 8B 4A 4B 4B 0F 1F 3E 8C C3 63 C7 8E 25 E7 BC 21 84 E2 E2 
E2 C2 C3 C3 B3 B3 B3 2D 2D 2D 87 0F 1F 2E 24 B2 99 23 E4 19 69 FC 2C F5 DD 73 77 77 B7 B7 B7 27 
B7 42 43 43 C3 C3 C3 71 78 E1 C2 85 AA AA AA 4D 53 F9 E6 53 84 30 B8 D2 09 87 C3 E9 D7 AF 1F 42 
68 DE BC 79 42 92 C5 C7 C7 93 27 7D FE FC 39 97 CB 4D 4B 4B C3 32 14 10 10 20 4A 41 8F 1F 3F 16 
D2 7A 9D 3A 75 8A 8F 8F A7 E7 91 1A 0D FF C3 D2 9E 2D 3F 36 36 36 31 31 31 D4 F4 D9 D9 D9 E4 EE 
BD 7B F7 48 FC EE DD BB 59 2C 16 8E 9F 38 71 A2 90 C8 66 C5 EB D7 AF 27 7E 27 27 27 07 47 D6 F6 
8C A2 20 FA 67 A9 EF DE F1 E3 C7 A9 B7 56 AC 58 41 6E 7D FD FA 55 4C 15 68 30 4D 50 84 10 A4 B5 
FB 79 F6 EC D9 90 90 10 84 D0 E2 C5 8B EB F5 41 23 23 A3 11 23 46 20 84 56 AC 58 C1 E1 70 1A 59 
8D F7 EF DF 8F 1D 3B 96 DB 82 97 C5 C4 C4 C4 0C 1E 3C 98 FA 12 0B 84 C3 E1 78 79 79 F1 34 94 C0 
C8 E6 46 7A 7A FA 3F DF 29 2B 2B 93 74 75 80 BA 91 CA EE 27 97 CB DD BC 79 33 42 A8 6D DB B6 54 
9B 5C 44 A6 4C 99 72 ED DA B5 37 6F DE DC B8 71 63 F4 E8 D1 A2 7F 70 EA D4 A9 7D FA F4 29 2B 2B 
4B 4C 4C F4 F3 F3 2B 2C 2C 44 08 BD 7D FB 36 28 28 68 C0 80 01 F5 AD 86 34 32 74 E8 D0 61 C3 86 
71 B9 DC F7 EF DF 9F 3F 7F 3E 2F 2F 0F 21 94 92 92 B2 67 CF 9E 2D 5B B6 E0 34 8A 8A 8A 73 E6 CC 
C1 61 63 63 63 1C F8 FA F5 2B 39 B9 D2 D7 D7 D7 CD CD AD B6 48 A9 40 E0 33 4A 0B 52 5D 79 51 90 
4A 51 0B 09 09 F9 F0 E1 03 42 C8 D3 D3 93 74 5E A8 E0 1F 7F 81 B7 10 42 6E 6E 6E 32 32 32 1C 0E 
E7 D8 B1 63 F5 12 35 57 57 D7 B9 73 E7 92 F0 D8 B1 63 71 F8 DE BD 7B 3C A2 C6 E5 72 6B 2B BD 01 
C9 EA CC 04 D5 FE B0 F4 96 D8 A3 47 8F 05 0B 16 E0 F0 C8 91 23 07 0D 1A 84 C3 D7 AF 5F 27 A2 A6 
AE AE 7E E2 C4 09 9E 0F 16 15 15 91 B0 BD BD BD A9 A9 69 6D 91 F4 56 B8 5E 39 88 DE 92 02 9F B1 
C1 E5 8A 0F 81 4F 24 4A E5 91 68 F5 6F CC 33 8A AF 7D A4 B2 FB F9 D7 5F 7F E1 80 B3 B3 33 CF AD 
94 94 94 61 C3 86 69 6A 6A AA AA AA 4E 98 30 A1 A0 A0 80 FF E3 5A 5A 5A 0E 0E 0E 08 A1 07 0F 1E 
24 25 25 35 AC 0E 2E 2E 2E 24 9C 9A 9A 8A 03 8F 1E 3D 1A 33 66 8C B9 B9 B9 A2 A2 A2 9E 9E 9E 8B 
8B CB 85 0B 17 F8 BB 57 41 41 41 9E 9E 9E 26 26 26 72 72 72 DA DA DA EE EE EE 57 AE 5C 21 C9 AE 
5F BF 3E 6B D6 AC 59 B3 66 2D 5B B6 0C C7 24 26 26 CE FA 0E 29 4B C4 87 C5 5C BA 74 69 C0 80 01 
3A 3A 3A B2 B2 B2 DA DA DA AE AE AE FF FE FB 6F C3 1E 9C 30 70 E0 C0 F6 ED DB E3 70 6C 6C 2C E9 
9A 15 15 15 91 DA BE 7B F7 0E 21 74 EF DE BD 55 AB 56 91 0F 7A 7B 7B 1F 39 72 44 60 A4 88 4D 84 
10 7A F0 E0 01 2E C2 DB DB 1B 21 74 F7 EE 5D 67 67 E7 27 4F 9E 88 9E 43 60 60 20 CE E1 C7 1F 7F 
CC CA CA 9A 36 6D 9A A1 A1 A1 96 96 D6 88 11 23 12 12 12 70 9A 63 C7 8E ED D9 B3 87 7C 64 E9 D2 
A5 97 2E 5D 12 F8 8C 98 92 92 12 2F 2F 2F 27 27 27 03 03 03 59 59 D9 D6 AD 5B 0F 1C 38 F0 F2 E5 
CB 0D 6F E5 FA 20 CA 13 D5 56 79 EA 5B 17 1F 1F DF A7 4F 1F 05 05 85 36 6D DA 2C 59 B2 A4 A2 A2 
82 A7 A0 06 BF 4E A2 B4 4F 9D FF D9 BA 69 CA 01 3C 5A E0 70 38 DA DA DA B8 F2 CF 9E 3D E3 B9 65 
63 63 43 7D BA 3E 7D FA 90 30 75 EC 9C 8C C4 6D DB B6 4D 78 71 B5 0D D6 66 64 64 90 F8 49 93 26 
71 B9 DC 83 07 0F 0A 6C E1 25 4B 96 50 33 DC B5 6B 97 C0 64 3E 3E 3E 38 01 D9 F4 67 6A 6A 8A 63 
5E BE 7C 49 92 BD 7B F7 AE BE 0F BB 63 C7 0E 81 25 EE DE BD 5B 94 06 A7 4E 14 AC 5F BF 9E 7A 6B 
E2 C4 89 E4 16 19 AE E6 1F 24 DE B9 73 27 4F D1 13 27 4E 14 18 29 62 13 71 B9 5C A2 35 DD BB 77 
3F 7F FE 3C 0E 93 C9 1F 51 72 38 70 E0 00 8E 54 56 56 EE DF BF 3F 35 99 95 95 55 79 79 39 97 CB 
9D 3A 75 2A 4F 0E 2B 56 AC 10 F8 8C 5C 2E B7 B8 B8 D8 C2 C2 42 60 B9 07 0E 1C 20 E5 8A 6F A2 40 
94 27 AA AD 02 E4 AD 33 32 32 EA D4 A9 13 F5 B3 4B 97 2E A5 16 2D CA EB D4 98 F6 11 FE 9F 15 05 
E9 B3 D4 12 12 12 72 73 73 71 98 58 0A 98 A0 A0 A0 98 98 18 1C B6 B5 B5 1D 31 62 44 58 58 98 C0 
4C C8 07 5F BC 78 D1 B0 6A BC 7E FD 9A 84 3B 76 EC 58 55 55 B5 7C F9 72 7C A9 A3 A3 33 65 CA 94 
8E 1D 3B E2 CB 03 07 0E 7C FC F8 11 87 D3 D2 D2 D6 AE 5D 4B 6A 38 6B D6 AC 0E 1D 3A E0 CB 1D 3B 
76 B0 D9 6C D1 2B 20 E2 C3 96 97 97 AF 5B B7 0E 87 DB B5 6B 37 75 EA 54 32 BF EE E5 E5 55 59 59 
29 7A 89 FC 18 1A 1A 92 30 B5 2F C9 83 B6 B6 36 F5 3F 65 6E 6E 6E 6C 6C 2C 30 12 D5 BF 89 CA CB 
CB 7F FF FD 77 6A 4C 7D 73 28 2B 2B 0B 0A 0A A2 AE 80 F9 F0 E1 C3 F3 E7 CF 11 42 C6 C6 C6 D4 4E 
B1 A5 A5 A5 BE BE 7E 6D 8F 79 E8 D0 A1 4F 9F 3E E1 F0 90 21 43 66 CE 9C 49 F2 DC B1 63 47 E3 67 
A5 44 47 C8 13 D5 49 7A 7A 7A 46 46 C6 84 09 13 74 75 75 71 8C AF AF 2F 19 FA 6C CC EB 54 DF F6 
E1 FF CF 8A 8A E8 FA D7 4C F0 F3 F3 C3 35 57 55 55 E5 70 38 D4 5B 3E 3E 3E F8 96 8A 8A 4A 51 51 
11 97 CB DD B0 61 03 79 52 AA F1 72 F3 E6 4D 1C 69 6C 6C 2C BC 38 FE 5F CB B2 B2 B2 A7 4F 9F 5A 
5A 5A 92 F8 EB D7 AF BF 7F FF 9E 5C 5E BD 7A 95 CB E5 16 16 16 2A 29 29 E1 98 53 A7 4E E1 DC F6 
ED DB 87 63 B4 B4 B4 4A 4B 4B B9 5C 6E 76 76 B6 8C 4C CD 4F 4B 70 70 30 57 64 4B 4D C4 87 25 76 
BB A2 A2 22 5E 91 90 9D 9D 4D 56 96 BD 7C F9 B2 CE 06 17 62 A9 AD 5E BD 9A DC 7A F5 EA 15 8E 14 
F8 2B 1D 1B 1B 4B 22 49 A1 02 23 45 69 22 2E E5 F7 9C 0A FE 3D 17 31 07 62 D7 20 84 0E 1E 3C C8 
E5 72 AF 5E BD 4A 62 4E 9E 3C 89 93 05 04 04 90 C8 94 94 14 21 CF 88 67 D5 11 42 0B 17 2E C4 31 
F7 EE DD 23 C9 72 73 73 85 7C 56 20 0D B6 D4 84 3F 91 70 4B 0D 7D 7F 79 EE DE BD 4B 62 A2 A3 A3 
71 32 11 5F A7 C6 B4 8F 90 FF AC 88 48 9F A5 46 46 C1 34 34 34 78 06 1A C9 78 93 89 89 89 9A 9A 
1A 12 34 E8 AC 4C EB 7A 00 00 15 94 49 44 41 54 86 D1 D2 D2 22 1F C1 53 78 A2 30 6F DE 3C 16 8B 
A5 AC AC EC EC EC 4C 8C 2F 4B 4B CB A1 43 87 EA E9 E9 91 64 D8 80 D2 D0 D0 E8 D7 AF 9F 8D 8D 8D 
8D 8D 0D 19 95 48 4B 4B 23 35 54 56 56 46 08 E9 E8 E8 90 9F C4 C4 C4 44 11 6B 82 44 7E 58 F2 FB 
6C 6A 6A 8A BB ED 3A 3A 3A E4 17 B2 36 4B 56 44 F0 23 60 4A 4A 4A 1A 93 15 A1 01 4D 64 6F 6F 1F 
10 10 90 92 92 82 3B E0 0D C8 61 F6 EC D9 08 A1 BE 7D FB 92 98 F2 F2 F2 FA D6 BC 43 87 0E 43 87 
0E 1D 3A 74 E8 90 21 43 70 4C 66 66 26 B9 FB ED DB B7 FA 66 D8 18 1A FC 44 B2 B2 B2 BD 7A F5 42 
08 51 07 37 C8 CB D6 98 D7 A9 01 ED C3 F3 9F 15 11 E9 9B FD CC CF CF C7 01 15 15 15 9E 5B 44 9E 
74 74 74 70 A0 B6 CE 02 F5 DB 98 9F 9F DF BA 75 EB 86 55 C6 C2 C2 E2 D6 AD 5B 78 28 DA C9 C9 E9 
D9 B3 67 08 A1 75 EB D6 95 97 97 AF 5F BF FE FE FD FB 3C E9 C9 2F 98 8C 8C CC AB 57 AF 70 98 18 
DE F5 7A EF 45 7C 58 32 F6 47 BD AB AF AF 9F 9C 9C 8C 28 6F D5 EE DD BB 89 4C 63 A6 4C 99 42 FD 
4A 08 84 4B 19 77 A7 6B 67 45 03 9A E8 FC F9 F3 D4 6F 60 7D 73 50 56 56 C6 EF 52 EB D6 AD E5 E5 
E5 AB AA AA 1A 56 73 EA 40 5E 71 71 F1 F6 ED DB B7 6E DD DA B0 AC 1A 49 63 9E 48 47 47 07 5B B5 
D4 17 86 34 A9 88 AF 93 40 1A D0 3E 3C FF 59 11 91 62 51 A3 0A 13 0F E4 0B 46 3A 80 3C 50 3F 2B 
BA 94 E8 E8 E8 B4 6A D5 0A 21 D4 BA 75 EB B6 6D DB 8E 1E 3D 7A D2 A4 49 C4 F6 F6 F1 F1 E9 D7 AF 
5F 65 65 25 97 CB DD BC 79 F3 BD 7B F7 FC FC FC 78 FE 25 E4 AB 15 11 11 D1 B3 67 4F 9E FC 85 0C 
4B 09 41 F8 C3 92 DF 67 D2 FF A2 86 C9 DD 9B 37 6F E2 C5 CC 84 2E 5D BA D4 29 6A D4 31 14 9E CD 
52 0D A6 BE 4D A4 AA AA CA 33 B0 5D DF 1C 48 6B B0 58 2C 6A 2B 35 8C 9C 9C 9C AD 5B B7 FA FA FA 
E2 65 8C 12 A1 31 4F 44 DE 22 81 BF 52 22 BE 4E 42 10 BD 7D F8 FF B3 22 22 7D DD CF EA EA 6A 1C 
10 22 6A 75 42 ED B7 8A 2E 6A 5B B7 6E 4D 48 48 48 48 48 08 0F 0F BF 72 E5 CA B4 69 D3 A8 DF 64 
47 47 C7 AB 57 AF AA AB AB E3 CB 37 6F DE 74 EB D6 8D AC 3E 11 05 AE 18 D6 D6 F3 CF C7 8B 7E B7 
4E A8 A2 56 DB EF 07 BD F0 37 91 92 92 52 BD 96 3B 89 A3 91 09 D7 AE 5D B3 B4 B4 DC BD 7B 77 61 
61 A1 BC BC FC B8 71 E3 C4 57 96 44 68 E4 EB 54 AF F6 A9 EF 7F 96 20 7D 96 1A 51 8D C6 F4 77 C8 
6C 0E A2 FC B0 37 9E A1 43 87 BE 7E FD 7A FA F4 E9 78 52 B5 B2 B2 F2 C7 1F 7F FC FA F5 2B BF 6B 
66 4B 4B 4B 32 5B 4A E8 DE BD 3B 5D 35 21 08 FF 0E 93 67 5F BE 7C F9 B4 69 D3 A8 B7 6A 1B 8E A4 
42 5D 19 D7 A6 4D 9B 06 55 B0 56 1A DF 44 4D D6 C8 98 37 6F DE 4C 9E 3C 19 7F B1 3B 77 EE EC E7 
E7 97 9B 9B 4B D7 22 35 9E FF A3 58 A5 59 F4 6A F0 20 FC AB 24 D6 F6 A1 22 7D A2 A6 A1 A1 81 03 
8D D9 88 47 FD 2C 99 34 A0 85 0E 1D 3A 3C 79 F2 64 FB F6 ED 1B 36 6C C0 63 19 DE DE DE EE EE EE 
BD 7B F7 46 08 29 28 28 E0 64 86 86 86 64 73 42 9D 34 E6 0D C6 73 08 B5 41 1A 73 E8 D0 A1 0D C8 
3C 2A 2A 0A 07 94 94 94 C8 E2 C1 46 D2 B0 26 A2 37 87 86 71 E8 D0 21 FC 8D B5 B3 B3 0B 0F 0F 57 
50 50 A0 CE EE 35 00 EA A8 31 CF 6A 09 6A 47 AF 5E 2E 3A 1A 89 88 AF 93 40 68 6F 9F DA 90 BE EE 
A7 10 51 23 B6 1B E9 51 D6 D6 C9 A7 5D D4 5E BE 7C 69 FB 9D 8C 8C 8C 35 6B D6 50 67 09 C8 B2 00 
32 BC 4A 3A D1 08 21 3D 3D 3D 35 35 35 35 35 B5 93 27 4F 52 F3 24 BF 7B 02 B7 0A 88 F8 B0 C4 B0 
A5 AE CF 22 86 AA F0 B7 50 38 C5 C5 C5 6F DF BE C5 61 3B 3B 3B BA B6 BC D4 AB 89 C4 94 43 C3 78 
F3 E6 0D 0E 8C 19 33 06 0B 6B 23 67 3C A9 0B CD F0 48 3C 21 25 25 05 07 D4 D5 D5 C9 BF 98 16 48 
17 92 3A E6 45 5E B6 C6 BC 4E B4 B7 4F 6D 48 9F A8 59 5B 5B E3 00 FF 88 AF 81 81 01 0E 44 47 47 
E3 6F 38 75 25 14 95 E2 E2 62 1C 90 91 91 21 93 FD 8D A1 B2 B2 32 E6 3B B8 62 FD FB F7 E7 97 4B 
52 C3 E4 E4 64 6C 7F E5 E6 E6 66 67 67 97 94 94 94 94 94 E0 49 58 A2 0E 05 05 05 F8 6B 49 DD 1A 
C5 9F 95 F0 87 25 6B 4D C8 CC 14 97 CB 25 CB 1A A8 2B 51 44 87 CB E5 26 25 25 CD 9D 3B 97 FC 36 
4C 99 32 A5 01 F9 08 44 94 26 12 77 0E B5 21 DC 64 26 8B 5A 48 53 53 37 27 35 00 5D 5D 5D A2 26 
97 2F 5F 26 BF 6D C9 C9 C9 8F 1E 3D C2 61 DA 7B FD 59 59 59 78 62 9D 4C 1C 23 4A 93 36 E6 75 A2 
BD 7D 6A 43 FA BA 9F 78 11 0D 42 E8 EB D7 AF 65 65 65 D4 E9 02 3B 3B 3B 1C A8 AA AA 5A B9 72 A5 
87 87 07 59 FD CC 03 F9 DD B3 B3 B3 E3 5F 1A D2 00 EC ED ED E5 E4 E4 B0 06 6D DE BC 79 D1 A2 45 
81 81 81 64 A2 96 EC 2E 70 77 77 C7 7B E9 53 52 52 BC BC BC DC DD DD C9 D6 62 19 19 19 EC 71 84 
48 61 51 51 91 B7 B7 B7 83 83 03 59 67 4B 45 C4 87 1D 3A 74 E8 2F BF FC 82 10 8A 8F 8F DF BC 79 
B3 8B 8B CB 93 27 4F 88 A6 0F 1E 3C B8 5E 8F B9 7F FF FE B3 67 CF E6 E4 E4 50 7F C6 15 14 14 26 
4D 9A 54 AF 7C 84 20 4A 13 89 3B 07 2A 54 0B 74 CE 9C 39 0B 17 2E AC CD 09 82 89 89 09 5E A8 7C 
F5 EA D5 41 83 06 C9 CA CA EE DF BF 9F DC 6D C0 18 82 AC AC 6C DF BE 7D 83 82 82 10 42 9F 3F 7F 
EE D9 B3 A7 87 87 07 87 C3 B9 75 EB 16 69 7F 57 57 D7 FA 66 2B 1C 0E 87 B3 60 C1 82 79 F3 E6 91 
F5 16 2C 16 8B 58 12 8D 79 9D 68 6F 9F 5A 11 7D 9D 6E 33 81 C3 E1 90 DD 39 64 A1 33 A6 A8 A8 88 
A7 CF 4F DD E3 42 DD 51 F0 D3 4F 3F E1 C8 1F 7F FC 51 78 71 42 56 75 F3 B0 64 C9 12 81 2D AC AF 
AF 4F B6 DD 71 B9 DC E9 D3 A7 0B 4C 86 37 90 72 B9 5C 9E A5 15 08 21 EA 24 11 D9 51 20 FA C3 E2 
DD FB FC B8 B8 B8 88 D2 E0 C2 9D 44 22 84 8E 1C 39 42 4D DF C8 1D 05 A2 34 11 97 B2 EE 5C 5B 5B 
9B BF CE A2 E4 40 D6 DF AB AA AA 92 48 45 45 45 9E 87 E2 59 BE 27 64 EF E7 D1 A3 47 79 8A 6B DF 
BE BD BC BC 3C 0E 0B DF 71 51 1B 8F 1F 3F 16 B2 26 43 4D 4D ED F3 E7 CF F5 7D 22 E1 3B 0A 0C 0C 
0C 78 46 12 5C 5D 5D A9 55 12 E5 75 6A 4C FB 08 FF CF 8A 82 F4 75 3F 59 2C D6 A8 51 A3 70 98 EA 
20 01 21 A4 A6 A6 F6 EF BF FF 92 66 32 30 30 A0 6E 1C A1 42 F6 A0 D5 B9 14 4B 74 76 EE DC B9 72 
E5 4A 1E A1 E9 D2 A5 8B BF BF 3F 79 B1 10 42 07 0F 1E 9C 3C 79 32 CF 7B 33 7D FA 74 B2 F8 C3 C5 
C5 65 FC F8 F1 E4 96 A5 A5 A5 C0 35 8A A2 3F EC D9 B3 67 BB 74 E9 C2 13 D9 A5 4B 97 D3 A7 4F 8B 
FA 6C 82 50 53 53 73 75 75 BD 79 F3 26 71 46 44 17 75 36 51 13 E4 40 E8 D0 A1 C3 CE 9D 3B 45 59 
3F 34 7B F6 6C 6A 37 DC C2 C2 E2 E1 C3 87 66 66 66 F8 92 BC 72 F5 A2 4F 9F 3E B7 6E DD 12 E8 0E 
DB DE DE 3E 28 28 88 76 4F D9 9D 3B 77 F6 F1 F1 21 4A 6A 64 64 F4 F7 DF 7F 53 13 34 F8 75 12 47 
FB 08 44 2A 0F 33 8E 88 88 E8 D6 AD 1B 42 68 CE 9C 39 FC 9E A1 BE 7D FB F6 E4 C9 13 0D 0D 0D 07 
07 07 F2 9D A7 C2 E1 70 8C 8C 8C 32 33 33 35 35 35 D3 D3 D3 1B B3 DE 8D 9F 82 82 82 F0 F0 F0 8C 
8C 0C 35 35 B5 4E 9D 3A 59 59 59 09 1C 41 CF CB CB 8B 8F 8F FF FC F9 B3 8E 8E 8E 8D 8D 0D CF 79 
02 5C 2E 37 22 22 E2 E3 C7 8F 5A 5A 5A FD FB F7 27 D3 79 FC D4 F9 B0 18 0E 87 F3 EE DD 3B EC 20 
48 59 59 D9 DA DA DA DE DE BE F1 0B 4D C5 8A F0 26 6A 9A 1C 08 15 15 15 E9 E9 E9 08 21 7D 7D 7D 
E1 E3 15 71 71 71 B1 B1 B1 3A 3A 3A 4E 4E 4E 74 ED B2 A8 AE AE 8E 8F 8F 4F 4A 4A 4A 4C 4C 94 95 
95 6D D7 AE 9D B9 B9 B9 85 85 05 8D FE C8 BC BD BD F1 DE 61 0F 0F 8F FB F7 EF E7 E5 E5 3D 7D FA 
54 4B 4B AB 67 CF 9E D4 9F 64 4C 63 5E 27 71 B4 0F 2F 0D 33 F0 24 4E 8F 1E 3D 10 42 6D DB B6 E5 
D9 D3 2E 0A 64 04 94 C7 29 10 00 B4 58 48 F7 D3 C3 C3 43 D2 75 69 2C CD FA B7 5A 08 5E 5E 5E 08 
A1 94 94 14 AA 07 0B 11 C1 AB 63 E4 E5 E5 EB 7B BE 01 00 00 CD 1F 69 15 B5 11 23 46 38 39 39 21 
84 8E 1D 3B 56 AF 0F B2 D9 6C 3C 46 B0 72 E5 4A 1E 77 6C 00 00 30 00 69 15 35 16 8B 85 3D 70 5E 
B8 70 41 88 1B 6B 7E 6E DE BC 99 98 98 68 6E 6E 4E F5 25 0D 00 2D 1C 35 35 35 7D 7D 7D 7D 7D 7D 
7A 37 D8 48 04 A9 9C 28 20 24 26 26 B2 D9 6C 23 23 23 D1 D7 9A 65 67 67 17 16 16 6A 6A 6A 12 8F 
3D 00 00 30 09 E9 16 35 00 00 00 1E A4 B5 FB 09 00 00 20 10 10 35 00 00 18 05 88 1A 00 00 8C 02 
44 0D 00 00 46 21 7D 5E 3A A4 82 F4 F4 74 72 0E AB 9B 9B 5B D7 AE 5D 11 42 A9 A9 A9 17 2F 5E C4 
91 76 76 76 1E 1E 1E 24 7D 70 70 30 D9 E7 B0 68 D1 22 5A 1C 87 88 09 2E 97 7B EF DE BD 0B 17 2E 
44 47 47 67 67 67 EB EA EA 76 EC D8 71 FE FC F9 02 DD 45 84 85 85 9D 3E 7D FA D5 AB 57 99 99 99 
B2 B2 B2 FA FA FA 2E 2E 2E B3 67 CF E6 F1 3D FF E5 CB 17 7C F2 39 A1 5B B7 6E 03 06 0C 20 97 B1 
B1 B1 77 EE DC A1 26 E8 D7 AF 1F FF F9 03 B5 D5 33 2B 2B 4B 55 55 55 5F 5F BF 7F FF FE 33 67 CE 
AC ED 48 DD 66 4B 7E 7E BE AF AF 2F 0E 4F 99 32 A5 31 FB BD 68 CF AD 39 22 D9 0D 0D 4C 85 7A 70 
2C 39 7D 9A EA F0 C3 D8 D8 B8 BA BA 9A A4 A7 1E DA 9A 9D 9D 2D A1 5A D7 4D 75 75 75 6D AE D3 7E 
FE F9 67 9E C4 FC 4E CC 31 0A 0A 0A 7F FF FD 37 35 25 F5 6C 4D 8C BB BB 3B 35 01 39 9C 98 B0 73 
E7 CE 86 D5 53 41 41 E1 E6 CD 9B 74 35 48 D3 40 75 94 42 F5 BF D2 1C 72 6B 86 40 F7 53 32 A4 A6 
A6 F2 1F A0 D7 FC D9 B3 67 0F B1 40 79 38 70 E0 C0 F5 EB D7 C9 E5 ED DB B7 A9 87 2B 53 C1 47 37 
F0 78 58 21 98 9B 9B 23 84 C2 C3 C3 A9 0E EF F1 99 0F 2C 16 4B 44 17 8F 42 EA 59 59 59 39 66 CC 
98 CF 9F 3F 8B 92 0F 20 8D 80 A8 49 8C FA 6E F0 92 38 D5 D5 D5 D4 D3 B3 FF FA EB AF EC EC EC CB 
97 2F 13 F7 0C 87 0E 1D 22 77 A9 87 3C AE 5E BD 3A 23 23 23 31 31 91 B8 57 AC AA AA AA CD 51 92 
A3 A3 23 42 A8 A0 A0 80 18 14 1C 0E 27 3C 3C 1C 21 64 63 63 23 CA 99 55 FC F5 CC C9 C9 89 8C 8C 
9C 3A 75 2A 49 70 E4 C8 91 BA 1F 18 90 4E 40 D4 24 C6 9D 3B 77 88 9F 6E 1A 7D C8 F0 C3 A5 69 7D 
F5 FB F7 EF B1 FB 1D 84 D0 8C 19 33 E6 CD 9B A7 A3 A3 33 76 EC 58 E2 EF F4 C5 8B 17 D8 75 7D 49 
49 C9 93 27 4F 70 A4 83 83 C3 A6 4D 9B F4 F5 F5 CD CC CC 8E 1F 3F 4E 76 E1 F0 77 39 31 C4 57 17 
39 EE FB E3 C7 8F 78 27 9C A3 A3 A3 28 67 FA F1 D7 53 5B 5B 1B 1F 5F 44 9C 5F FF FB EF BF F5 7B 
78 84 90 18 CE 70 C2 DD A5 86 DD E5 4F DC 98 B2 98 04 88 9A 04 D0 D2 D2 62 B1 58 1C 0E 87 B8 DF 
13 C7 A1 99 97 2E 5D 1A 30 60 80 8E 8E 8E AC AC AC B6 B6 B6 AB AB 2B CF 37 F9 C1 83 07 B3 66 CD 
9A 35 6B 96 B7 B7 37 42 E8 EE DD BB CE CE CE 44 8C F8 89 8E 8E 26 E1 31 63 C6 90 30 F5 D4 08 AC 
26 1F 3E 7C 20 07 73 8C 1E 3D 9A 48 B6 B6 B6 F6 A0 41 83 70 38 29 29 89 B8 81 A6 82 27 55 D0 F7 
2E 27 35 20 A2 A8 D5 56 4F 19 19 19 EC 04 01 21 94 95 95 45 E2 EB 6C 87 3A 5B F2 FA F5 EB 38 87 
65 CB 96 E1 98 C4 C4 C4 59 DF 21 3F 5D 81 81 81 38 E6 C7 1F 7F CC CA CA 9A 36 6D 9A A1 A1 A1 96 
96 D6 88 11 23 78 BC F5 A7 A4 A4 0C 1B 36 4C 53 53 53 55 55 75 C2 84 09 42 76 37 07 05 05 79 7A 
7A 9A 98 98 C8 C9 C9 69 6B 6B BB BB BB 5F B9 72 85 47 BC 44 CF 8D 19 C0 EC A7 04 50 50 50 70 70 
70 08 0B 0B 3B 71 E2 C4 9A 35 6B 64 65 65 69 17 B5 9D 3B 77 FE F1 C7 1F E4 32 2F 2F 2F 24 24 24 
24 24 24 2D 2D 6D E9 D2 A5 38 F2 FD FB F7 D8 5B 69 F7 EE DD AD AC AC F0 C8 BA 90 43 B6 73 73 73 
49 98 EA 70 D5 D3 D3 93 9C A9 81 1D 55 D6 96 12 21 64 69 69 49 CD 90 FF C8 35 03 03 03 3D 3D BD 
AC AC 2C 7E 51 EB DD BB B7 28 A2 26 A4 74 0F 0F 0F E2 71 B3 BA BA 1A 9F 45 2D BC 1D 44 69 C9 C8 
C8 48 9C 83 A9 A9 29 EE 77 E7 E6 E6 12 4F B0 CB 96 2D 33 36 36 46 08 C5 C5 C5 E1 48 65 65 E5 F8 
F8 78 7C F8 00 42 E8 D6 AD 5B 1F 3F 7E 8C 8A 8A C2 EE 18 B9 5C AE A7 A7 67 4C 4C 0C BE 7B E9 D2 
A5 AF 5F BF 0A 7C 52 1F 1F 1F 22 A3 B8 6E 01 01 01 01 01 01 3E 3E 3E BF FD F6 1B 8E 14 3D 37 C6 
00 96 9A 04 C8 CF CF 1F 3E 7C 38 42 28 25 25 05 4F 17 D0 2B 6A E5 E5 E5 E4 10 96 76 ED DA 4D 9D 
3A 95 7C B7 BD BC BC 78 4E 90 C4 E9 A9 D3 AF B5 81 0F 19 C2 50 9D F1 0E 1C 38 F0 E8 77 F0 B1 43 
B5 A5 44 FF 7F 48 25 35 19 A1 B2 B2 12 0F AB 45 45 45 E1 B3 D7 70 3F 54 43 43 C3 CA CA 0A 1F A5 
DA B0 7A 22 84 E6 CC 99 73 F6 3B 58 D1 A8 F0 B7 43 7D 5B 52 44 CA CA CA 82 82 82 A8 6B 29 3E 7C 
F8 40 66 CC 83 82 82 88 06 D9 DA DA 8E 18 31 82 F4 C4 A9 A4 A5 A5 91 49 61 5B 5B DB 59 B3 66 75 
E8 D0 01 5F EE D8 B1 83 58 CA 22 E6 C6 24 40 D4 24 40 65 65 A5 9B 9B 1B 0E 9F 3A 75 0A D1 2D 6A 
AF 5F BF C6 86 86 A2 A2 E2 CB 97 2F CF 9E 3D 1B 1E 1E 8E BF C3 A5 A5 A5 E4 B0 4E 42 4C 4C 8C 28 
BF DE E4 70 AC C6 A4 A4 7A 70 16 28 6A 15 15 15 F8 68 0F 36 9B FD E6 CD 1B 52 61 07 07 07 51 14 
AD 5E F5 E4 81 BF 1D EA DB 92 A2 73 F0 E0 C1 B4 B4 B4 AB 57 AF 92 98 A4 A4 24 1C 88 8C 8C C4 01 
15 15 95 E7 CF 9F DF B8 71 83 7F 45 0B 42 E8 CA 95 2B F8 88 42 2D 2D AD F0 F0 F0 93 27 4F 3E 7B 
F6 0C 4F DA 64 66 66 92 EE B3 88 B9 31 09 E8 7E 4A 86 36 6D DA 98 9B 9B 7F FE FC F9 E6 CD 9B B9 
B9 B9 F4 8A 1A F9 CD 37 35 35 C5 07 A7 EB E8 E8 18 19 19 E1 83 01 C3 C2 C2 B0 33 74 2A F6 F6 F6 
3E 3E 3E D6 D6 D6 42 3C 32 51 CF 06 16 8E 90 94 D4 29 11 81 22 55 59 59 49 CE 2B 0A 0F 0F 97 91 
91 C1 46 87 88 03 6A 02 4B 2F 2F 2F 3F 78 F0 20 35 46 56 56 96 74 1E A9 F0 B4 43 03 5A 52 44 66 
CF 9E 8D FE FF DC 1F D2 E1 25 63 70 26 26 26 B8 7B EE EC EC CC 9F 43 5A 5A 1A 49 86 CF D9 D0 D1 
D1 D1 D5 D5 C5 A7 6A 26 26 26 F6 EB D7 4F F4 DC 98 04 88 9A 64 C8 CF CF 9F 31 63 86 B7 B7 77 65 
65 E5 C5 8B 17 F9 0F 54 26 87 F8 09 41 41 41 61 F7 EE DD FC F1 19 19 19 38 40 CE 2A C7 61 FC 55 
24 47 C9 52 39 7F FE BC 8D 8D 8D E8 F5 17 1F 15 15 15 8E 8E 8E 2C 16 8B CB E5 E2 13 3A 70 BC E8 
A2 C6 4F 79 79 F9 F2 E5 CB A9 31 8A 8A 8A 02 45 8D A7 1D 1A D0 92 A2 A0 AC AC 8C 37 8D B4 6E DD 
5A 5E 5E 9E 47 DC 89 01 4B 9E 9D 5A 3A 81 1C 43 27 23 23 43 B6 A3 90 C5 7D E4 F0 73 11 73 63 12 
20 6A 92 A1 B8 B8 18 8B 1A 42 E8 FC F9 F3 38 40 85 BA E6 AB 36 54 55 55 05 8A 1A F9 CD A7 1E F0 
43 C2 FC 53 01 AA AA AA 3C FB 96 04 22 FA BA 13 11 53 0A 4C 56 59 59 A9 A1 A1 D1 B1 63 C7 F7 EF 
DF 7F FC F8 B1 6D DB B6 38 DE C1 C1 01 0F B1 D1 58 4F 1E F8 DB A1 BE 2D 29 22 24 07 16 8B 25 E4 
10 26 D2 55 17 68 C8 13 FD 8A 88 88 E0 DF 31 56 54 54 54 AF DC 98 04 8C A9 49 86 B2 B2 B2 76 ED 
DA E1 0E C2 F3 E7 CF 45 EF D9 89 82 70 8B 86 FF AE 92 92 92 28 42 20 FA 59 82 22 A6 14 B8 C5 15 
57 0F F7 40 3F 7C F8 80 47 9A 2C 2D 2D B5 B5 B5 45 1C 98 E7 2F 5D 59 59 F9 C8 91 23 47 8E 1C E9 
DF BF BF 90 0F F2 B7 43 7D 5B B2 F9 D0 42 96 A4 09 04 2C 35 C9 80 87 78 E7 CC 99 13 12 12 C2 E5 
72 9F 3D 7B C6 93 00 1F 79 25 9C DA 8E 4D 14 FE 42 53 B7 1F D5 0B EA C4 25 99 5C 43 08 1D 3F 7E 
9C 1C F8 70 E7 CE 1D 07 07 87 DA 52 A2 FF 1F 47 A3 26 23 10 51 3B 79 F2 64 66 66 66 54 54 14 FA 
BE CD 40 44 11 E1 2F 5D 51 51 11 9F B8 FC E6 CD 1B B2 90 42 14 C4 D4 92 F4 62 69 69 C9 D3 B9 46 
08 75 EF DE 5D 22 95 69 0E 80 A8 49 06 2C 6A E3 C7 8F 5F BA 74 69 6E 6E 2E 75 AF 3B 86 2C D3 6F 
00 FC 8B BF A8 68 68 68 34 2C 5B AA 58 50 7B 37 E9 E9 E9 64 69 18 DE 9B 59 5B 4A 9E 4B 81 A2 86 
95 82 CC 15 BC 79 F3 06 7D 17 35 11 45 44 48 E9 64 1C 4A 44 1A DC 92 4D 60 28 91 D5 2A 86 86 86 
73 E7 CE 15 77 71 52 04 74 3F 25 03 1E 8E 51 52 52 C2 B3 60 F4 2E 1D 52 57 57 C7 01 AA 95 44 06 
A4 1A 2C 6A 86 86 86 24 1C 11 11 41 C2 44 29 64 65 65 CD CC CC 84 A4 44 08 51 F7 B1 53 93 F1 60 
6B 6B 4B ED 9C 62 51 6B 64 3D D9 6C 76 68 68 A8 E8 F9 A0 FA B7 24 91 DD C6 AC DA 27 06 38 19 EC 
17 38 78 47 C6 FB A9 63 17 7A 7A 7A 6A 6A 6A 6A 6A 6A 27 4F 9E AC 57 6E 4C 02 44 4D 32 90 17 6B 
FE FC F9 88 EE D1 19 3D 3D 3D 1C 20 D3 73 5C 2E 37 31 31 91 E7 6E 7D A1 F6 68 0E 1C 38 80 BF DB 
D5 D5 D5 37 6F DE C4 91 ED DB B7 C7 3B 0A 6C 6C 6C F0 E2 78 84 D0 D9 B3 67 C9 AA 82 A8 A8 28 7F 
7F 7F 1C B6 B4 B4 14 22 AF 72 72 72 A4 38 15 15 15 3B 3B BB 46 D6 13 21 74 F8 F0 61 81 2B E3 84 
20 62 4B 92 91 B8 82 82 02 2C 31 E4 91 1B 00 5E C0 8C 10 8A 8E 8E C6 EF 49 6C 6C AC 90 64 C9 C9 
C9 D8 30 CC CD CD CD CE CE 2E 29 29 29 29 29 21 EE 4C 44 CC 8D 49 80 A8 49 98 0E 1D 3A 90 ED 90 
74 31 74 E8 50 1C 88 8F 8F DF BC 79 73 68 68 E8 D6 AD 5B C9 46 CB 06 77 6C AD AD AD C9 C6 CC D8 
D8 58 27 27 27 2F 2F AF 61 C3 86 A5 A4 A4 E0 C8 1F 7E F8 01 07 94 94 94 C8 A6 CB BC BC BC 3E 7D 
FA AC 5C B9 F2 B7 DF 7E 73 77 77 27 63 6A 93 26 4D 12 5E 1C E9 81 F6 EC D9 93 7F F5 7F 7D EB 39 
7A F4 68 BC 73 08 CB AE 88 88 D8 92 64 97 7E 51 51 91 B7 B7 F7 AD 5B B7 7C 7C 7C 44 2F 85 07 A2 
E0 55 55 55 2B 57 AE BC 77 EF 1E D9 D5 40 C5 DD DD 1D CF 9C A6 A4 A4 78 79 79 85 84 84 2C 59 B2 
04 DF 92 91 91 B1 B7 B7 AF 57 6E 8C A2 89 FC B6 B5 30 EA 74 12 79 FC F8 71 92 F8 CA 95 2B D4 FF 
08 2D 4E 22 89 22 F0 E0 E2 E2 42 D2 10 FF 3C DA DA DA 22 66 1B 1A 1A 5A DB 12 04 6D 6D ED FC FC 
7C 92 F2 F3 E7 CF 42 0C B1 76 ED DA 15 14 14 90 C4 54 8F 1D 67 CE 9C C1 91 C4 17 EE 8A 15 2B 70 
0C B5 EB 2A DC 49 64 6D F5 EC DC B9 B3 8B 8B 0B 42 48 51 51 51 C4 76 10 A5 25 43 42 42 78 EE 8E 
1B 37 8E 84 DF BD 7B 87 93 11 6F 4B AA AA AA E4 B3 C4 A4 3D 72 E4 08 8E 29 2A 2A E2 19 CB 33 35 
35 25 61 AA 5B C7 E9 D3 A7 0B AC DB A4 49 93 48 1A D1 73 63 0C 60 A9 49 9E E1 C3 87 D3 EE 52 F9 
EC D9 B3 C4 87 0F A1 4B 97 2E 64 97 75 C3 70 71 71 F1 F7 F7 C7 7E 1C A9 58 59 59 05 04 04 68 6A 
6A 92 98 76 ED FE D7 DE 1D AB 2A 08 C5 71 1C 1F 9C 04 31 84 10 07 97 BB 48 14 B4 86 44 43 4B 53 
AB 83 43 CF E3 0B 34 F5 02 81 6F 21 B6 A6 43 83 62 D0 0B 18 0D 2D 6E 7A 37 B9 84 89 05 77 F9 F3 
FD 6C 2E C7 C3 01 7F 7A 8E 7F 3D 3F 71 1C 77 BE 83 DB 6C 36 51 14 8D 46 A3 FE 73 B5 EB 68 1F 2D 
A8 F5 F4 D3 B6 ED E3 F1 D8 53 17 D6 69 C8 48 AE 56 2B CF F3 DA 43 C7 71 82 20 F8 B4 CF 2D 4D D3 
C2 30 6C 9F 28 2D CB 7A F7 EF B9 FD 7E EF FB FE 4B 19 CA 6E B7 3B 1C 0E 5F B4 26 06 9B 19 8B 55 
D7 F5 E5 72 C9 B2 AC AA 2A 55 55 27 93 C9 7C 3E FF F4 92 EE D4 34 CD F9 7C CE B2 AC 2C 4B 55 55 
A7 D3 E9 72 B9 7C 37 43 CC F3 3C 49 92 B2 2C 15 45 31 4D D3 75 DD B6 9E F6 BF B5 FD BC DF EF B6 
6D 6F B7 DB E1 A5 76 7F 0D 19 C9 A6 69 D2 34 2D 8A C2 30 8C F5 7A FD F2 21 FD 17 9E CF E7 E9 74 
D2 75 7D B1 58 F4 4F 99 1F 8F C7 F5 7A BD DD 6E E3 F1 78 36 9B 75 DE 20 87 B7 26 00 A1 06 40 14 
A6 9F 00 44 21 D4 00 88 42 A8 01 10 85 50 03 20 0A A1 06 40 14 42 0D 80 28 84 1A 00 51 08 35 00 
A2 10 6A 00 44 21 D4 00 88 42 A8 01 10 85 50 03 20 0A A1 06 40 14 42 0D 80 28 84 1A 00 51 7E 01 
7B A6 AE 94 9A 3C 8F 58 00 00 00 00 49 45 4E 44 AE 42 60 82 
EndData
$EndBitmap
$EndSCHEMATC
