EESchema Schematic File Version 4
EELAYER 30 0
EELAYER END
$Descr A4 11693 8268
encoding utf-8
Sheet 5 9
Title "JTS-100"
Date "2018-02-26"
Rev "work in progress"
Comp "Team14 GesbR"
Comment1 "Open Source Hardware"
Comment2 "Creative Commons 4.0 (CC-BY)"
Comment3 ""
Comment4 ""
$EndDescr
$Comp
L team14-jts-100-rescue:USB_OTG X801
U 1 1 5A907B67
P 7350 1650
F 0 "X801" H 7150 2100 50  0000 L CNN
F 1 "WE-629105150921" H 7150 2000 50  0000 L CNN
F 2 "standardSMD:WE-629105150921-USB-Micro" H 7500 1600 50  0001 C CNN
F 3 "" H 7500 1600 50  0001 C CNN
	1    7350 1650
	1    0    0    -1  
$EndComp
$Comp
L team14-jts-100-rescue:R R803
U 1 1 5A907BF6
P 8000 1650
F 0 "R803" V 8050 1850 50  0000 C CNN
F 1 "22R" V 8000 1650 50  0000 C CNN
F 2 "standardSMD:R1608m" V 7930 1650 50  0001 C CNN
F 3 "" H 8000 1650 50  0001 C CNN
	1    8000 1650
	0    -1   -1   0   
$EndComp
$Comp
L team14-jts-100-rescue:R R804
U 1 1 5A907C3F
P 8450 1750
F 0 "R804" V 8500 1950 50  0000 C CNN
F 1 "22R" V 8450 1750 50  0000 C CNN
F 2 "standardSMD:R1608m" V 8380 1750 50  0001 C CNN
F 3 "" H 8450 1750 50  0001 C CNN
	1    8450 1750
	0    -1   -1   0   
$EndComp
$Comp
L team14-jts-100-rescue:R R805
U 1 1 5A907CE7
P 8650 1550
F 0 "R805" V 8700 1700 50  0000 C CNN
F 1 "2k" V 8650 1550 50  0000 C CNN
F 2 "standardSMD:R1608m" V 8580 1550 50  0001 C CNN
F 3 "" H 8650 1550 50  0001 C CNN
	1    8650 1550
	0    -1   -1   0   
$EndComp
Wire Wire Line
	7650 1450 8400 1450
Wire Wire Line
	8500 1550 8400 1550
Wire Wire Line
	8400 1550 8400 1450
Connection ~ 8400 1450
Wire Wire Line
	7850 1650 7650 1650
Wire Wire Line
	8150 1650 8900 1650
Wire Wire Line
	8600 1750 9700 1750
Wire Wire Line
	7650 1750 8300 1750
NoConn ~ 7650 1850
$Comp
L power:GND #PWR022
U 1 1 5A907F04
P 7250 2250
F 0 "#PWR022" H 7250 2000 50  0001 C CNN
F 1 "GND" H 7250 2100 50  0000 C CNN
F 2 "" H 7250 2250 50  0001 C CNN
F 3 "" H 7250 2250 50  0001 C CNN
	1    7250 2250
	1    0    0    -1  
$EndComp
Wire Wire Line
	7250 2050 7250 2100
Wire Wire Line
	7250 2100 7350 2100
Wire Wire Line
	7350 2100 7350 2050
Connection ~ 7250 2100
Text HLabel 9800 1650 2    60   Output ~ 0
D+
Text HLabel 9800 1750 2    60   Output ~ 0
D-
Wire Wire Line
	8800 1550 8900 1550
Wire Wire Line
	8900 1550 8900 1650
Connection ~ 8900 1650
Text HLabel 9800 1450 2    60   Output ~ 0
VUSB
$Comp
L jts-100:D_TVS_x2_ACom_KKA D801
U 1 1 5A9081A5
P 9300 2200
F 0 "D801" H 9350 2100 50  0000 C CNN
F 1 "SP3222" H 9300 2300 50  0000 C CNN
F 2 "standardSMD:SOD-883" H 9300 2200 50  0001 C CNN
F 3 "" H 9300 2200 50  0001 C CNN
F 4 "Value" H 9300 2200 60  0001 C CNN "Fieldname"
	1    9300 2200
	1    0    0    -1  
$EndComp
Wire Wire Line
	8900 2200 9000 2200
Wire Wire Line
	9600 2200 9700 2200
Wire Wire Line
	9700 2200 9700 1750
Connection ~ 9700 1750
$Comp
L power:GND #PWR023
U 1 1 5A9082A1
P 9300 2500
F 0 "#PWR023" H 9300 2250 50  0001 C CNN
F 1 "GND" H 9300 2350 50  0000 C CNN
F 2 "" H 9300 2500 50  0001 C CNN
F 3 "" H 9300 2500 50  0001 C CNN
	1    9300 2500
	1    0    0    -1  
$EndComp
Wire Wire Line
	9300 2500 9300 2400
$Comp
L team14-jts-100-rescue:OLED-128x32-SSD1306 U802
U 1 1 5A92F6B5
P 2950 1850
F 0 "U802" H 2200 2150 60  0000 C CNN
F 1 "OLED-128x32-SSD1306" H 2900 1500 60  0000 C CNN
F 2 "we-board-to-board:61300415721" H 2850 1300 60  0000 C CNN
F 3 "" H 2150 1400 60  0001 C CNN
	1    2950 1850
	1    0    0    -1  
$EndComp
Text HLabel 1250 1050 0    60   Input ~ 0
3V3
Wire Wire Line
	1450 1950 2200 1950
Wire Wire Line
	1900 2150 1900 2050
Wire Wire Line
	1900 2050 2200 2050
Text HLabel 1250 1850 0    60   BiDi ~ 0
SCL
Wire Wire Line
	1250 1850 1750 1850
Text HLabel 1250 1750 0    60   BiDi ~ 0
SDA
Wire Wire Line
	1250 1750 1600 1750
$Comp
L team14-jts-100-rescue:R R801
U 1 1 5A92FB4B
P 1600 1400
F 0 "R801" V 1650 1600 50  0000 C CNN
F 1 "4k7" V 1600 1400 50  0000 C CNN
F 2 "standardSMD:R1608m" V 1530 1400 50  0001 C CNN
F 3 "" H 1600 1400 50  0001 C CNN
	1    1600 1400
	-1   0    0    1   
$EndComp
$Comp
L team14-jts-100-rescue:R R802
U 1 1 5A92FBD5
P 1750 1400
F 0 "R802" V 1800 1600 50  0000 C CNN
F 1 "4k7" V 1750 1400 50  0000 C CNN
F 2 "standardSMD:R1608m" V 1680 1400 50  0001 C CNN
F 3 "" H 1750 1400 50  0001 C CNN
	1    1750 1400
	-1   0    0    1   
$EndComp
Wire Wire Line
	4050 2550 4050 4350
Connection ~ 1600 1750
Wire Wire Line
	4200 2650 4200 4250
Connection ~ 1750 1850
Wire Wire Line
	1600 1050 1600 1250
Wire Wire Line
	1750 1050 1750 1250
Connection ~ 1600 1050
Wire Wire Line
	1250 1050 1450 1050
Wire Wire Line
	1450 1050 1450 1950
Connection ~ 1450 1050
$Comp
L team14-jts-100-rescue:SW_Push SW801
U 1 1 5A930254
P 8650 4300
F 0 "SW801" H 8700 4400 50  0000 L CNN
F 1 "WE-434331013822" H 8650 4240 50  0000 C CNN
F 2 "standardSMD:WE-434331013822-push-button-angled" H 8650 4500 50  0001 C CNN
F 3 "" H 8650 4500 50  0001 C CNN
	1    8650 4300
	0    1    -1   0   
$EndComp
Wire Wire Line
	9050 4600 9050 4500
Wire Wire Line
	8650 4600 8650 4500
Text HLabel 9950 3900 2    60   Output ~ 0
Button1
Wire Wire Line
	9050 4000 9750 4000
Wire Wire Line
	9050 4000 9050 4100
Text HLabel 9950 4000 2    60   Output ~ 0
Button2
Wire Wire Line
	8650 3900 9450 3900
Wire Wire Line
	8650 3900 8650 4100
$Comp
L mpu-6050:MPU-6050 U801
U 1 1 5A945C1F
P 2900 5050
F 0 "U801" H 2450 6050 60  0000 C CNN
F 1 "MPU-6050" H 2650 4350 60  0000 C CNN
F 2 "standardSMD:QFN-24-1EP_4x4mm_Pitch0.5mm" H 2900 4800 60  0001 C CNN
F 3 "" H 2900 4800 60  0000 C CNN
	1    2900 5050
	1    0    0    -1  
$EndComp
Wire Wire Line
	4050 4350 3650 4350
Wire Wire Line
	4200 4250 3650 4250
$Comp
L power:GND #PWR024
U 1 1 5A9465C9
P 1750 4900
F 0 "#PWR024" H 1750 4650 50  0001 C CNN
F 1 "GND" H 1750 4750 50  0000 C CNN
F 2 "" H 1750 4900 50  0001 C CNN
F 3 "" H 1750 4900 50  0001 C CNN
	1    1750 4900
	1    0    0    -1  
$EndComp
Wire Wire Line
	2100 4800 1750 4800
Text HLabel 1450 4250 0    60   Input ~ 0
3V3
Wire Wire Line
	1450 4250 1750 4250
Wire Wire Line
	1750 4350 1950 4350
Wire Wire Line
	1750 3450 1750 4250
Connection ~ 1750 4250
NoConn ~ 3650 5050
NoConn ~ 3650 4600
NoConn ~ 3650 4500
$Comp
L power:GND #PWR025
U 1 1 5A947968
P 3650 5200
F 0 "#PWR025" H 3650 4950 50  0001 C CNN
F 1 "GND" H 3650 5050 50  0000 C CNN
F 2 "" H 3650 5200 50  0001 C CNN
F 3 "" H 3650 5200 50  0001 C CNN
	1    3650 5200
	0    -1   -1   0   
$EndComp
$Comp
L power:GND #PWR026
U 1 1 5A9479A6
P 3650 4850
F 0 "#PWR026" H 3650 4600 50  0001 C CNN
F 1 "GND" H 3650 4700 50  0000 C CNN
F 2 "" H 3650 4850 50  0001 C CNN
F 3 "" H 3650 4850 50  0001 C CNN
	1    3650 4850
	0    -1   -1   0   
$EndComp
$Comp
L team14-jts-100-rescue:C C803
U 1 1 5A948FF8
P 2000 3450
F 0 "C803" H 2025 3550 50  0000 L CNN
F 1 "100n" H 2025 3350 50  0000 L CNN
F 2 "standardSMD:C1608m" H 2038 3300 50  0001 C CNN
F 3 "" H 2000 3450 50  0001 C CNN
	1    2000 3450
	0    1    1    0   
$EndComp
$Comp
L power:GND #PWR027
U 1 1 5A9492E4
P 2150 3450
F 0 "#PWR027" H 2150 3200 50  0001 C CNN
F 1 "GND" H 2150 3300 50  0000 C CNN
F 2 "" H 2150 3450 50  0001 C CNN
F 3 "" H 2150 3450 50  0001 C CNN
	1    2150 3450
	0    -1   -1   0   
$EndComp
Wire Wire Line
	1850 3450 1750 3450
Wire Wire Line
	1750 4800 1750 4900
$Comp
L team14-jts-100-rescue:C C801
U 1 1 5A94960B
P 950 4650
F 0 "C801" H 975 4750 50  0000 L CNN
F 1 "100n" H 975 4550 50  0000 L CNN
F 2 "standardSMD:C1608m" H 988 4500 50  0001 C CNN
F 3 "" H 950 4650 50  0001 C CNN
	1    950  4650
	1    0    0    -1  
$EndComp
Wire Wire Line
	2100 4500 950  4500
$Comp
L power:GND #PWR028
U 1 1 5A9496DF
P 950 4800
F 0 "#PWR028" H 950 4550 50  0001 C CNN
F 1 "GND" H 950 4650 50  0000 C CNN
F 2 "" H 950 4800 50  0001 C CNN
F 3 "" H 950 4800 50  0001 C CNN
	1    950  4800
	1    0    0    -1  
$EndComp
$Comp
L team14-jts-100-rescue:C C802
U 1 1 5A949711
P 1350 4750
F 0 "C802" H 1375 4850 50  0000 L CNN
F 1 "2n2/50V" H 1375 4650 50  0000 L CNN
F 2 "standardSMD:C1608m" H 1388 4600 50  0001 C CNN
F 3 "" H 1350 4750 50  0001 C CNN
	1    1350 4750
	1    0    0    -1  
$EndComp
Wire Wire Line
	1350 4600 2100 4600
$Comp
L power:GND #PWR029
U 1 1 5A9497CE
P 1350 4900
F 0 "#PWR029" H 1350 4650 50  0001 C CNN
F 1 "GND" H 1350 4750 50  0000 C CNN
F 2 "" H 1350 4900 50  0001 C CNN
F 3 "" H 1350 4900 50  0001 C CNN
	1    1350 4900
	1    0    0    -1  
$EndComp
$Comp
L team14-jts-100-rescue:C C804
U 1 1 5A94A5D4
P 2150 3800
F 0 "C804" H 2175 3900 50  0000 L CNN
F 1 "100n" H 2175 3700 50  0000 L CNN
F 2 "standardSMD:C1608m" H 2188 3650 50  0001 C CNN
F 3 "" H 2150 3800 50  0001 C CNN
	1    2150 3800
	0    1    1    0   
$EndComp
Wire Wire Line
	2000 3800 1950 3800
Wire Wire Line
	1950 3800 1950 4350
Connection ~ 1950 4350
$Comp
L power:GND #PWR030
U 1 1 5A94A827
P 2300 3800
F 0 "#PWR030" H 2300 3550 50  0001 C CNN
F 1 "GND" H 2300 3650 50  0000 C CNN
F 2 "" H 2300 3800 50  0001 C CNN
F 3 "" H 2300 3800 50  0001 C CNN
	1    2300 3800
	0    -1   -1   0   
$EndComp
NoConn ~ 3650 4750
$Comp
L power:GND #PWR031
U 1 1 5A94B0D4
P 3850 4950
F 0 "#PWR031" H 3850 4700 50  0001 C CNN
F 1 "GND" H 3850 4800 50  0000 C CNN
F 2 "" H 3850 4950 50  0001 C CNN
F 3 "" H 3850 4950 50  0001 C CNN
	1    3850 4950
	0    -1   -1   0   
$EndComp
Wire Wire Line
	3850 4950 3650 4950
Text Notes 2250 6050 0    60   ~ 0
I2C address: b110100x, \nwhere x is configured to 0
Text Notes 2350 2350 0    60   ~ 0
I2C address: b011110x
$Comp
L team14-jts-100-rescue:C C806
U 1 1 5A95B2B0
P 9750 4450
F 0 "C806" H 9775 4550 50  0000 L CNN
F 1 "100n" H 9775 4350 50  0000 L CNN
F 2 "standardSMD:C1608m" H 9788 4300 50  0001 C CNN
F 3 "" H 9750 4450 50  0001 C CNN
	1    9750 4450
	-1   0    0    -1  
$EndComp
$Comp
L team14-jts-100-rescue:C C805
U 1 1 5A95B3FA
P 9450 4450
F 0 "C805" H 9475 4550 50  0000 L CNN
F 1 "100n" H 9475 4350 50  0000 L CNN
F 2 "standardSMD:C1608m" H 9488 4300 50  0001 C CNN
F 3 "" H 9450 4450 50  0001 C CNN
	1    9450 4450
	-1   0    0    -1  
$EndComp
Wire Wire Line
	9750 4300 9750 4000
Connection ~ 9750 4000
Wire Wire Line
	9450 4300 9450 3900
Connection ~ 9450 3900
$Comp
L power:GND #PWR032
U 1 1 5A9622F2
P 8650 4600
F 0 "#PWR032" H 8650 4350 50  0001 C CNN
F 1 "GND" H 8650 4450 50  0000 C CNN
F 2 "" H 8650 4600 50  0001 C CNN
F 3 "" H 8650 4600 50  0001 C CNN
	1    8650 4600
	-1   0    0    -1  
$EndComp
$Comp
L power:GND #PWR033
U 1 1 5A962330
P 9050 4600
F 0 "#PWR033" H 9050 4350 50  0001 C CNN
F 1 "GND" H 9050 4450 50  0000 C CNN
F 2 "" H 9050 4600 50  0001 C CNN
F 3 "" H 9050 4600 50  0001 C CNN
	1    9050 4600
	-1   0    0    -1  
$EndComp
$Comp
L power:GND #PWR034
U 1 1 5A96236E
P 9450 4600
F 0 "#PWR034" H 9450 4350 50  0001 C CNN
F 1 "GND" H 9450 4450 50  0000 C CNN
F 2 "" H 9450 4600 50  0001 C CNN
F 3 "" H 9450 4600 50  0001 C CNN
	1    9450 4600
	-1   0    0    -1  
$EndComp
$Comp
L power:GND #PWR035
U 1 1 5A9623AC
P 9750 4600
F 0 "#PWR035" H 9750 4350 50  0001 C CNN
F 1 "GND" H 9750 4450 50  0000 C CNN
F 2 "" H 9750 4600 50  0001 C CNN
F 3 "" H 9750 4600 50  0001 C CNN
	1    9750 4600
	-1   0    0    -1  
$EndComp
$Comp
L power:GND #PWR036
U 1 1 5A9625D7
P 1900 2150
F 0 "#PWR036" H 1900 1900 50  0001 C CNN
F 1 "GND" H 1900 2000 50  0000 C CNN
F 2 "" H 1900 2150 50  0001 C CNN
F 3 "" H 1900 2150 50  0001 C CNN
	1    1900 2150
	1    0    0    -1  
$EndComp
Wire Wire Line
	1600 2550 4050 2550
Wire Wire Line
	1600 1550 1600 1750
Wire Wire Line
	1750 1550 1750 1850
Wire Wire Line
	1750 2650 4200 2650
Text Notes 3750 2450 0    60   ~ 0
bottom entry socket header
$Comp
L team14-jts-100-rescue:SW_Push SW501
U 1 1 5AB6C561
P 9050 4300
F 0 "SW501" H 9100 4400 50  0000 L CNN
F 1 "WE-434331013822" H 9050 4240 50  0000 C CNN
F 2 "standardSMD:WE-434331013822-push-button-angled" H 9050 4500 50  0001 C CNN
F 3 "" H 9050 4500 50  0001 C CNN
	1    9050 4300
	0    1    -1   0   
$EndComp
Wire Wire Line
	8400 1450 9800 1450
Wire Wire Line
	7250 2100 7250 2250
Wire Wire Line
	8900 1650 9800 1650
Wire Wire Line
	8900 1650 8900 2200
Wire Wire Line
	9700 1750 9800 1750
Wire Wire Line
	1600 1750 2200 1750
Wire Wire Line
	1600 1750 1600 2550
Wire Wire Line
	1750 1850 2200 1850
Wire Wire Line
	1750 1850 1750 2650
Wire Wire Line
	1600 1050 1750 1050
Wire Wire Line
	1450 1050 1600 1050
Wire Wire Line
	1750 4250 2100 4250
Wire Wire Line
	1750 4250 1750 4350
Wire Wire Line
	1950 4350 2100 4350
Wire Wire Line
	9750 4000 9950 4000
Wire Wire Line
	9450 3900 9950 3900
Text Notes 2700 1450 0    60   ~ 0
TODO: OLED direkt verlöten
Text Notes 7600 1050 0    60   ~ 0
TODO: USB-C, siehe HTL-Lib
Text Notes 8500 3700 0    60   ~ 0
TODO: austauschen auf LCSC-Taster
$EndSCHEMATC
