EESchema Schematic File Version 4
EELAYER 30 0
EELAYER END
$Descr A4 11693 8268
encoding utf-8
Sheet 3 9
Title ""
Date ""
Rev ""
Comp ""
Comment1 ""
Comment2 ""
Comment3 ""
Comment4 ""
$EndDescr
$Comp
L team14-jts-100-rescue:LM5060 U401
U 1 1 5AA550BF
P 5100 3400
AR Path="/5A907B12/5AA5505A/5AA550BF" Ref="U401"  Part="1" 
AR Path="/5A907B12/5AA58D84/5AA550BF" Ref="U501"  Part="1" 
F 0 "U401" H 4450 2850 60  0000 L CNN
F 1 "LM5060" H 5750 2850 60  0000 R CNN
F 2 "standardSMD:VSSOP10_3x3mm_Pitch0.5mm" H 5150 2850 60  0001 C CNN
F 3 "" H 5150 2850 60  0000 C CNN
	1    5100 3400
	1    0    0    -1  
$EndComp
$Comp
L power:GND #PWR012
U 1 1 5AA551BE
P 5100 4000
AR Path="/5A907B12/5AA5505A/5AA551BE" Ref="#PWR012"  Part="1" 
AR Path="/5A907B12/5AA58D84/5AA551BE" Ref="#PWR017"  Part="1" 
F 0 "#PWR017" H 5100 3750 50  0001 C CNN
F 1 "GND" H 5100 3850 50  0000 C CNN
F 2 "" H 5100 4000 50  0001 C CNN
F 3 "" H 5100 4000 50  0001 C CNN
	1    5100 4000
	1    0    0    -1  
$EndComp
$Comp
L team14-jts-100-rescue:NMOSFET2 Q401
U 1 1 5AA551F5
P 5100 1650
AR Path="/5A907B12/5AA5505A/5AA551F5" Ref="Q401"  Part="1" 
AR Path="/5A907B12/5AA58D84/5AA551F5" Ref="Q501"  Part="1" 
F 0 "Q401" V 5500 1800 70  0000 C CNN
F 1 "NMOSFET2" V 5400 1650 60  0000 C CNN
F 2 "standardSMD:POWER_SO8" H 5100 1650 60  0001 C CNN
F 3 "" H 5100 1650 60  0000 C CNN
	1    5100 1650
	0    -1   -1   0   
$EndComp
Wire Wire Line
	3650 1550 4950 1550
Wire Wire Line
	4700 1550 4700 2400
Wire Wire Line
	3850 1550 3850 2850
Wire Wire Line
	3300 2800 4300 2800
Connection ~ 4700 1550
$Comp
L team14-jts-100-rescue:R R401
U 1 1 5AA552C4
P 3850 3000
AR Path="/5A907B12/5AA5505A/5AA552C4" Ref="R401"  Part="1" 
AR Path="/5A907B12/5AA58D84/5AA552C4" Ref="R501"  Part="1" 
F 0 "R401" V 3930 3000 50  0000 C CNN
F 1 "R" V 3850 3000 50  0000 C CNN
F 2 "standardSMD:R1608m" V 3780 3000 50  0001 C CNN
F 3 "" H 3850 3000 50  0001 C CNN
	1    3850 3000
	-1   0    0    1   
$EndComp
Connection ~ 3850 2800
$Comp
L team14-jts-100-rescue:R R402
U 1 1 5AA552F3
P 3850 3400
AR Path="/5A907B12/5AA5505A/5AA552F3" Ref="R402"  Part="1" 
AR Path="/5A907B12/5AA58D84/5AA552F3" Ref="R502"  Part="1" 
F 0 "R402" V 3930 3400 50  0000 C CNN
F 1 "R" V 3850 3400 50  0000 C CNN
F 2 "standardSMD:R1608m" V 3780 3400 50  0001 C CNN
F 3 "" H 3850 3400 50  0001 C CNN
	1    3850 3400
	-1   0    0    1   
$EndComp
Wire Wire Line
	4300 3200 3850 3200
Wire Wire Line
	3850 3150 3850 3250
Connection ~ 3850 3200
$Comp
L power:GND #PWR013
U 1 1 5AA553D0
P 3850 4000
AR Path="/5A907B12/5AA5505A/5AA553D0" Ref="#PWR013"  Part="1" 
AR Path="/5A907B12/5AA58D84/5AA553D0" Ref="#PWR018"  Part="1" 
F 0 "#PWR018" H 3850 3750 50  0001 C CNN
F 1 "GND" H 3850 3850 50  0000 C CNN
F 2 "" H 3850 4000 50  0001 C CNN
F 3 "" H 3850 4000 50  0001 C CNN
	1    3850 4000
	1    0    0    -1  
$EndComp
Wire Wire Line
	3850 4000 3850 3550
Wire Wire Line
	5100 1750 5100 2400
Wire Wire Line
	5250 1550 6450 1550
Wire Wire Line
	5500 2400 5500 1550
Connection ~ 5500 1550
NoConn ~ 5900 2800
$Comp
L power:GND #PWR014
U 1 1 5AA5571B
P 4200 4000
AR Path="/5A907B12/5AA5505A/5AA5571B" Ref="#PWR014"  Part="1" 
AR Path="/5A907B12/5AA58D84/5AA5571B" Ref="#PWR019"  Part="1" 
F 0 "#PWR019" H 4200 3750 50  0001 C CNN
F 1 "GND" H 4200 3850 50  0000 C CNN
F 2 "" H 4200 4000 50  0001 C CNN
F 3 "" H 4200 4000 50  0001 C CNN
	1    4200 4000
	1    0    0    -1  
$EndComp
Wire Wire Line
	4200 4000 4200 3600
Wire Wire Line
	4200 3600 4300 3600
$Comp
L team14-jts-100-rescue:C C402
U 1 1 5AA558C4
P 6050 3800
AR Path="/5A907B12/5AA5505A/5AA558C4" Ref="C402"  Part="1" 
AR Path="/5A907B12/5AA58D84/5AA558C4" Ref="C502"  Part="1" 
F 0 "C402" H 6075 3900 50  0000 L CNN
F 1 "C" H 6075 3700 50  0000 L CNN
F 2 "standardSMD:C1608m" H 6088 3650 50  0001 C CNN
F 3 "" H 6050 3800 50  0001 C CNN
	1    6050 3800
	1    0    0    -1  
$EndComp
Wire Wire Line
	5900 3600 6050 3600
Wire Wire Line
	6050 3600 6050 3650
$Comp
L power:GND #PWR015
U 1 1 5AA55901
P 6050 3950
AR Path="/5A907B12/5AA5505A/5AA55901" Ref="#PWR015"  Part="1" 
AR Path="/5A907B12/5AA58D84/5AA55901" Ref="#PWR020"  Part="1" 
F 0 "#PWR020" H 6050 3700 50  0001 C CNN
F 1 "GND" H 6050 3800 50  0000 C CNN
F 2 "" H 6050 3950 50  0001 C CNN
F 3 "" H 6050 3950 50  0001 C CNN
	1    6050 3950
	1    0    0    -1  
$EndComp
Text HLabel 6350 3400 2    60   Input ~ 0
Enable
Wire Wire Line
	6350 3400 5900 3400
Text HLabel 6450 1550 2    60   Output ~ 0
Out
Text HLabel 3650 1550 0    60   Input ~ 0
VIN
Connection ~ 3850 1550
$Comp
L team14-jts-100-rescue:C C401
U 1 1 5AA55FB5
P 3300 3050
AR Path="/5A907B12/5AA5505A/5AA55FB5" Ref="C401"  Part="1" 
AR Path="/5A907B12/5AA58D84/5AA55FB5" Ref="C501"  Part="1" 
F 0 "C401" H 3325 3150 50  0000 L CNN
F 1 "100n/100V" H 3325 2950 50  0000 L CNN
F 2 "standardSMD:C1608m" H 3338 2900 50  0001 C CNN
F 3 "" H 3300 3050 50  0001 C CNN
	1    3300 3050
	1    0    0    -1  
$EndComp
Wire Wire Line
	3300 2800 3300 2900
$Comp
L power:GND #PWR016
U 1 1 5AA5607B
P 3300 3200
AR Path="/5A907B12/5AA5505A/5AA5607B" Ref="#PWR016"  Part="1" 
AR Path="/5A907B12/5AA58D84/5AA5607B" Ref="#PWR021"  Part="1" 
F 0 "#PWR021" H 3300 2950 50  0001 C CNN
F 1 "GND" H 3300 3050 50  0000 C CNN
F 2 "" H 3300 3200 50  0001 C CNN
F 3 "" H 3300 3200 50  0001 C CNN
	1    3300 3200
	1    0    0    -1  
$EndComp
Text Notes 4600 4400 0    60   ~ 0
TODO: Check Footprint!
$EndSCHEMATC
