EESchema Schematic File Version 4
EELAYER 30 0
EELAYER END
$Descr A4 11693 8268
encoding utf-8
Sheet 8 9
Title "JTS-100"
Date "2018-02-26"
Rev "work in progress"
Comp "Team14 GesbR"
Comment1 "Open Source Hardware"
Comment2 "Creative Commons 4.0 (CC-BY)"
Comment3 ""
Comment4 ""
$EndDescr
$Comp
L team14-jts-100-rescue:STM32F103T(8-B)Ux U201
U 1 1 5A907AA2
P 6100 3650
F 0 "U201" H 3050 5100 50  0000 C CNN
F 1 "STM32F103T8U6" H 3300 5000 50  0000 C CNN
F 2 "Housings_DFN_QFN:QFN-36-1EP_5x6mm_Pitch0.5mm" H 4000 2250 50  0000 C CIN
F 3 "" H 6100 3650 50  0000 C CNN
	1    6100 3650
	1    0    0    -1  
$EndComp
Text HLabel 9700 2950 2    60   Output ~ 0
EN-Rigth
Text HLabel 9700 2850 2    60   Output ~ 0
EN-Left
Text HLabel 2450 3650 0    60   Input ~ 0
USB_D+
Text HLabel 2450 3550 0    60   Input ~ 0
USB_D-
Text HLabel 9700 3050 2    60   BiDi ~ 0
SCL
Text HLabel 9700 3150 2    60   BiDi ~ 0
SDA
Text HLabel 2450 3350 0    60   Input ~ 0
Button1
Text HLabel 1300 2650 0    60   Input ~ 0
Button2
Wire Wire Line
	2450 3350 2700 3350
Wire Wire Line
	1300 3050 2700 3050
Wire Wire Line
	9700 2850 9500 2850
Wire Wire Line
	9700 3050 9500 3050
Wire Wire Line
	9700 3150 9500 3150
NoConn ~ 1050 3250
Text Notes 550  3350 0    40   ~ 0
PA8: our OLED\ndisplay has no\nreset pin
Wire Wire Line
	9700 2550 9500 2550
Wire Wire Line
	2450 3650 2700 3650
Wire Wire Line
	2450 3550 2700 3550
Wire Wire Line
	600  3750 2700 3750
Wire Wire Line
	650  3850 2700 3850
$Comp
L team14-jts-100-rescue:C C206
U 1 1 5A97FA9C
P 10050 4550
F 0 "C206" H 10075 4650 50  0000 L CNN
F 1 "1u" H 10075 4450 50  0000 L CNN
F 2 "standardSMD:C1608m" H 10088 4400 50  0001 C CNN
F 3 "" H 10050 4550 50  0001 C CNN
	1    10050 4550
	1    0    0    -1  
$EndComp
$Comp
L team14-jts-100-rescue:R R202
U 1 1 5A97FACE
P 10300 4250
F 0 "R202" V 10380 4250 50  0000 C CNN
F 1 "15k" V 10300 4250 50  0000 C CNN
F 2 "standardSMD:R1608m" V 10230 4250 50  0001 C CNN
F 3 "" H 10300 4250 50  0001 C CNN
	1    10300 4250
	0    -1   -1   0   
$EndComp
Wire Wire Line
	9500 4250 9800 4250
Wire Wire Line
	10050 4250 10050 4400
Connection ~ 10050 4250
$Comp
L power:GND #PWR054
U 1 1 5A97FB1E
P 10050 4850
F 0 "#PWR054" H 10050 4600 50  0001 C CNN
F 1 "GND" H 10050 4700 50  0000 C CNN
F 2 "" H 10050 4850 50  0001 C CNN
F 3 "" H 10050 4850 50  0001 C CNN
	1    10050 4850
	1    0    0    -1  
$EndComp
Wire Wire Line
	10050 4850 10050 4700
Text HLabel 10600 4250 2    60   Input ~ 0
3V3
Wire Wire Line
	10600 4250 10450 4250
$Comp
L power:GND #PWR055
U 1 1 5A97FD54
P 9500 4150
F 0 "#PWR055" H 9500 3900 50  0001 C CNN
F 1 "GND" H 9500 4000 50  0000 C CNN
F 2 "" H 9500 4150 50  0001 C CNN
F 3 "" H 9500 4150 50  0001 C CNN
	1    9500 4150
	0    -1   -1   0   
$EndComp
Wire Wire Line
	9700 2450 9500 2450
Wire Wire Line
	1300 3150 2700 3150
Wire Wire Line
	950  4450 1100 4450
Wire Wire Line
	1100 4450 1100 4550
Wire Wire Line
	1100 4750 2250 4750
Wire Wire Line
	1100 4650 2000 4650
Connection ~ 1100 4650
Wire Wire Line
	1100 4550 1750 4550
Connection ~ 1100 4550
Text HLabel 950  4450 0    60   Input ~ 0
3V3
Connection ~ 1100 4450
Wire Wire Line
	9500 4450 9600 4450
Wire Wire Line
	9600 4450 9600 4550
Wire Wire Line
	9600 4850 9500 4850
Wire Wire Line
	9500 4750 9600 4750
Connection ~ 9600 4750
Wire Wire Line
	9500 4650 9600 4650
Connection ~ 9600 4650
Wire Wire Line
	9500 4550 9600 4550
Connection ~ 9600 4550
$Comp
L power:GND #PWR056
U 1 1 5A980F2A
P 9600 4950
F 0 "#PWR056" H 9600 4700 50  0001 C CNN
F 1 "GND" H 9600 4800 50  0000 C CNN
F 2 "" H 9600 4950 50  0001 C CNN
F 3 "" H 9600 4950 50  0001 C CNN
	1    9600 4950
	1    0    0    -1  
$EndComp
Connection ~ 9600 4850
$Comp
L team14-jts-100-rescue:C C205
U 1 1 5A9811A8
P 2500 5250
F 0 "C205" H 2525 5350 50  0000 L CNN
F 1 "100n" H 2525 5150 50  0000 L CNN
F 2 "standardSMD:C1608m" H 2538 5100 50  0001 C CNN
F 3 "" H 2500 5250 50  0001 C CNN
	1    2500 5250
	1    0    0    -1  
$EndComp
$Comp
L team14-jts-100-rescue:C C202
U 1 1 5A981308
P 1750 5250
F 0 "C202" H 1775 5350 50  0000 L CNN
F 1 "1u" H 1775 5150 50  0000 L CNN
F 2 "standardSMD:C1608m" H 1788 5100 50  0001 C CNN
F 3 "" H 1750 5250 50  0001 C CNN
	1    1750 5250
	1    0    0    -1  
$EndComp
$Comp
L team14-jts-100-rescue:C C203
U 1 1 5A981333
P 2000 5250
F 0 "C203" H 2025 5350 50  0000 L CNN
F 1 "1u" H 2025 5150 50  0000 L CNN
F 2 "standardSMD:C1608m" H 2038 5100 50  0001 C CNN
F 3 "" H 2000 5250 50  0001 C CNN
	1    2000 5250
	1    0    0    -1  
$EndComp
$Comp
L team14-jts-100-rescue:C C204
U 1 1 5A981361
P 2250 5250
F 0 "C204" H 2275 5350 50  0000 L CNN
F 1 "1u" H 2275 5150 50  0000 L CNN
F 2 "standardSMD:C1608m" H 2288 5100 50  0001 C CNN
F 3 "" H 2250 5250 50  0001 C CNN
	1    2250 5250
	1    0    0    -1  
$EndComp
$Comp
L team14-jts-100-rescue:C C201
U 1 1 5A981390
P 1500 5250
F 0 "C201" H 1525 5350 50  0000 L CNN
F 1 "1u" H 1525 5150 50  0000 L CNN
F 2 "standardSMD:C1608m" H 1538 5100 50  0001 C CNN
F 3 "" H 1500 5250 50  0001 C CNN
	1    1500 5250
	1    0    0    -1  
$EndComp
Wire Wire Line
	1500 5100 1500 4450
Connection ~ 1500 4450
Wire Wire Line
	1750 5100 1750 4550
Connection ~ 1750 4550
Wire Wire Line
	2000 5100 2000 4650
Connection ~ 2000 4650
Wire Wire Line
	2250 5100 2250 4750
Connection ~ 2250 4750
Wire Wire Line
	2500 5100 2500 4750
Connection ~ 2500 4750
$Comp
L power:GND #PWR057
U 1 1 5A9816DF
P 1500 5400
F 0 "#PWR057" H 1500 5150 50  0001 C CNN
F 1 "GND" H 1500 5250 50  0000 C CNN
F 2 "" H 1500 5400 50  0001 C CNN
F 3 "" H 1500 5400 50  0001 C CNN
	1    1500 5400
	1    0    0    -1  
$EndComp
$Comp
L power:GND #PWR058
U 1 1 5A98171C
P 1750 5400
F 0 "#PWR058" H 1750 5150 50  0001 C CNN
F 1 "GND" H 1750 5250 50  0000 C CNN
F 2 "" H 1750 5400 50  0001 C CNN
F 3 "" H 1750 5400 50  0001 C CNN
	1    1750 5400
	1    0    0    -1  
$EndComp
$Comp
L power:GND #PWR059
U 1 1 5A981745
P 2000 5400
F 0 "#PWR059" H 2000 5150 50  0001 C CNN
F 1 "GND" H 2000 5250 50  0000 C CNN
F 2 "" H 2000 5400 50  0001 C CNN
F 3 "" H 2000 5400 50  0001 C CNN
	1    2000 5400
	1    0    0    -1  
$EndComp
$Comp
L power:GND #PWR060
U 1 1 5A98176E
P 2250 5400
F 0 "#PWR060" H 2250 5150 50  0001 C CNN
F 1 "GND" H 2250 5250 50  0000 C CNN
F 2 "" H 2250 5400 50  0001 C CNN
F 3 "" H 2250 5400 50  0001 C CNN
	1    2250 5400
	1    0    0    -1  
$EndComp
$Comp
L power:GND #PWR061
U 1 1 5A981797
P 2500 5400
F 0 "#PWR061" H 2500 5150 50  0001 C CNN
F 1 "GND" H 2500 5250 50  0000 C CNN
F 2 "" H 2500 5400 50  0001 C CNN
F 3 "" H 2500 5400 50  0001 C CNN
	1    2500 5400
	1    0    0    -1  
$EndComp
Wire Wire Line
	1050 3250 2700 3250
Wire Wire Line
	1300 2850 2700 2850
Wire Wire Line
	1300 2950 2700 2950
NoConn ~ 2700 2750
NoConn ~ 2700 4250
NoConn ~ 2700 3950
NoConn ~ 2700 4150
Wire Wire Line
	9500 2750 10600 2750
$Comp
L team14-jts-100-rescue:R R201
U 1 1 5A983DD4
P 9850 2650
F 0 "R201" V 9950 2600 50  0000 C CNN
F 1 "15k" V 9850 2650 50  0000 C CNN
F 2 "standardSMD:R1608m" V 9780 2650 50  0001 C CNN
F 3 "" H 9850 2650 50  0001 C CNN
	1    9850 2650
	0    -1   -1   0   
$EndComp
$Comp
L power:GND #PWR062
U 1 1 5A983E3B
P 10000 2650
F 0 "#PWR062" H 10000 2400 50  0001 C CNN
F 1 "GND" H 10000 2500 50  0000 C CNN
F 2 "" H 10000 2650 50  0001 C CNN
F 3 "" H 10000 2650 50  0001 C CNN
	1    10000 2650
	0    -1   -1   0   
$EndComp
Wire Wire Line
	9700 2650 9500 2650
Text HLabel 1300 3050 0    60   Input ~ 0
MISO
Text HLabel 1300 3150 0    60   Output ~ 0
MOSI
Text HLabel 1300 2950 0    60   Output ~ 0
SCLK
Text HLabel 1300 2850 0    60   Output ~ 0
~CS_ADC
Text HLabel 1600 1250 0    60   Output ~ 0
Supply-PWM
Wire Wire Line
	1300 2650 2700 2650
$Comp
L team14-jts-100-rescue:STM_SWD_CON_10-Pin P801
U 1 1 5AB4D0BA
P 1600 6750
F 0 "P801" H 1250 7150 60  0000 C CNN
F 1 "STM_SWD_CON_10-Pin" H 1600 6350 60  0000 C CNN
F 2 "we-board-to-board:621X1021021" H 350 6900 60  0001 C CNN
F 3 "" H 350 6900 60  0000 C CNN
	1    1600 6750
	1    0    0    -1  
$EndComp
Wire Wire Line
	600  3750 600  6200
Wire Wire Line
	600  6200 2350 6200
Wire Wire Line
	2350 6200 2350 6550
Wire Wire Line
	2350 6550 2100 6550
Wire Wire Line
	2100 6650 2650 6650
Wire Wire Line
	2650 6150 2650 6650
Wire Wire Line
	2650 6150 650  6150
Wire Wire Line
	650  6150 650  3850
$Comp
L team14-jts-100-rescue:R R807
U 1 1 5AB4D69C
P 2350 7300
F 0 "R807" V 2430 7300 50  0000 C CNN
F 1 "15k" V 2350 7300 50  0000 C CNN
F 2 "standardSMD:R1608m" V 2280 7300 50  0001 C CNN
F 3 "" H 2350 7300 50  0001 C CNN
	1    2350 7300
	1    0    0    1   
$EndComp
Connection ~ 2350 6550
$Comp
L team14-jts-100-rescue:R R808
U 1 1 5AB4D8AD
P 2650 7300
F 0 "R808" V 2730 7300 50  0000 C CNN
F 1 "15k" V 2650 7300 50  0000 C CNN
F 2 "standardSMD:R1608m" V 2580 7300 50  0001 C CNN
F 3 "" H 2650 7300 50  0001 C CNN
	1    2650 7300
	-1   0    0    1   
$EndComp
Connection ~ 2650 6650
$Comp
L power:GND #PWR063
U 1 1 5AB4DB9F
P 2350 7550
F 0 "#PWR063" H 2350 7300 50  0001 C CNN
F 1 "GND" H 2350 7400 50  0000 C CNN
F 2 "" H 2350 7550 50  0001 C CNN
F 3 "" H 2350 7550 50  0001 C CNN
	1    2350 7550
	1    0    0    -1  
$EndComp
Wire Wire Line
	2350 7550 2350 7450
$Comp
L power:GND #PWR064
U 1 1 5AB4DC1B
P 2650 7550
F 0 "#PWR064" H 2650 7300 50  0001 C CNN
F 1 "GND" H 2650 7400 50  0000 C CNN
F 2 "" H 2650 7550 50  0001 C CNN
F 3 "" H 2650 7550 50  0001 C CNN
	1    2650 7550
	1    0    0    -1  
$EndComp
Wire Wire Line
	2650 7550 2650 7450
Wire Wire Line
	9800 4250 9800 6250
Wire Wire Line
	9800 6250 3650 6250
Wire Wire Line
	3650 6250 3650 6950
Connection ~ 9800 4250
Wire Wire Line
	3650 6950 2100 6950
$Comp
L team14-jts-100-rescue:C C807
U 1 1 5AB4EBF2
P 1700 1450
F 0 "C807" H 1725 1550 50  0000 L CNN
F 1 "10n" H 1725 1350 50  0000 L CNN
F 2 "standardSMD:C1608m" H 1738 1300 50  0001 C CNN
F 3 "" H 1700 1450 50  0001 C CNN
	1    1700 1450
	1    0    0    -1  
$EndComp
Wire Wire Line
	1600 1250 1700 1250
Wire Wire Line
	1700 1250 1700 1300
$Comp
L power:GND #PWR065
U 1 1 5AB4EF35
P 1700 1650
F 0 "#PWR065" H 1700 1400 50  0001 C CNN
F 1 "GND" H 1700 1500 50  0000 C CNN
F 2 "" H 1700 1650 50  0001 C CNN
F 3 "" H 1700 1650 50  0001 C CNN
	1    1700 1650
	1    0    0    -1  
$EndComp
Wire Wire Line
	1700 1650 1700 1600
$Comp
L team14-jts-100-rescue:R R806
U 1 1 5AB4F1C6
P 2000 1250
F 0 "R806" V 2080 1250 50  0000 C CNN
F 1 "100R" V 2000 1250 50  0000 C CNN
F 2 "standardSMD:R1608m" V 1930 1250 50  0001 C CNN
F 3 "" H 2000 1250 50  0001 C CNN
	1    2000 1250
	0    -1   -1   0   
$EndComp
Connection ~ 1700 1250
Wire Wire Line
	2750 6750 2100 6750
Text Label 10600 2750 0    60   ~ 0
SWO
Text Label 2750 6750 0    60   ~ 0
SWO
NoConn ~ 2700 3450
Text HLabel 800  6550 0    60   Input ~ 0
3V3
Wire Wire Line
	800  6550 1050 6550
$Comp
L power:GND #PWR066
U 1 1 5AB51DD9
P 850 7550
F 0 "#PWR066" H 850 7300 50  0001 C CNN
F 1 "GND" H 850 7400 50  0000 C CNN
F 2 "" H 850 7550 50  0001 C CNN
F 3 "" H 850 7550 50  0001 C CNN
	1    850  7550
	1    0    0    -1  
$EndComp
Wire Wire Line
	850  6650 850  6750
Wire Wire Line
	850  6650 1050 6650
Wire Wire Line
	1050 6750 850  6750
Connection ~ 850  6750
Wire Wire Line
	1050 6950 850  6950
Connection ~ 850  6950
Wire Wire Line
	2700 2450 2300 2450
Wire Wire Line
	2300 2450 2300 1250
Wire Wire Line
	2300 1250 2150 1250
NoConn ~ 9700 2450
NoConn ~ 9700 2550
Text Notes 1650 1050 0    60   ~ 0
Tau = 1us
Wire Wire Line
	9700 2950 9500 2950
NoConn ~ 2700 2550
Text Notes 2950 1700 0    60   ~ 0
TODO: \nSTM32L072KB
$Comp
L team14-jts-100-rescue:STM32L072K(B-Z)Ux U?
U 1 1 5AB43D61
P 6650 550
F 0 "U?" H 6650 650 50  0000 C CNN
F 1 "STM32L072K(B-Z)Ux" H 6650 450 50  0000 C CNN
F 2 "UFQFPN32" H 6650 350 50  0000 C CIN
F 3 "" H 6650 550 50  0000 C CNN
	1    6650 550 
	1    0    0    -1  
$EndComp
Wire Wire Line
	10050 4250 10150 4250
Wire Wire Line
	1100 4650 1100 4750
Wire Wire Line
	1100 4550 1100 4650
Wire Wire Line
	1100 4450 1500 4450
Wire Wire Line
	9600 4750 9600 4850
Wire Wire Line
	9600 4650 9600 4750
Wire Wire Line
	9600 4550 9600 4650
Wire Wire Line
	9600 4850 9600 4950
Wire Wire Line
	1500 4450 2700 4450
Wire Wire Line
	1750 4550 2700 4550
Wire Wire Line
	2000 4650 2700 4650
Wire Wire Line
	2250 4750 2500 4750
Wire Wire Line
	2500 4750 2700 4750
Wire Wire Line
	2350 6550 2350 7150
Wire Wire Line
	2650 6650 2650 7150
Wire Wire Line
	9800 4250 10050 4250
Wire Wire Line
	1700 1250 1850 1250
Wire Wire Line
	850  6750 850  6950
Wire Wire Line
	850  6950 850  7550
$EndSCHEMATC
