EESchema Schematic File Version 2
LIBS:power
LIBS:device
LIBS:switches
LIBS:relays
LIBS:motors
LIBS:transistors
LIBS:conn
LIBS:linear
LIBS:regul
LIBS:74xx
LIBS:cmos4000
LIBS:adc-dac
LIBS:memory
LIBS:xilinx
LIBS:microcontrollers
LIBS:dsp
LIBS:microchip
LIBS:analog_switches
LIBS:motorola
LIBS:texas
LIBS:intel
LIBS:audio
LIBS:interface
LIBS:digital-audio
LIBS:philips
LIBS:display
LIBS:cypress
LIBS:siliconi
LIBS:opto
LIBS:atmel
LIBS:contrib
LIBS:valves
LIBS:stm32
LIBS:connectors
LIBS:IC
LIBS:mech
LIBS:mkz
LIBS:passive
LIBS:semiconductor
LIBS:team14
LIBS:xell
LIBS:mpu-6050
LIBS:jts-100
LIBS:team14-jts-100-cache
EELAYER 25 0
EELAYER END
$Descr A4 11693 8268
encoding utf-8
Sheet 6 9
Title ""
Date ""
Rev ""
Comp ""
Comment1 ""
Comment2 ""
Comment3 ""
Comment4 ""
$EndDescr
$Comp
L R R602
U 1 1 5AA5DB4F
P 3250 2550
AR Path="/5A907B12/5AA5D845/5AA5DB4F" Ref="R602"  Part="1" 
AR Path="/5A907B12/5AA6217C/5AA5DB4F" Ref="R702"  Part="1" 
F 0 "R602" V 3330 2550 50  0000 C CNN
F 1 "10k/250mW" V 3150 2550 50  0000 C CNN
F 2 "standardSMD:R3216m" V 3180 2550 50  0001 C CNN
F 3 "" H 3250 2550 50  0001 C CNN
	1    3250 2550
	0    -1   -1   0   
$EndComp
Wire Wire Line
	3900 2550 3900 3250
Connection ~ 3900 2550
Wire Wire Line
	3600 2950 3600 3550
Wire Wire Line
	2950 3300 3600 3300
Connection ~ 3600 3300
Wire Wire Line
	2100 2550 3100 2550
$Comp
L C C601
U 1 1 5AA5DB62
P 2950 3000
AR Path="/5A907B12/5AA5D845/5AA5DB62" Ref="C601"  Part="1" 
AR Path="/5A907B12/5AA6217C/5AA5DB62" Ref="C701"  Part="1" 
F 0 "C601" H 2975 3100 50  0000 L CNN
F 1 "100n/100V" H 2975 2900 50  0000 L CNN
F 2 "standardSMD:C1608m" H 2988 2850 50  0001 C CNN
F 3 "" H 2950 3000 50  0001 C CNN
	1    2950 3000
	1    0    0    -1  
$EndComp
Wire Wire Line
	2950 3300 2950 3150
Wire Wire Line
	2950 2450 2950 2850
Connection ~ 2950 2550
Text HLabel 2100 1900 0    60   Input ~ 0
3V3
$Comp
L R R601
U 1 1 5AA5DB6E
P 2950 2300
AR Path="/5A907B12/5AA5D845/5AA5DB6E" Ref="R601"  Part="1" 
AR Path="/5A907B12/5AA6217C/5AA5DB6E" Ref="R701"  Part="1" 
F 0 "R601" V 2850 2300 50  0000 C CNN
F 1 "1M" V 2950 2300 50  0000 C CNN
F 2 "standardSMD:R1608m" V 2880 2300 50  0001 C CNN
F 3 "" H 2950 2300 50  0001 C CNN
	1    2950 2300
	1    0    0    1   
$EndComp
Wire Wire Line
	2950 1900 2950 2150
Text Label 2300 2550 0    60   ~ 0
TC+
$Comp
L GND #PWR026
U 1 1 5AA5DB85
P 3600 3550
AR Path="/5A907B12/5AA5D845/5AA5DB85" Ref="#PWR026"  Part="1" 
AR Path="/5A907B12/5AA6217C/5AA5DB85" Ref="#PWR032"  Part="1" 
F 0 "#PWR026" H 3600 3300 50  0001 C CNN
F 1 "GND" H 3600 3400 50  0000 C CNN
F 2 "" H 3600 3550 50  0001 C CNN
F 3 "" H 3600 3550 50  0001 C CNN
	1    3600 3550
	1    0    0    -1  
$EndComp
$Comp
L C C602
U 1 1 5AA5DBA6
P 4200 3250
AR Path="/5A907B12/5AA5D845/5AA5DBA6" Ref="C602"  Part="1" 
AR Path="/5A907B12/5AA6217C/5AA5DBA6" Ref="C702"  Part="1" 
F 0 "C602" H 4225 3350 50  0000 L CNN
F 1 "1n" H 4225 3150 50  0000 L CNN
F 2 "standardSMD:C1608m" H 4238 3100 50  0001 C CNN
F 3 "" H 4200 3250 50  0001 C CNN
	1    4200 3250
	1    0    0    -1  
$EndComp
$Comp
L GND #PWR030
U 1 1 5AA5DBAD
P 4200 3550
AR Path="/5A907B12/5AA5D845/5AA5DBAD" Ref="#PWR030"  Part="1" 
AR Path="/5A907B12/5AA6217C/5AA5DBAD" Ref="#PWR036"  Part="1" 
F 0 "#PWR030" H 4200 3300 50  0001 C CNN
F 1 "GND" H 4200 3400 50  0000 C CNN
F 2 "" H 4200 3550 50  0001 C CNN
F 3 "" H 4200 3550 50  0001 C CNN
	1    4200 3550
	1    0    0    -1  
$EndComp
Wire Wire Line
	4200 3550 4200 3400
Wire Wire Line
	4200 2550 4200 3100
Connection ~ 4200 2550
$Comp
L BAV99 D601
U 1 1 5AA5DBC7
P 3750 2950
AR Path="/5A907B12/5AA5D845/5AA5DBC7" Ref="D601"  Part="1" 
AR Path="/5A907B12/5AA6217C/5AA5DBC7" Ref="D701"  Part="1" 
F 0 "D601" H 3850 3100 40  0000 C CNN
F 1 "BAV199" H 3800 2600 40  0000 C CNN
F 2 "standardSMD:SOT23" V 3750 2800 60  0001 C CNN
F 3 "" V 3750 2800 60  0000 C CNN
	1    3750 2950
	1    0    0    -1  
$EndComp
Wire Wire Line
	3750 2950 3600 2950
Wire Wire Line
	3900 3250 3750 3250
Wire Wire Line
	3750 2650 3750 2550
Connection ~ 3750 2550
Text HLabel 2100 2550 0    60   Input ~ 0
In
Text Notes 4900 5550 0    60   ~ 0
TODO: evt. LTC2444 verwenden, ohne vorverstärker. \nHat in etwa 110kOhm Eingangsimpedanz im Dauerbetrieb. \n2pF eingangskondensator mit 1.8MHz Taktrate. \n\nKann negative Spannungen bis -Vref/2. \n\nHat 8 Kanäle\nCa. 8€/Stk + Referenzspannung (1-2€)
Wire Wire Line
	3400 2550 4500 2550
Wire Wire Line
	2100 1900 2950 1900
$Comp
L LTC2444 U?
U 1 1 5AB29090
P 8050 2700
F 0 "U?" H 6750 3500 60  0000 C CNN
F 1 "LTC2444" H 6900 3400 60  0000 C CNN
F 2 "" H 6200 4900 60  0001 C CNN
F 3 "" H 6200 4900 60  0001 C CNN
	1    8050 2700
	1    0    0    -1  
$EndComp
Text HLabel 10350 3050 2    60   Input ~ 0
3V3
$Comp
L L L?
U 1 1 5AB291ED
P 10150 3050
F 0 "L?" V 10100 3050 50  0000 C CNN
F 1 "600R" V 10225 3050 50  0000 C CNN
F 2 "" H 10150 3050 50  0001 C CNN
F 3 "" H 10150 3050 50  0001 C CNN
	1    10150 3050
	0    -1   -1   0   
$EndComp
Wire Wire Line
	10300 3050 10350 3050
$Comp
L C C?
U 1 1 5AB292D2
P 9700 3350
F 0 "C?" H 9725 3450 50  0000 L CNN
F 1 "10u/16V" H 9725 3250 50  0000 L CNN
F 2 "standardSMD:C1608m" H 9738 3200 50  0001 C CNN
F 3 "" H 9700 3350 50  0001 C CNN
	1    9700 3350
	1    0    0    -1  
$EndComp
$Comp
L GND #PWR?
U 1 1 5AB2940B
P 9700 3700
F 0 "#PWR?" H 9700 3450 50  0001 C CNN
F 1 "GND" H 9700 3550 50  0000 C CNN
F 2 "" H 9700 3700 50  0001 C CNN
F 3 "" H 9700 3700 50  0001 C CNN
	1    9700 3700
	1    0    0    -1  
$EndComp
Wire Wire Line
	9700 3700 9700 3500
Wire Wire Line
	9700 3600 7050 3600
Wire Wire Line
	7050 3600 7050 3500
Connection ~ 9700 3600
Wire Wire Line
	7150 3500 7150 3600
Connection ~ 7150 3600
Wire Wire Line
	7250 3500 7250 3600
Connection ~ 7250 3600
Wire Wire Line
	7350 3500 7350 3600
Connection ~ 7350 3600
Wire Wire Line
	7450 3500 7450 3600
Connection ~ 7450 3600
Wire Wire Line
	7550 3500 7550 3600
Connection ~ 7550 3600
Wire Wire Line
	7650 3500 7650 3600
Connection ~ 7650 3600
Wire Wire Line
	7750 3500 7750 3600
Connection ~ 7750 3600
Wire Wire Line
	7850 3500 7850 3600
Connection ~ 7850 3600
Wire Wire Line
	9450 3050 10000 3050
Wire Wire Line
	9700 3200 9700 3050
Connection ~ 9700 3050
$EndSCHEMATC
