M48
; DRILL file {KiCad 5.1.7-a382d34a8~87~ubuntu20.04.1} date Thu Nov  5 23:51:37 2020
; FORMAT={-:-/ absolute / metric / decimal}
; #@! TF.CreationDate,2020-11-05T23:51:37+01:00
; #@! TF.GenerationSoftware,Kicad,Pcbnew,5.1.7-a382d34a8~87~ubuntu20.04.1
; #@! TF.FileFunction,Plated,1,2,PTH
FMAT,2
METRIC
T1C0.300
T2C0.500
T3C1.200
%
G90
G05
T1
X50.85Y58.25
X50.85Y57.75
X52.95Y58.3
X53.45Y58.3
X54.05Y58.65
X54.6Y58.65
X54.75Y57.65
X55.25Y58.65
X64.0Y6.7
X85.3Y31.45
X63.4Y6.7
X71.45Y14.35
X64.0Y56.7
X76.6Y52.85
X64.6Y29.3
X64.0Y16.7
X64.6Y56.7
X64.6Y59.3
X77.4Y52.85
X64.6Y39.3
X4.7Y28.6
X4.7Y48.0
X64.6Y6.7
X63.4Y39.3
X71.0Y13.65
X77.4Y60.25
X63.4Y16.7
X4.7Y18.0
X79.7Y14.25
X76.6Y60.25
X63.4Y36.7
X4.7Y7.4
X63.4Y26.7
X80.05Y13.65
X4.7Y8.6
X77.4Y62.85
X63.4Y59.3
X63.4Y46.7
X63.4Y9.3
X64.0Y59.3
X64.6Y9.3
X76.6Y62.85
X4.7Y47.4
X64.0Y36.7
X4.7Y17.4
X4.7Y28.0
X77.4Y50.15
X64.6Y36.7
X64.6Y26.7
X64.0Y46.7
X64.6Y19.3
X76.6Y50.15
X75.9Y6.4
X64.6Y16.7
X64.0Y39.3
X4.7Y38.0
X75.1Y6.4
X4.7Y18.6
X74.25Y22.1
X4.7Y8.0
X67.3Y33.4
X67.3Y32.6
X85.3Y32.6
X4.7Y38.6
X64.0Y49.3
X4.7Y37.4
X4.7Y27.4
X64.0Y26.7
X4.7Y58.0
X75.15Y41.9
X63.4Y49.3
X4.7Y58.6
X4.7Y48.6
X64.0Y19.3
X64.0Y9.3
X4.7Y57.4
X64.6Y49.3
X63.4Y19.3
X64.0Y29.3
X63.4Y29.3
X64.6Y46.7
X63.4Y56.7
X85.3Y32.05
T2
X30.1Y38.0
X30.2Y28.0
X30.3Y18.0
X30.4Y48.0
X30.4Y8.0
X30.5Y58.0
X31.5Y38.0
X31.5Y28.0
X31.5Y18.0
X31.6Y48.0
X31.6Y48.0
X31.6Y8.0
X31.7Y58.0
X31.7Y58.0
X32.7Y38.0
X32.7Y18.0
X32.8Y48.0
X32.8Y28.0
X32.8Y8.0
X32.9Y58.0
X38.4Y48.0
X38.4Y38.0
X38.4Y18.0
X38.5Y28.0
X38.5Y8.0
X38.7Y58.0
X39.9Y38.0
X40.3Y58.4
X40.3Y57.7
X41.4Y38.0
X42.4Y8.0
X43.0Y17.201
X43.398Y57.596
X43.4Y8.0
X43.558Y58.975
X44.4Y58.801
X44.4Y8.0
X44.5Y38.801
X44.5Y17.201
X47.5Y38.801
X50.9Y37.3
X51.0Y47.201
X51.0Y18.0
X51.0Y8.801
X51.6Y38.1
X52.0Y47.201
X52.0Y18.0
X52.0Y8.801
X53.0Y28.5
X53.299Y47.201
X54.5Y28.5
X56.0Y28.5
X58.0Y18.0
X58.3Y38.1
X58.5Y28.0
X59.0Y18.0
X59.5Y58.4
X59.5Y58.4
X59.5Y57.5
X59.5Y38.1
X59.5Y28.0
T3
X69.15Y35.27
X69.15Y28.73
X71.69Y38.81
X71.69Y25.19
X74.23Y38.81
X74.23Y25.19
X76.77Y38.81
X76.77Y25.19
X79.31Y38.81
X79.31Y25.19
X81.85Y35.27
X81.85Y28.73
T0
M30
